[start]
20180109	1100	20300101	1100	50700	999999	0	0	0	1	0	0	0	0	10000	0	0	0	0	0	0	0	0	0	
20170101	0	20300101	0	80200	999999	0	0	2	3	0	30	0	0	0	0	7500	0	2000	0	500	0	0	0		0	30	0	0	0	0	7500	0	2000	0	500	0	0	0		0	30	0	0	0	0	7500	0	2000	0	500	0	0	0	
20170101	0	20300101	0	80200	999999	0	0	3	3	0	75	0	0	0	0	7500	0	2000	0	500	0	0	0		0	75	0	0	0	0	7500	0	2000	0	500	0	0	0		0	75	0	0	0	0	7500	0	2000	0	500	0	0	0	
20210503	1100	20300101	0	100400	999999	0	0	0	3	-1	0	0	0	0	0	0	0	0	0	0	0	0	0		-1	0	0	0	0	0	0	0	0	0	0	0	0	0		62	0	0	0	0	0	7400	0	2100	0	500	0	0	0	【Limited】 Collect Li'l Cats only during this event!	0	0	4	fr	【Durée limitée】 P’tits Chats uniquement dans cet événement !	it	【Limitato】 Ottieni Mini Gatti solo in questo evento! 	de	(Begrenzt) Sammle nur während dieses Events kleine Katzen!	es	[Exclusivo] ¡Consigue Minigatos solo en este evento!
20210416	1100	20300101	0	100400	999999	0	0	0	4	-1	0	0	0	0	0	0	0	0	0	0	0	0	0		-1	0	0	0	0	0	0	0	0	0	0	0	0	0		-1	0	0	0	0	0	0	0	0	0	0	0	0	0		63	0	300	0	0	0	5100	0	3500	0	1400	0	0	0	【Limited Event】 Special chance for XP and Catamins!	0	0	0	4	fr	【Durée limitée】 Chance spéciale d’obtenir XP et vichamines ! 	it	【Evento limitato】 Occasione speciale per XP e Vitamiao! 	de	(Begrenztes Event) Sonderchance auf XP und Katzamine! 	es	[Evento exclusivo] ¡Probabilidad de ganar XP y gataminas!
20220106	1100	20300101	1100	110100	999999	0	0	0	1	64	0	2300	0	10000	0	0	0	0	0	0	0	0	0		4	fr		it		de		es	
20220527	1100	20300101	1100	110400	999999	0	0	1	4	-1	0	0	0	0	0	0	0	0	0	0	0	0	0		-1	0	0	0	0	0	0	0	0	0	0	0	0	0		-1	0	0	0	0	0	0	0	0	0	0	0	0	0		723	0	0	0	0	0	0	0	0	0	9500	0	500	0	Get a Guaranteed Uber or Legend Rare from the Legend Capsules!	0	0	0	4	fr	Un ultra rare ou un légendaire garanti dans les Chapsules légendaires !	it	Ottieni un'unità ultra rara o leggendaria garantita dalle Capsule leggendarie!	de	Garantiert eine mega- oder legendär seltene Katze aus legendären Kapseln!	es	¡Una unidad megarrara o legendaria garantizada en las bolas legendarias!
20220527	1100	20300101	1100	110400	999999	0	0	1	5	-1	0	0	0	0	0	0	0	0	0	0	0	0	0		-1	0	0	0	0	0	0	0	0	0	0	0	0	0		-1	0	0	0	0	0	0	0	0	0	0	0	0	0		-1	0	0	0	0	0	0	0	0	0	0	0	0	0		722	0	0	0	0	0	0	0	0	0	10000	0	0	0	Get an Uber Rare Cat!! 100% Uber drop Rate in the PLATINUM CAPSULES!	0	0	0	0	4	fr	Obtiens un ultra rare ! 100 % de chances avec les Chapsules platine !	it	Ottieni un gatto ultra raro! 100% possibilità di Ultra nelle CAPSULE PLATINO!	de	Hol dir eine megaseltene Katze!! 100-%-Chance in den PLATINKAPSELN!	es	¡Gana un gato megarraro! Garantizado en las BOLAS DE PLATINO.
20220715	1100	20300101	1100	110600	999999	0	0	1	4	-1	0	0	0	0	0	0	0	0	0	0	0	0	0		-1	0	0	0	0	0	0	0	0	0	0	0	0	0		-1	0	0	0	0	0	0	0	0	0	0	0	0	0		730	0	0	0	0	0	0	0	0	0	9500	0	500	0	Get a Guaranteed Uber or Legend Rare from the Legend Capsules!	0	0	0	4	fr	Un ultra rare ou un légendaire garanti dans les Chapsules légendaires !	it	Ottieni un'unità ultra rara o leggendaria garantita dalle Capsule leggendarie!	de	Garantiert eine mega- oder legendär seltene Katze aus legendären Kapseln!	es	¡Una unidad megarrara o legendaria garantizada en las bolas legendarias!
20220715	1100	20300101	1100	110600	999999	0	0	1	5	-1	0	0	0	0	0	0	0	0	0	0	0	0	0		-1	0	0	0	0	0	0	0	0	0	0	0	0	0		-1	0	0	0	0	0	0	0	0	0	0	0	0	0		-1	0	0	0	0	0	0	0	0	0	0	0	0	0		729	0	0	0	0	0	0	0	0	0	10000	0	0	0	Get an Uber Rare Cat!! 100% Uber drop Rate in the PLATINUM CAPSULES!	0	0	0	0	4	fr	Obtiens un ultra rare ! 100 % de chances avec les Chapsules platine !	it	Ottieni un gatto ultra raro! 100% possibilità di Ultra nelle CAPSULE PLATINO!	de	Hol dir eine megaseltene Katze!! 100-%-Chance in den PLATINKAPSELN!	es	¡Gana un gato megarraro! Garantizado en las BOLAS DE PLATINO.
20220802	1100	20300101	1100	110700	999999	0	0	1	4	-1	0	0	0	0	0	0	0	0	0	0	0	0	0		-1	0	0	0	0	0	0	0	0	0	0	0	0	0		-1	0	0	0	0	0	0	0	0	0	0	0	0	0		736	0	0	0	0	0	0	0	0	0	9500	0	500	0	Get a Guaranteed Uber or Legend Rare from the Legend Capsules!	0	0	0	4	fr	Un ultra rare ou un légendaire garanti dans les Chapsules légendaires !	it	Ottieni un'unità ultra rara o leggendaria garantita dalle Capsule leggendarie!	de	Garantiert eine mega- oder legendär seltene Katze aus legendären Kapseln!	es	¡Una unidad megarrara o legendaria garantizada en las bolas legendarias!
20220802	1100	20300101	1100	110700	999999	0	0	1	5	-1	0	0	0	0	0	0	0	0	0	0	0	0	0		-1	0	0	0	0	0	0	0	0	0	0	0	0	0		-1	0	0	0	0	0	0	0	0	0	0	0	0	0		-1	0	0	0	0	0	0	0	0	0	0	0	0	0		735	0	0	0	0	0	0	0	0	0	10000	0	0	0	Get an Uber Rare Cat!! 100% Uber drop Rate in the PLATINUM CAPSULES!	0	0	0	0	4	fr	Obtiens un ultra rare ! 100 % de chances avec les Chapsules platine !	it	Ottieni un gatto ultra raro! 100% possibilità di Ultra nelle CAPSULE PLATINO!	de	Hol dir eine megaseltene Katze!! 100-%-Chance in den PLATINKAPSELN!	es	¡Gana un gato megarraro! Garantizado en las BOLAS DE PLATINO.
20220808	1100	20220919	2359	110700	999999	0	0	4	1	20	0	0	0	500	0	5000	0	2000	0	1000	1	1500	0	【Summer Break Cats】 Catch items & limited Cats using Legend Nets, thru 9/19!	 	 more draws until a guaranteed Bug hero!	4	fr	【Chats de vacances d'été】 Attrape obj. et Chats au filet légend. jusqu'au 19/9 !	 	 tirages supplémentaires avant d'obtenir un insecte garanti.	it	【Gatti estivi】 Oggetti e Gatti limitati con le reti leggendarie, fino al 19/09!	Altri	 sorteggi fino a un eroe insetto garantito!	de	(Sommerferienkatzen) Bis 19.9.: Gegenst. & limit. Katzen mit Legendennetzen!	 	 Ziehungen bis zum garantierten Käferhelden!	es	¡Gatos Estivales! ¡Pesca objetos y unidades con redes legendarias hasta el 19/9!	¡	 aperturas más para tener un bicho héroe garantizado!
20220808	1100	20220829	1100	110700	999999	0	0	1	2	-1	0	0	0	0	0	0	0	0	0	0	0	0	0		750	150	0	16384	0	0	7000	0	2500	0	500	0	0	0	New heroes appear for summer fun! ★ Tap banner for info!	0	4	fr	Nouvelle dame de l’été à découvrir ! ★ Touche pour plus d’infos !	it	Ci sono novità tra le Ragazze estive! ★ Tocca il banner!	de	Die Sommermädchen haben ein neues Mitglied! ★ Tippe auf das Banner!	es	¡Nuevo miembro de las chicas de verano! ★ ¡Toca para saber más!
20220815	1100	20220817	1100	110700	999999	0	0	1	3	-1	0	0	0	0	0	0	0	0	0	0	0	0	0		-1	0	0	0	0	0	0	0	0	0	0	0	0	0		587	150	0	16384	0	0	6970	0	2500	0	500	0	30	0	Spooky beauties from the netherworld! It's the GIRLS & MONSTERS!	0	0	4	fr	Beautés inquiétantes venues de l’au-delà ! C’est Les filles et les monstres !	it	Bellezze spettrali dall'oltretomba! RAGAZZE E MOSTRI in arrivo!	de	Gespenstische Schönheiten aus dem Jenseits! MÄDCHEN & MONSTER!	es	Bellezas escalofriantes del inframundo: ¡Chicas y Monstruos!
20220817	1100	20220819	1100	110700	999999	0	0	1	3	-1	0	0	0	0	0	0	0	0	0	0	0	0	0		-1	0	0	0	0	0	0	0	0	0	0	0	0	0		679	150	0	16384	0	0	6970	0	2500	0	500	0	30	0	Punish Floating and Aku with NEW hero Lucifer the Fallen! ★ Tap for info!	0	0	4	fr	Élimine flottants et Akus avec Lucifer le déchu ! ★ Touche pour des infos	it	Punisci fluttuanti e Aku con il NUOVO eroe Lucifero caduto! ★ Tocca per info!	de	Strafe Fliegende & Aku: NEUER „Luzifer der Gefallene“! ★ Tippe für mehr Info!	es	¡Castiga a akus y voladores con Lucifer el Caído! ★ ¡Toca para saber más!
20220819	1100	20220822	1100	110700	999999	0	0	1	1	734	150	0	0	0	0	6500	0	2600	0	900	0	0	0	NEW Iz, Dancer of Grief joins EPICFEST! Plus, increased Uber Rare drop rates!	4	fr	Iz la danseuse du chagrin à la Méga-fête ! Taux d’obtention d'ultra rare élevé !	it	NOVITÀ Iz ballerina del dolore al FESTIVAL EPICO! PIÙ possib. di ultra rare!	de	NEUE „Iz, Tänzerin des Kummers“ b. EPISCHEN FEST! Höhere Chance auf Megaseltene!	es	¡Iz la Bailarina del Dolor se une al HIPERFESTI! Más prob. de gatos megarraros.
20220822	1100	20220824	1100	110700	999999	0	0	1	3	-1	0	0	0	0	0	0	0	0	0	0	0	0	0		-1	0	0	0	0	0	0	0	0	0	0	0	0	0		626	150	0	16384	0	0	6970	0	2500	0	500	0	30	0	NEW Barrier and Shield destroying hero Furiluga appears! ★Tap banner for info!	0	0	4	fr	Nouvel anti-barrières et boucliers Furiluga ! ★Bannière pour plus d'infos.	it	Arriva Furiluga: il NUOVO eroe che distrugge barriere e scudi! ★Tocca il banner!	de	NEUER Barrieren- und Schilde-zerstörender Held Furiluga! ★ Tippe auf das Banner!	es	El nuevo héroe, Furiluga, rompe barreras y escudos. ★ ¡Toca para saber más!
20220824	1100	20220829	1100	110700	999999	0	0	1	2	-1	0	0	0	0	0	0	0	0	0	0	0	0	0		750	150	0	0	0	0	7000	0	2500	0	500	1	0	0	New heroes appear for summer fun, with 11-Draw Uber Guarantee!	0	4	fr	Nouvelle dame de l’été à découvrir ! ★ Ultra rare garanti sur 11 ouvertures !	it	Ci sono novità tra le Ragazze estive! ★ con unità Ultra sicura su 11 sorteggi!	de	Die Sommermädchen haben ein neues Mitglied! ★ mit 11er-Ziehung-Megagarantie!	es	¡Nuevo miembro de las chicas de verano! ★ ¡Abrir 11 bolas da un megarraro!
20220824	1100	20220826	1100	110700	999999	0	0	1	3	-1	0	0	0	0	0	0	0	0	0	0	0	0	0		-1	0	0	0	0	0	0	0	0	0	0	0	0	0		719	150	0	0	0	0	6970	0	2500	0	500	1	30	0	Colossus Slaying NEW hero Bliza joins the Elemental Pixies! ★ Tap for info!	0	0	4	fr	Bliza, fléau des colosses des Farfadets élémentaires ! ★ Touche pour des infos	it	L'ammazzagiganti Bliza si unisce alle Fate elementali! ★ Tocca per info!	de	Die NEUE Kolosstöter-Heldin „Bliza“ stößt zu den Elementfeen! ★ Tippe für Infos!	es	Ventis matacolosos se une a las Hadas Elementales. ★ ¡Toca para saber más!
20220826	1100	20220829	1100	110700	999999	0	0	1	1	742	150	0	0	0	0	6970	0	2500	0	500	1	30	0	Colossus Slayer Cat Tengu joins the fight! Tap banner for info!	4	fr	Chat Tengu, fléau des colosses, rejoint la bataille ! Touche pour plus d'infos !	it	L'ammazzagiganti Gatto Tengu Scende in campo! Tocca il banner!	de	Kolosstöter „Katzen-Tengu“ tritt dem Kampf bei! Tippe auf das Banner!	es	¡Gatengu matacolosos se une a la lucha! ¡Toca para saber más!
20220826	1100	20300101	1100	110700	999999	0	0	1	4	-1	0	0	0	0	0	0	0	0	0	0	0	0	0		-1	0	0	0	0	0	0	0	0	0	0	0	0	0		-1	0	0	0	0	0	0	0	0	0	0	0	0	0		746	0	0	0	0	0	0	0	0	0	9500	0	500	0	Get a Guaranteed Uber or Legend Rare from the Legend Capsules!	0	0	0	4	fr	Un ultra rare ou un légendaire garanti dans les Chapsules légendaires !	it	Ottieni un'unità ultra rara o leggendaria garantita dalle Capsule leggendarie!	de	Garantiert eine mega- oder legendär seltene Katze aus legendären Kapseln!	es	¡Una unidad megarrara o legendaria garantizada en las bolas legendarias!
20220826	1100	20300101	1100	110700	999999	0	0	1	5	-1	0	0	0	0	0	0	0	0	0	0	0	0	0		-1	0	0	0	0	0	0	0	0	0	0	0	0	0		-1	0	0	0	0	0	0	0	0	0	0	0	0	0		-1	0	0	0	0	0	0	0	0	0	0	0	0	0		745	0	0	0	0	0	0	0	0	0	10000	0	0	0	Get an Uber Rare Cat!! 100% Uber drop Rate in the PLATINUM CAPSULES!	0	0	0	0	4	fr	Obtiens un ultra rare ! 100 % de chances avec les Chapsules platine !	it	Ottieni un gatto ultra raro! 100% possibilità di Ultra nelle CAPSULE PLATINO!	de	Hol dir eine megaseltene Katze!! 100-%-Chance in den PLATINKAPSELN!	es	¡Gana un gato megarraro! Garantizado en las BOLAS DE PLATINO.
[end]
