[start]
20180109	1100	20300101	1100	50700	999999	0	0	0	1	0	0	0	0	10000	0	0	0	0	0	0	0	0	0	
20170101	0	20300101	0	80200	999999	0	0	2	3	0	30	0	0	0	0	7500	0	2000	0	500	0	0	0		0	30	0	0	0	0	7500	0	2000	0	500	0	0	0		0	30	0	0	0	0	7500	0	2000	0	500	0	0	0	
20170101	0	20300101	0	80200	999999	0	0	3	3	0	75	0	0	0	0	7500	0	2000	0	500	0	0	0		0	75	0	0	0	0	7500	0	2000	0	500	0	0	0		0	75	0	0	0	0	7500	0	2000	0	500	0	0	0	
20210503	1100	20300101	0	120400	999999	0	0	0	3	-1	0	0	0	0	0	0	0	0	0	0	0	0	0		-1	0	0	0	0	0	0	0	0	0	0	0	0	0		62	0	0	0	0	0	7400	0	2100	0	500	0	0	0	【Limited】 Collect Li'l Cats only during this event!	0	0	5	fr	【Durée limitée】 P’tits Chats uniquement dans cet événement !	it	【Limitato】 Ottieni Mini Gatti solo in questo evento! 	de	(Begrenzt) Sammle nur während dieses Events kleine Katzen!	es	[Exclusivo] ¡Consigue Minigatos solo en este evento!	th	【จำกัด】 เก็บแมวเล็กเฉพาะในอีเวนต์นี้เท่านั้น!
20210416	1100	20300101	0	100400	999999	0	0	0	4	-1	0	0	0	0	0	0	0	0	0	0	0	0	0		-1	0	0	0	0	0	0	0	0	0	0	0	0	0		-1	0	0	0	0	0	0	0	0	0	0	0	0	0		63	0	300	0	0	0	5100	0	3500	0	1400	0	0	0	【Limited Event】 Special chance for XP and Catamins!	0	0	0	5	fr	【Durée limitée】 Chance spéciale d’obtenir XP et vichamines ! 	it	【Evento limitato】 Occasione speciale per XP e Vitamiao! 	de	(Begrenztes Event) Sonderchance auf XP und Katzamine! 	es	[Evento exclusivo] ¡Probabilidad de ganar XP y gataminas!	th	【อีเวนต์จำกัด】 โอกาสพิเศษที่จะได้รับ XP และวิตาเมี้ยว!
20220106	1100	20300101	1100	110100	999999	0	0	0	1	64	0	2300	0	10000	0	0	0	0	0	0	0	0	0		4	fr		it		de		es	
20230512	1100	20300101	0	120200	999999	0	0	1	4	-1	0	0	0	0	0	0	0	0	0	0	0	0	0		-1	0	0	0	0	0	0	0	0	0	0	0	0	0		-1	0	0	0	0	0	0	0	0	0	0	0	0	0		803	0	0	0	0	0	0	0	0	0	9500	0	500	0	Get a Guaranteed Uber or Legend Rare from the Legend Capsules!	0	0	0	5	fr	Un ultra rare ou un légendaire garanti dans les Chapsules légendaires !	it	Ottieni un'unità ultra rara o leggendaria garantita dalle Capsule leggendarie!	de	Garantiert eine mega- oder legendär seltene Katze aus legendären Kapseln!	es	¡Una unidad megarrara o legendaria garantizada en las bolas legendarias!	th	ได้อูเบอร์หรือแรร์ตำนานแบบรับประกันจากกาชาตำนาน!
20230512	1100	20300101	0	120200	999999	0	0	1	5	-1	0	0	0	0	0	0	0	0	0	0	0	0	0		-1	0	0	0	0	0	0	0	0	0	0	0	0	0		-1	0	0	0	0	0	0	0	0	0	0	0	0	0		-1	0	0	0	0	0	0	0	0	0	0	0	0	0		802	0	0	0	0	0	0	0	0	0	10000	0	0	0	Get an Uber Rare Cat!! 100% Uber drop Rate in the PLATINUM CAPSULES!	0	0	0	0	5	fr	Obtiens un ultra rare ! 100 % de chances avec les Chapsules platine !	it	Ottieni un gatto ultra raro! 100% possibilità di Ultra nelle CAPSULE PLATINO!	de	Hol dir eine megaseltene Katze!! 100-%-Chance in den PLATINKAPSELN!	es	¡Gana un gato megarraro! Garantizado en las BOLAS DE PLATINO.	th	รับแมวอูเบอร์แรร์ไปเลย!! อัตราดร็อปอูเบอร์ 100% ในกาชาแพลตินัม!
20230717	1100	20230804	1100	120400	999999	0	0	1	2	-1	0	0	0	0	0	0	0	0	0	0	0	0	0		810	150	0	16384	0	0	7000	0	2500	0	500	0	0	0	New June Bride Capsules ★ Tap banner for info!	0	5	fr	ouvelles Chapsules Mariée de juin ★ Touche pour info !	it	Nuove capsule Sposa di giugno ★ Tocca il banner!	de	Neue „Juni-Braut“-Kapseln ★ Tippe auf das Banner!	es	Bolas de Novia del Diablo de Junio ★ ¡Toca para saber más!	th	กาชาใหม่ เจ้าสาวเดือนมิถุนายน ★ แตะแบนเนอร์เพื่อดูข้อมูลได้เลย!
20230725	1100	20230804	1100	120400	999999	0	0	1	2	-1	0	0	0	0	0	0	0	0	0	0	0	0	0		810	150	0	0	0	0	7000	0	2500	0	500	1	0	0	New June Bride Capsules, along with a guaranteed Uber in each 11-Capsule Draw!	0	5	fr	Nouvelles Chapsules Mariée de juin, un ultra garanti en ouvrant 11 Chapsules !	it	Nuove capsule Sposa di giugno, con 1 ultra garantito in ogni sort. 11 capsule!	de	Neue „Juni-Braut“-Kapseln, mit garantiert Megaseltener in jeder 11er-Ziehung!	es	Bolas de Novia del Diablo de Junio y un megarraro garantizado al abrir 11 bolas.	th	กาชาใหม่ เจ้าสาวเดือนมิถุนายน พร้อมการันตีรับอูเบอร์ในทุกการสุ่มกาชาแบบ 11 ครั้ง!
20230728	1100	20230804	1100	120400	999999	0	0	1	2	-1	0	0	0	0	0	0	0	0	0	0	0	0	0		810	150	0	16384	0	0	7000	0	2500	0	500	0	0	0	New June Bride Capsules ★ Tap banner for info!	0	5	fr	ouvelles Chapsules Mariée de juin ★ Touche pour info !	it	Nuove capsule Sposa di giugno ★ Tocca il banner!	de	Neue „Juni-Braut“-Kapseln ★ Tippe auf das Banner!	es	Bolas de Novia del Diablo de Junio ★ ¡Toca para saber más!	th	กาชาใหม่ เจ้าสาวเดือนมิถุนายน ★ แตะแบนเนอร์เพื่อดูข้อมูลได้เลย!
20230717	1100	20230808	000	120400	999999	0	0	4	1	24	0	0	0	1400	0	5000	0	3000	0	600	1	0	0	Draw limited "June Bride of the Devil" capsules using Holy Water thru 8/7!	Draw 	 more times from this Event for a guaranteed chance at a Limited Hero!	5	fr	Ouvre des Chapsules Mariée du démon de juin avec de l'eau bénite → 07/08 !	Ouvre encore	 Chapsules dans cet événement pour obtenir un héros exclusif à coup sûr.	it	Sorteggia caps. limit. "Sposa di giugno del diavolo" con acqua santa fino a 7/8!	Sorteggia altre	 volte da questo evento per ottenere un eroe limitato garantito!	de	Ziehe mit Weihwasser limitierte „Juni-Braut des Teufels“-Kapseln bis zum 7. 8.!	Ziehe	 Mal öfter aus diesem Event für einen limit. Helden garantiert!	es	Abre bolas de Novia del Diablo de Junio con agua bendita. ¡Hasta el 7 de agosto!	Abre	 bolas más en este evento para llevarte un héroe exclusivo.	th	สุ่มกาชาจำกัด "เจ้าสาวปีศาจเดือนมิถุนายน" โดยใช้น้ำมนต์ได้จนถึง 7/8!	สุ่ม 	 ได้มากครั้งขึ้นจากอีเวนต์นี้เพื่อรับประกันโอกาสได้ฮีโร่แบบจำกัด!
20230725	1100	20230728	1100	120400	999999	0	0	1	3	-1	0	0	0	0	0	0	0	0	0	0	0	0	0		-1	0	0	0	0	0	0	0	0	0	0	0	0	0		741	150	0	0	0	0	6970	0	2500	0	500	1	30	0	Colossus Slayer Cat Tengu joins the fight! Tap banner for info!	0	0	5	fr	Chat Tengu, fléau des colosses, rejoint la bataille ! Touche pour plus d'infos !	it	L'ammazzagiganti Gatto Tengu Scende in campo! Tocca il banner!	de	Kolosstöter „Katzen-Tengu“ tritt dem Kampf bei! Tippe auf das Banner!	es	¡Gatengu matacolosos se une a la lucha! ¡Toca para saber más!	th	มือสังหารยักษ์ แมวเทงกุ มาร่วมต่อสู้ด้วย! แตะแบนเนอร์เพื่อดูข้อมูลได้เลย!
20230728	1100	20230731	1100	120400	999999	0	0	1	3	-1	0	0	0	0	0	0	0	0	0	0	0	0	0		-1	0	0	0	0	0	0	0	0	0	0	0	0	0		694	150	0	16384	0	0	6970	0	2500	0	500	0	30	0	Take down Colossal prey with NEW hero Huntress Terun! ★ Tap for info!	0	0	5	fr	Abats les colosses avec Terun chasseresse ! ★ Touche pour des infos	it	Elimina nemici giganti con la NUOVA unità Terun cacciatrice! ★ Tocca per info!	de	Vernichte kolossale Ziele: NEUE Heldin „Jägerin Terun“! ★ Tippe für mehr Info!	es	¡Derrota a presas colosales con Terun Cazadora! ★ ¡Toca para saber más!	th	ปราบเหยื่อยักษ์ด้วยฮีโร่ใหม่อย่าง เทรันนักล่า! ★ แตะเพื่อดูข้อมูลเลย!
20230731	1100	20230804	1100	120401	999999	0	0	1	3	-1	0	0	0	0	0	0	0	0	0	0	0	0	0		-1	0	0	0	0	0	0	0	0	0	0	0	0	0		810	150	0	16384	0	0	7000	0	2500	0	500	0	0	0	New June Bride Capsules ★ Tap banner for info!	0	0	5	fr	ouvelles Chapsules Mariée de juin ★ Touche pour info !	it	Nuove capsule Sposa di giugno ★ Tocca il banner!	de	Neue „Juni-Braut“-Kapseln ★ Tippe auf das Banner!	es	Bolas de Novia del Diablo de Junio ★ ¡Toca para saber más!	th	กาชาใหม่ เจ้าสาวเดือนมิถุนายน ★ แตะแบนเนอร์เพื่อดูข้อมูลได้เลย!
20230731	1100	20230814	1100	120401	999999	0	0	1	1	820	150	0	16384	0	0	7000	0	2500	0	500	0	0	0	New unit One-Eyed Asuka added! ★ Tap banner for info!	5	fr	New unit One-Eyed Asuka added! ★ Tap banner for info!	it	New unit One-Eyed Asuka added! ★ Tap banner for info!	de	New unit One-Eyed Asuka added! ★ Tap banner for info!	es	New unit One-Eyed Asuka added! ★ Tap banner for info!	th	New unit One-Eyed Asuka added! ★ Tap banner for info!
20230731	1100	20230814	1100	120401	999999	0	0	1	2	-1	0	0	0	0	0	0	0	0	0	0	0	0	0		821	150	0	16384	0	0	7000	0	2500	0	500	0	0	0	New unit Eva Unit-13 added! ★ Tap banner for info!	0	5	fr	New unit Eva Unit-13 added! ★ Tap banner for info!	it	New unit Eva Unit-13 added! ★ Tap banner for info!	de	New unit Eva Unit-13 added! ★ Tap banner for info!	es	New unit Eva Unit-13 added! ★ Tap banner for info!	th	New unit Eva Unit-13 added! ★ Tap banner for info!
20230804	1100	20230807	1100	120401	999999	0	0	1	1	800	150	0	0	0	0	6500	0	2600	0	900	0	0	0	NEW hero Child of Destiny Phono! Plus, higher drop rates for Uber Rare Cats!	5	fr	Nouv. héros Phono l'enfant du destin ! + meilleurs taux d'obt. d'ultra rares !	it	NUOVO eroe Phono figlio del destino! Più probabilità per Gatti ultra rari!	de	NEUE Heldin „Schicksalskind Phono“! Plus mehr megaseltene Katzen!	es	¡NUEVO héroe, «Phono, Hijo del Destino»! ¡Más prob. de conseguir megarraros!	th	ฮีโร่ใหม่ บุตรแห่งโฟโนโชคชะตา และอัตราดร็อปแมวอูเบอร์แรร์สูงกว่าเดิม!
20230804	1100	20230814	1100	120401	999999	0	0	1	2	-1	0	0	0	0	0	0	0	0	0	0	0	0	0		820	150	0	16384	0	0	7000	0	2500	0	500	0	0	0	New unit One-Eyed Asuka added! ★ Tap banner for info!	0	5	fr	New unit One-Eyed Asuka added! ★ Tap banner for info!	it	New unit One-Eyed Asuka added! ★ Tap banner for info!	de	New unit One-Eyed Asuka added! ★ Tap banner for info!	es	New unit One-Eyed Asuka added! ★ Tap banner for info!	th	New unit One-Eyed Asuka added! ★ Tap banner for info!
20230804	1100	20230814	1100	120401	999999	0	0	1	3	-1	0	0	0	0	0	0	0	0	0	0	0	0	0		-1	0	0	0	0	0	0	0	0	0	0	0	0	0		821	150	0	16384	0	0	7000	0	2500	0	500	0	0	0	New unit Eva Unit-13 added! ★ Tap banner for info!	0	0	5	fr	New unit Eva Unit-13 added! ★ Tap banner for info!	it	New unit Eva Unit-13 added! ★ Tap banner for info!	de	New unit Eva Unit-13 added! ★ Tap banner for info!	es	New unit Eva Unit-13 added! ★ Tap banner for info!	th	New unit Eva Unit-13 added! ★ Tap banner for info!
20230807	1100	20230814	1100	120401	999999	0	0	1	1	820	150	0	16384	0	0	7000	0	2500	0	500	0	0	0	New unit One-Eyed Asuka added! ★ Tap banner for info!	5	fr	New unit One-Eyed Asuka added! ★ Tap banner for info!	it	New unit One-Eyed Asuka added! ★ Tap banner for info!	de	New unit One-Eyed Asuka added! ★ Tap banner for info!	es	New unit One-Eyed Asuka added! ★ Tap banner for info!	th	New unit One-Eyed Asuka added! ★ Tap banner for info!
20230807	1100	20230814	1100	120401	999999	0	0	1	2	-1	0	0	0	0	0	0	0	0	0	0	0	0	0		821	150	0	16384	0	0	7000	0	2500	0	500	0	0	0	New unit Eva Unit-13 added! ★ Tap banner for info!	0	5	fr	New unit Eva Unit-13 added! ★ Tap banner for info!	it	New unit Eva Unit-13 added! ★ Tap banner for info!	de	New unit Eva Unit-13 added! ★ Tap banner for info!	es	New unit Eva Unit-13 added! ★ Tap banner for info!	th	New unit Eva Unit-13 added! ★ Tap banner for info!
20230807	1100	20230810	1100	120401	999999	0	0	1	3	-1	0	0	0	0	0	0	0	0	0	0	0	0	0		-1	0	0	0	0	0	0	0	0	0	0	0	0	0		789	150	0	16384	0	0	6970	0	2500	0	500	0	30	0	Mighty new hero Issun Boshi joins the ancient heroes! ★ Tap banner for info!	0	0	5	fr	Le héros puissant Issun Boshi rejoint les anciens ! ★ Touche pour plus d’infos !	it	Il nuovo eroe Issun Boshi si unisce agli Eroi antichi! ★ Tocca il banner!	de	Der neue Held „Issun Boshi“ tritt den uralten bei! ★ Tippe auf das Banner!	es	¡El nuevo héroe «Issun Boshi» se une a héroes antiguos! ★ ¡Toca para saber más!	th	อิสซัน โบชิ ฮีโร่จอมพลังใหม่ ร่วมทัพฮีโร่โบราณแล้ว! ★ แตะแบนเนอร์ดูข้อมูลเลย!
20230810	1100	20230814	1100	120401	999999	0	0	1	1	820	150	0	0	0	0	7000	0	2500	0	500	1	0	0	New unit One-Eyed Asuka added! ★ Tap banner for info!	5	fr	New unit One-Eyed Asuka added! ★ Tap banner for info!	it	New unit One-Eyed Asuka added! ★ Tap banner for info!	de	New unit One-Eyed Asuka added! ★ Tap banner for info!	es	New unit One-Eyed Asuka added! ★ Tap banner for info!	th	New unit One-Eyed Asuka added! ★ Tap banner for info!
20230810	1100	20230814	1100	120401	999999	0	0	1	2	-1	0	0	0	0	0	0	0	0	0	0	0	0	0		821	150	0	0	0	0	7000	0	2500	0	500	1	0	0	New unit Eva Unit-13 added! ★ Tap banner for info!	0	5	fr	New unit Eva Unit-13 added! ★ Tap banner for info!	it	New unit Eva Unit-13 added! ★ Tap banner for info!	de	New unit Eva Unit-13 added! ★ Tap banner for info!	es	New unit Eva Unit-13 added! ★ Tap banner for info!	th	New unit Eva Unit-13 added! ★ Tap banner for info!
20230810	1100	20230812	1100	120401	999999	0	0	1	3	-1	0	0	0	0	0	0	0	0	0	0	0	0	0		-1	0	0	0	0	0	0	0	0	0	0	0	0	0		708	150	0	0	0	0	6970	0	2500	0	500	1	30	0	Colossus Slayer Hattori Hanzo joins the fight! ★ Tap banner for info!	0	0	5	fr	Hanzo Hattori, Fléau des colosses, rejoint la bataille ! ★ Touche pour info !	it	L'ammazzagiganti Hattori Hanzo scende in campo! ★ Tocca il banner!	de	Kolosstöter „Hattori Hanzo“ tritt dem Kampf bei! ★ Tippe auf das Banner!	es	¡El matacolosos Hattori Hanzo se une al combate! ★ ¡Toca para saber más!	th	มือสังหารยักษ์ ฮัตโตริ ฮันโซ มาร่วมต่อสู้ด้วย! ★ แตะแบนเนอร์เพื่อดูข้อมูลได้เลย!
20230812	1100	20230814	1100	120401	999999	0	0	1	3	-1	0	0	0	0	0	0	0	0	0	0	0	0	0		-1	0	0	0	0	0	0	0	0	0	0	0	0	0		798	150	0	0	0	0	6970	0	2500	0	500	1	30	0	New unit Thunder Jack, hero of justice appears! ★ Tap banner for info!	0	0	5	fr	Nouvelle unité Jack fulgurant, héros de la justice ! ★ Touche pour + d'infos !	it	Arriva la nuova unità Jack Tuono, il giustiziere! ★ Tocca il banner!	de	Neue Einheit „Blitzschlag-Jack,“ Held der Gerechtigkeit! ★ Tippe auf das Banner!	es	Ha aparecido una nueva unidad: ¡Jack, el eléctrico! ★ ¡Toca para saber más!	th	ยูนิตใหม่ แจ็กสายฟ้า ฮีโร่แห่งความยุติธรรม มาแล้ว! ★ แตะแบนเนอร์เพื่อดูข้อมูล!
[end]
