[start]
20180109	1100	20300101	1100	50700	999999	0	0	0	1	0	0	0	0	10000	0	0	0	0	0	0	0	0	0	
20170101	0	20300101	0	80200	999999	0	0	2	3	0	30	0	0	0	0	7500	0	2000	0	500	0	0	0		0	30	0	0	0	0	7500	0	2000	0	500	0	0	0		0	30	0	0	0	0	7500	0	2000	0	500	0	0	0	
20170101	0	20300101	0	80200	999999	0	0	3	3	0	75	0	0	0	0	7500	0	2000	0	500	0	0	0		0	75	0	0	0	0	7500	0	2000	0	500	0	0	0		0	75	0	0	0	0	7500	0	2000	0	500	0	0	0	
20210503	1100	20300101	0	120400	999999	0	0	0	3	-1	0	0	0	0	0	0	0	0	0	0	0	0	0		-1	0	0	0	0	0	0	0	0	0	0	0	0	0		62	0	0	0	0	0	7400	0	2100	0	500	0	0	0	【Limited】 Collect Li'l Cats only during this event!	0	0	5	fr	【Durée limitée】 P’tits Chats uniquement dans cet événement !	it	【Limitato】 Ottieni Mini Gatti solo in questo evento! 	de	(Begrenzt) Sammle nur während dieses Events kleine Katzen!	es	[Exclusivo] ¡Consigue Minigatos solo en este evento!	th	【จำกัด】 เก็บแมวเล็กเฉพาะในอีเวนต์นี้เท่านั้น!
20210416	1100	20300101	0	100400	999999	0	0	0	4	-1	0	0	0	0	0	0	0	0	0	0	0	0	0		-1	0	0	0	0	0	0	0	0	0	0	0	0	0		-1	0	0	0	0	0	0	0	0	0	0	0	0	0		63	0	300	0	0	0	5100	0	3500	0	1400	0	0	0	【Limited Event】 Special chance for XP and Catamins!	0	0	0	5	fr	【Durée limitée】 Chance spéciale d’obtenir XP et vichamines ! 	it	【Evento limitato】 Occasione speciale per XP e Vitamiao! 	de	(Begrenztes Event) Sonderchance auf XP und Katzamine! 	es	[Evento exclusivo] ¡Probabilidad de ganar XP y gataminas!	th	【อีเวนต์จำกัด】 โอกาสพิเศษที่จะได้รับ XP และวิตาเมี้ยว!
20220106	1100	20300101	1100	110100	999999	0	0	0	1	64	0	2300	0	10000	0	0	0	0	0	0	0	0	0		4	fr		it		de		es	
20230512	1100	20300101	0	120200	999999	0	0	1	4	-1	0	0	0	0	0	0	0	0	0	0	0	0	0		-1	0	0	0	0	0	0	0	0	0	0	0	0	0		-1	0	0	0	0	0	0	0	0	0	0	0	0	0		803	0	0	0	0	0	0	0	0	0	9500	0	500	0	Get a Guaranteed Uber or Legend Rare from the Legend Capsules!	0	0	0	5	fr	Un ultra rare ou un légendaire garanti dans les Chapsules légendaires !	it	Ottieni un'unità ultra rara o leggendaria garantita dalle Capsule leggendarie!	de	Garantiert eine mega- oder legendär seltene Katze aus legendären Kapseln!	es	¡Una unidad megarrara o legendaria garantizada en las bolas legendarias!	th	ได้อูเบอร์หรือแรร์ตำนานแบบรับประกันจากกาชาตำนาน!
20230512	1100	20300101	0	120200	999999	0	0	1	5	-1	0	0	0	0	0	0	0	0	0	0	0	0	0		-1	0	0	0	0	0	0	0	0	0	0	0	0	0		-1	0	0	0	0	0	0	0	0	0	0	0	0	0		-1	0	0	0	0	0	0	0	0	0	0	0	0	0		802	0	0	0	0	0	0	0	0	0	10000	0	0	0	Get an Uber Rare Cat!! 100% Uber drop Rate in the PLATINUM CAPSULES!	0	0	0	0	5	fr	Obtiens un ultra rare ! 100 % de chances avec les Chapsules platine !	it	Ottieni un gatto ultra raro! 100% possibilità di Ultra nelle CAPSULE PLATINO!	de	Hol dir eine megaseltene Katze!! 100-%-Chance in den PLATINKAPSELN!	es	¡Gana un gato megarraro! Garantizado en las BOLAS DE PLATINO.	th	รับแมวอูเบอร์แรร์ไปเลย!! อัตราดร็อปอูเบอร์ 100% ในกาชาแพลตินัม!
20230706	1100	20230709	1100	120400	999999	0	0	1	1	679	150	0	0	0	0	6440	0	2500	0	1000	0	60	0	Double the Uber / Legend chances! ★ Glorious gods of the Cat pantheon!	5	fr	Chance x2 : ultra rare/légendaire ! ★ Dieux glorieux du panthéon des Chats !	it	Doppia occasione di ultra/leggendari! ★ Gloriosi dèi del pantheon felino!	de	Doppelte Chance auf Mega/Legenden! ★ Grandiose Götter des Katzenpantheons!	es	¡Megarraros/Legendarios con el doble de probabilidad! ★ ¡Dioses del panteón!	th	อูเบอร์คูณสอง / โอกาสตำนาน! ★ สุดยอดเทพแห่งวิหารแมว!
20230706	1100	20230709	1100	120400	999999	0	0	1	2	-1	0	0	0	0	0	0	0	0	0	0	0	0	0		761	150	0	0	0	0	6440	0	2500	0	1000	0	60	0	Double the Uber / Legend chances! ★ Spooky beauties from beyond!	0	5	fr	Chance x2 : ultra rare/légendaire ! ★ Beautés inquiétantes de l’au-delà !	it	Doppia occasione di ultra/leggendari! ★ Bellezze spettrali dall'aldilà!	de	Doppelte Chance auf Mega/Legenden! ★ Gruselschönheiten aus dem Jenseits!	es	¡Megarraros/Legendarios con el doble de probabilidad! ★ ¡Bellezas del más allá!	th	อูเบอร์คูณสอง / โอกาสตำนาน! ★ สาวงามสุดหลอนจากโลกอื่น!
20230706	1100	20230709	1100	120400	999999	0	0	1	3	-1	0	0	0	0	0	0	0	0	0	0	0	0	0		-1	0	0	0	0	0	0	0	0	0	0	0	0	0		626	150	0	0	0	0	6440	0	2500	0	1000	0	60	0	Double the Uber / Legend chances! ★ Unstoppable Eldritch Cats(?)!	0	0	5	fr	Chance x2 : ultra rare/légendaire ! ★ Chats (?) surnaturels invincibles !	it	Doppia occasione di ultra/leggendari! ★ Gatti arcani (?) inarrestabili!	de	Doppelte Chance auf Mega/Legenden! ★ Unaufhaltsame schaurige Katzen(?)!	es	¡Megarraros/Legendarios con el doble de probabilidad! ★ ¡Gatos de Eldritch!	th	อูเบอร์คูณสอง / โอกาสตำนาน! ★ แมวเอลดริตช์เกินต้าน (?)!
20230709	1100	20230712	1100	120400	999999	0	0	1	1	708	150	0	0	0	0	6440	0	2500	0	1000	0	60	0	Double the Uber / Legend chances! ★ Masters of battle join the Cat cause!	5	fr	Chance x2 : ultra rare/légend. ! ★ Maîtres du combat pour la cause des Chats !	it	Doppia occasione di ultra/leggendari! ★ Eroi combattenti per la causa felina!	de	Doppelte Chance auf Mega/Legenden! ★ Kampfmeister schließen sich den Katzen an!	es	¡Megarraros/Legendarios con el doble de probabilidad! ★ ¡Maestros del combate!	th	อูเบอร์คูณสอง / โอกาสตำนาน! ★ ปรมาจารย์แห่งการศึกมาร่วมต่อสู้เพื่อแมวแล้ว!
20230709	1100	20230712	1100	120400	999999	0	0	1	2	-1	0	0	0	0	0	0	0	0	0	0	0	0	0		732	150	0	0	0	0	6440	0	2500	0	1000	0	60	0	Double the Uber / Legend chances! ★ Dragon kings of overwhelming power!	0	5	fr	Chance x2 : ultra rare/légendaire ! ★ Des rois dragons au pouvoir immense !	it	Doppia occasione di ultra/leggendari! ★ Re Dragoni di travolgente potenza!	de	Doppelte Chance auf Mega/Legenden! ★ Überwältigend mächtige Drachenkönige!	es	¡Megarraros/Legendarios con el doble de probabilidad! ★ ¡Reyes dragones!	th	อูเบอร์คูณสอง / โอกาสตำนาน! ★ ราชามังกรแห่งพลังเกินต้าน!
20230709	1100	20230712	1100	120400	999999	0	0	1	3	-1	0	0	0	0	0	0	0	0	0	0	0	0	0		-1	0	0	0	0	0	0	0	0	0	0	0	0	0		718	150	0	0	0	0	6440	0	2500	0	1000	0	60	0	Double the Uber / Legend chances! ★ Adorable avatars of elemental might!	0	0	5	fr	Chance x2 : ultra rare/légendaire ! ★ Adorables avatars de puissance élém. !	it	Doppia occasione di ultra/leggendari! ★ Adorabili avatar di potenza elementale!	de	Doppelte Chance auf Mega/Legenden! ★ Schnuffige Avatare der Elementarmächte!	es	¡Megarraros/Legendarios con el doble de probabilidad! ★ ¡Avatares adorables!	th	อูเบอร์คูณสอง / โอกาสตำนาน! ★ ตัวแทนพลังธาตุสุดน่ารัก!
20230712	1100	20230714	1100	120400	999999	0	0	1	1	742	150	0	0	0	0	6440	0	2500	0	1000	0	60	0	Double the Uber / Legend chances! ★ An awesome variety pack of crazy Cats!	5	fr	Chance x2 : ultra rare/légendaire ! ★ Un choix incroyable de Chats cinglés !	it	Doppia occasione di ultra/leggendari! ★ Ampia varietà di Gatti pazzi!	de	Doppelte Chance auf Mega/Legenden! ★ Eine Super-Sortiment verrückter Katzen!	es	¡Megarraros/Legendarios con el doble de probabilidad! ★ ¡Un montón de gatos!	th	อูเบอร์คูณสอง / โอกาสตำนาน! ★ แพ็กรวมแมวเพี้ยนสุดเจ๋ง!
20230712	1100	20230714	1100	120400	999999	0	0	1	2	-1	0	0	0	0	0	0	0	0	0	0	0	0	0		799	150	0	0	0	0	6440	0	2500	0	1000	0	60	0	Double the Uber / Legend chances! ★ The Cats' mightiest defenders of justice!	0	5	fr	Chance x2 : ultra rare/légend. ! ★ Meilleurs défenseurs félins de la justice !	it	Doppia occasione di ultra/leggendari! ★ I più potenti difensori dei Gatti!	de	Doppelte Chance auf Mega/Legenden! ★ Mächtigste Verteidiger der Gerechtigkeit!	es	¡Megarraros/Legendarios con el doble de probabilidad! ★ ¡Los mayores defensores!	th	อูเบอร์คูณสอง / โอกาสตำนาน! ★ ผู้รักษาความยุติธรรมทรงพลังที่สุดของเหล่าแมว!
20230714	1100	20230717	1100	120400	999999	0	0	1	2	-1	0	0	0	0	0	0	0	0	0	0	0	0	0		752	150	0	16384	0	0	6970	0	2500	0	500	0	30	0	Colossus Slayer Mighty Carrowsell has been added! Tap the banner for details!	0	5	fr	Puissant Charrousel (fléau des colosses)ajouté ! Touche la bannière !	it	Aggiunta l'ammazzagiganti Muggiostra possente! Tocca il banner per dettagli!	de	Der Kolosstöter Mächtiges Karussell wurde hinzugefügt! Tippe auf das Banner!	es	¡Se ha añadido el matacolosos Garrusel brutal! ¡Toca para saber más!	th	เพิ่มมือสังหารยักษ์จอมพลังคาร์โรว์เซล แล้ว! แตะดูรายละเอียดได้ที่แบนเนอร์!
20230714	1100	20230717	1100	120400	999999	0	0	1	1	801	150	0	0	0	0	6500	0	2600	0	900	0	0	0	NEW Iz, Dancer of Grief joins EPICFEST! Plus, increased Uber Rare drop rates!	5	fr	Iz la danseuse du chagrin à la Méga-fête ! Taux d’obtention d'ultra rare élevé !	it	NOVITÀ Iz ballerina del dolore al FESTIVAL EPICO! PIÙ possib. di ultra rare!	de	NEUE „Iz, Tänzerin des Kummers“ b. EPISCHEN FEST! Höhere Chance auf Megaseltene!	es	¡Iz la Bailarina del Dolor se une al HIPERFESTI! Más prob. de gatos megarraros.	th	อิซนักเต้นแห่งความโศก ตัวใหม่มาร่วมในเอปิกเฟสต์แล้ว! แล้วยังมีอัตราดร็อปอูเบอร์แรร์เพิ่มขึ้นด้วย!
[end]
