[start]
20180109	1100	20300101	1100	50700	999999	0	0	0	1	0	0	0	0	10000	0	0	0	0	0	0	0	0	0	
20170101	0	20300101	0	80200	999999	0	0	2	3	0	30	0	0	0	0	7500	0	2000	0	500	0	0	0		0	30	0	0	0	0	7500	0	2000	0	500	0	0	0		0	30	0	0	0	0	7500	0	2000	0	500	0	0	0	
20170101	0	20300101	0	80200	999999	0	0	3	3	0	75	0	0	0	0	7500	0	2000	0	500	0	0	0		0	75	0	0	0	0	7500	0	2000	0	500	0	0	0		0	75	0	0	0	0	7500	0	2000	0	500	0	0	0	
20210503	1100	20300101	0	120400	999999	0	0	0	3	-1	0	0	0	0	0	0	0	0	0	0	0	0	0		-1	0	0	0	0	0	0	0	0	0	0	0	0	0		62	0	0	0	0	0	7400	0	2100	0	500	0	0	0	【Limited】 Collect Li'l Cats only during this event!	0	0	5	fr	【Durée limitée】 P’tits Chats uniquement dans cet événement !	it	【Limitato】 Ottieni Mini Gatti solo in questo evento! 	de	(Begrenzt) Sammle nur während dieses Events kleine Katzen!	es	[Exclusivo] ¡Consigue Minigatos solo en este evento!	th	【จำกัด】 เก็บแมวเล็กเฉพาะในอีเวนต์นี้เท่านั้น!
20210416	1100	20300101	0	100400	999999	0	0	0	4	-1	0	0	0	0	0	0	0	0	0	0	0	0	0		-1	0	0	0	0	0	0	0	0	0	0	0	0	0		-1	0	0	0	0	0	0	0	0	0	0	0	0	0		63	0	300	0	0	0	5100	0	3500	0	1400	0	0	0	【Limited Event】 Special chance for XP and Catamins!	0	0	0	5	fr	【Durée limitée】 Chance spéciale d’obtenir XP et vichamines ! 	it	【Evento limitato】 Occasione speciale per XP e Vitamiao! 	de	(Begrenztes Event) Sonderchance auf XP und Katzamine! 	es	[Evento exclusivo] ¡Probabilidad de ganar XP y gataminas!	th	【อีเวนต์จำกัด】 โอกาสพิเศษที่จะได้รับ XP และวิตาเมี้ยว!
20220106	1100	20300101	1100	110100	999999	0	0	0	1	64	0	2300	0	10000	0	0	0	0	0	0	0	0	0		4	fr		it		de		es	
20230512	1100	20300101	0	120200	999999	0	0	1	4	-1	0	0	0	0	0	0	0	0	0	0	0	0	0		-1	0	0	0	0	0	0	0	0	0	0	0	0	0		-1	0	0	0	0	0	0	0	0	0	0	0	0	0		803	0	0	0	0	0	0	0	0	0	9500	0	500	0	Get a Guaranteed Uber or Legend Rare from the Legend Capsules!	0	0	0	5	fr	Un ultra rare ou un légendaire garanti dans les Chapsules légendaires !	it	Ottieni un'unità ultra rara o leggendaria garantita dalle Capsule leggendarie!	de	Garantiert eine mega- oder legendär seltene Katze aus legendären Kapseln!	es	¡Una unidad megarrara o legendaria garantizada en las bolas legendarias!	th	ได้อูเบอร์หรือแรร์ตำนานแบบรับประกันจากกาชาตำนาน!
20230512	1100	20300101	0	120200	999999	0	0	1	5	-1	0	0	0	0	0	0	0	0	0	0	0	0	0		-1	0	0	0	0	0	0	0	0	0	0	0	0	0		-1	0	0	0	0	0	0	0	0	0	0	0	0	0		-1	0	0	0	0	0	0	0	0	0	0	0	0	0		802	0	0	0	0	0	0	0	0	0	10000	0	0	0	Get an Uber Rare Cat!! 100% Uber drop Rate in the PLATINUM CAPSULES!	0	0	0	0	5	fr	Obtiens un ultra rare ! 100 % de chances avec les Chapsules platine !	it	Ottieni un gatto ultra raro! 100% possibilità di Ultra nelle CAPSULE PLATINO!	de	Hol dir eine megaseltene Katze!! 100-%-Chance in den PLATINKAPSELN!	es	¡Gana un gato megarraro! Garantizado en las BOLAS DE PLATINO.	th	รับแมวอูเบอร์แรร์ไปเลย!! อัตราดร็อปอูเบอร์ 100% ในกาชาแพลตินัม!
20230825	1100	20300101	000	120500	999999	0	0	1	4	-1	0	0	0	0	0	0	0	0	0	0	0	0	0		-1	0	0	0	0	0	0	0	0	0	0	0	0	0		-1	0	0	0	0	0	0	0	0	0	0	0	0	0		833	0	0	0	0	0	0	0	0	0	9500	0	500	0	Get a Guaranteed Uber or Legend Rare from the Legend Capsules!	0	0	0	5	fr	Un ultra rare ou un légendaire garanti dans les Chapsules légendaires !	it	Ottieni un'unità ultra rara o leggendaria garantita dalle Capsule leggendarie!	de	Garantiert eine mega- oder legendär seltene Katze aus legendären Kapseln!	es	¡Una unidad megarrara o legendaria garantizada en las bolas legendarias!	th	ได้อูเบอร์หรือแรร์ตำนานแบบรับประกันจากกาชาตำนาน!
20230825	1100	20300101	000	120500	999999	0	0	1	5	-1	0	0	0	0	0	0	0	0	0	0	0	0	0		-1	0	0	0	0	0	0	0	0	0	0	0	0	0		-1	0	0	0	0	0	0	0	0	0	0	0	0	0		-1	0	0	0	0	0	0	0	0	0	0	0	0	0		832	0	0	0	0	0	0	0	0	0	10000	0	0	0	Get an Uber Rare Cat!! 100% Uber drop Rate in the PLATINUM CAPSULES!	0	0	0	0	5	fr	Obtiens un ultra rare ! 100 % de chances avec les Chapsules platine !	it	Ottieni un gatto ultra raro! 100% possibilità di Ultra nelle CAPSULE PLATINO!	de	Hol dir eine megaseltene Katze!! 100-%-Chance in den PLATINKAPSELN!	es	¡Gana un gato megarraro! Garantizado en las BOLAS DE PLATINO.	th	รับแมวอูเบอร์แรร์ไปเลย!! อัตราดร็อปอูเบอร์ 100% ในกาชาแพลตินัม!
20230918	1100	20231024	0	120500	999999	0	0	4	1	25	0	0	0	1000	0	5000	0	3000	0	1000	1	0	0	Use Mystery Boxes at 9th Anniversary Capsules until 10/23!		 more draws for a guaranteed limited unit!	5	fr	Utilise des boîtes mystères avec les Chapsules 9e anniv. jusqu’au 23/10 !	 plus d’ouvertures 	 pour avoir à coup sûr une unité limitée !	it	Use scatole misteriose con le Capsule 9° anniversario fino al 23/10!	 più sorteggi 	 per un'unità limitata garantita!	de	Nutze Überraschungsschachteln bei Kapseln zum 9. Jubiläum bis 23. 10.!	 Mehr Ziehungen 	 für eine garantierte seltene Einheit!	es	¡Usa cajas misteriosas en las bolas del 9.º aniversario hasta el 23/10!	 ¡Más intentos 	 para una unidad exclusiva garantizada!	th	ใช้กล่องลึกลับที่กาชาฉลองครบรอบ 9 ปีได้ถึงวันที่ 23/10!	 สุ่มได้มากขึ้น 	 เพื่อการันตีรับยูนิตแบบจำกัด!
20231009	1100	20231024	000	120600	999999	0	0	4	1	25	0	0	0	1000	0	4500	0	2500	0	2000	1	0	0	Use Mystery Boxes at 9th Anniversary Capsules until 10/23!	  	 more draws for a guaranteed limited unit!	5	fr	Utilise des boîtes mystères avec les Chapsules 9e anniv. jusqu’au 23/10 !	 plus d’ouvertures 	 pour avoir à coup sûr une unité limitée !	it	Use scatole misteriose con le Capsule 9° anniversario fino al 23/10!	 più sorteggi 	 per un'unità limitata garantita!	de	Nutze Überraschungsschachteln bei Kapseln zum 9. Jubiläum bis 23. 10.!	 Mehr Ziehungen 	 für eine garantierte seltene Einheit!	es	¡Usa cajas misteriosas en las bolas del 9.º aniversario hasta el 23/10!	 ¡Más intentos 	 para una unidad exclusiva garantizada!	th	ใช้กล่องลึกลับที่กาชาฉลองครบรอบ 9 ปีได้ถึงวันที่ 23/10!	 สุ่มได้มากขึ้น 	 เพื่อการันตีรับยูนิตแบบจำกัด!
20231009	1100	20231016	1100	120600	999999	0	0	0	2	-1	0	0	0	0	0	0	0	0	0	0	0	0	0		3	0	300	0	400	0	2000	0	7000	0	600	0	0	0	Limited Capsules ★ Collect Catfruit by drawing from this set!	0	5	fr	Chapsules ponctuelles ★ Obtiens des Chagrumes dans cet ensemble !	it	Capsule limitate ★ Ottieni miagrumi sorteggiando da questo set!	de	Limitierte Kapseln ★ Sammle Katzenfrüchte aus diesem Set!	es	Bolas exclusivas ★ ¡Consigue fruta felina en esta serie de bolas!	th	กาชาจำกัด ★ เก็บผลไม้เหมียวด้วยการสุ่มจากเซ็ตนี้!
20231011	1100	20231013	1100	120600	999999	0	0	1	1	772	150	0	4	0	0	7000	0	2500	0	500	0	0	0	New Capsules featuring Colossus Slayer units!  With Increasing Capsules!	5	fr	Nouvelles Chapsules avec Fléaux des colosses et Chapsules à bonus !	it	Nuove capsule con unità ammazzagiganti! E con capsula bonus!	de	Neue Kapseln mit Kolosstöter-Einheiten! Mit Riesenkapseln!	es	¡Nuevas bolas con unidades de matacolosos! ¡Con bolas colmadas!	th	กาชาใหม่ที่มาพร้อมยูนิตมือสังหารยักษ์! พร้อมกาชาที่เพิ่มขึ้น!
20231011	1100	20231013	1100	120600	999999	0	0	1	2	-1	0	0	0	0	0	0	0	0	0	0	0	0	0		523	150	0	4	0	0	7000	0	2500	0	500	0	0	0	Defend your Cats with the Wave Busters! ★ With Increasing Capsules!	0	5	fr	Défends tes Chats avec les Chasseurs de vagues ! ★ Avec des Chapsules à bonus !	it	Difendi i tuoi Gatti con gli Antiondate! ★ Con capsule bonus!	de	Verteidige deine Katzen mit den Wellenbrechern! ★ Mit Riesenkapseln!	es	¡Defiende a tus gatos con los Antioleada! ★ ¡Con bolas colmadas!	th	ปกป้องแมวของคุณด้วยเวฟบัสเตอร์! ★ ไอเทมกาชาเพิ่มขึ้น!
20231013	1100	20231016	1100	120600	999999	0	0	1	2	-1	0	0	0	0	0	0	0	0	0	0	0	0	0		694	150	0	16384	0	0	6970	0	2500	0	500	0	30	0	Take down Colossal prey with NEW hero Huntress Terun! ★ Tap for info!	0	5	fr	Abats les colosses avec Terun chasseresse ! ★ Touche pour des infos	it	Elimina nemici giganti con la NUOVA unità Terun cacciatrice! ★ Tocca per info!	de	Vernichte kolossale Ziele: NEUE Heldin „Jägerin Terun“! ★ Tippe für mehr Info!	es	¡Derrota a presas colosales con Terun Cazadora! ★ ¡Toca para saber más!	th	ปราบเหยื่อยักษ์ด้วยฮีโร่ใหม่อย่าง เทรันนักล่า! ★ แตะเพื่อดูข้อมูลเลย!
20231013	1100	20231016	1100	120600	999999	0	0	1	3	-1	0	0	0	0	0	0	0	0	0	0	0	0	0		-1	0	0	0	0	0	0	0	0	0	0	0	0	0		789	150	0	16384	0	0	6970	0	2500	0	500	0	30	0	Mighty new hero Issun Boshi joins the ancient heroes! ★ Tap banner for info!	0	0	5	fr	Le héros puissant Issun Boshi rejoint les anciens ! ★ Touche pour plus d’infos !	it	Il nuovo eroe Issun Boshi si unisce agli Eroi antichi! ★ Tocca il banner!	de	Der neue Held „Issun Boshi“ tritt den uralten bei! ★ Tippe auf das Banner!	es	¡El nuevo héroe «Issun Boshi» se une a héroes antiguos! ★ ¡Toca para saber más!	th	อิสซัน โบชิ ฮีโร่จอมพลังใหม่ ร่วมทัพฮีโร่โบราณแล้ว! ★ แตะแบนเนอร์ดูข้อมูลเลย!
20231016	1100	20231023	1100	120600	999999	0	0	0	2	-1	0	0	0	0	0	0	0	0	0	0	0	0	0		65	0	0	2	500	0	6900	0	2000	0	500	0	100	0	★ Limited Capsules ★ Pick up extra Catseyes in this special Capsule set!	0	5	fr	★ Chapsules à durée limitée ★ Plus d’œils-de-chat dans ces Chapsules spéciales !	it	★ Capsule limitate ★ Ottieni Occhio di gatto in questo speciale set capsule!	de	★ Limitierte Kapseln ★ Hol dir zusätzliche Katzenaugen durch dieses Kapselset!	es	★ Bolas exclusivas ★ ¡Consigue más gatojos en esta serie especial de bolas!	th	★กาชาจำกัด★ เก็บตาแมวเพิ่มในชุดกาชาพิเศษนี้!
20231016	1100	20231018	1100	120600	999999	0	0	1	1	771	150	0	4216	0	0	6970	0	2500	0	500	0	30	0	9 Year Celebration: Excellent Selection! ★ Tap banner for info!	5	fr	Célébration des 9 ans : excellent choix ! ★ Touche pour plus d’infos !	it	Festeggiamo 9 anni: Selezione eccellente! ★ Tocca il banner!	de	9-Jahres-Feier: Exzellente Auswahl! ★ Tippe auf das Banner!	es	Celebración de los 9 años: ¡Gran selección! ★ ¡Toca para saber más!	th	งานฉลองครบรอบ 9 ปี: การเลือกดีเลิศ! ★ แตะแบนเนอร์เพื่อดูข้อมูลได้เลย!
20231016	1100	20231018	1100	120600	999999	0	0	1	2	-1	0	0	0	0	0	0	0	0	0	0	0	0	0		708	150	0	20600	0	0	6970	0	2500	0	500	0	30	0	Colossus Slayer Hattori Hanzo joins the fight! ★ Tap banner for info!	0	5	fr	Hanzo Hattori, Fléau des colosses, rejoint la bataille ! ★ Touche pour info !	it	L'ammazzagiganti Hattori Hanzo scende in campo! ★ Tocca il banner!	de	Kolosstöter „Hattori Hanzo“ tritt dem Kampf bei! ★ Tippe auf das Banner!	es	¡El matacolosos Hattori Hanzo se une al combate! ★ ¡Toca para saber más!	th	มือสังหารยักษ์ ฮัตโตริ ฮันโซ มาร่วมต่อสู้ด้วย! ★ แตะแบนเนอร์เพื่อดูข้อมูลได้เลย!
20231018	1100	20231020	1100	120600	999999	0	0	1	2	-1	0	0	0	0	0	0	0	0	0	0	0	0	0		798	150	0	20600	0	0	6970	0	2500	0	500	0	30	0	New unit Thunder Jack, hero of justice appears! ★ Tap banner for info!	0	5	fr	Nouvelle unité Jack fulgurant, héros de la justice ! ★ Touche pour + d'infos !	it	Arriva la nuova unità Jack Tuono, il giustiziere! ★ Tocca il banner!	de	Neue Einheit „Blitzschlag-Jack,“ Held der Gerechtigkeit! ★ Tippe auf das Banner!	es	Ha aparecido una nueva unidad: ¡Jack, el eléctrico! ★ ¡Toca para saber más!	th	ยูนิตใหม่ แจ็กสายฟ้า ฮีโร่แห่งความยุติธรรม มาแล้ว! ★ แตะแบนเนอร์เพื่อดูข้อมูล!
20231018	1100	20231020	1100	120600	999999	0	0	1	3	-1	0	0	0	0	0	0	0	0	0	0	0	0	0		-1	0	0	0	0	0	0	0	0	0	0	0	0	0		719	150	0	20600	0	0	6970	0	2500	0	500	0	30	0	Colossus Slaying NEW hero Bliza joins the Elemental Pixies! ★ Tap for info!	0	0	5	fr	Bliza, fléau des colosses des Farfadets élémentaires ! ★ Touche pour des infos	it	L'ammazzagiganti Bliza si unisce alle Fate elementali! ★ Tocca per info!	de	Die NEUE Kolosstöter-Heldin „Bliza“ stößt zu den Elementfeen! ★ Tippe für Infos!	es	Ventis matacolosos se une a las Hadas Elementales. ★ ¡Toca para saber más!	th	อูเบอร์คูณสอง / โอกาสตำนาน! ★ ตัวแทนพลังธาตุสุดน่ารัก!
20231020	1100	20231023	1100	120600	999999	0	0	1	1	829	150	0	4216	0	0	6500	0	2500	0	1000	0	0	0	Child of Destiny Phono appears along with increased Uber Rare drop rates!	5	fr	Phono l’enfant du destin apparaît avec taux d’obtention ultra rares améliorés !	it	Phono figlio del destino e probabilità aumentate di ultra rari!	de	„Schicksalskind Phono“ erscheint mit erhöhter Beuterate für Megaseltene!	es	¡Phono, Hijo del Destino aparece con más probabilidad de conseguir megarraros!	th	บุตรแห่งโฟโนโชคชะตา ปรากฏพร้อมกับอัตราดร็อปอูเบอร์แรร์เพิ่มขึ้น!
20231020	1100	20231023	1100	120600	999999	0	0	1	2	-1	0	0	0	0	0	0	0	0	0	0	0	0	0		679	150	0	20600	0	0	6970	0	2500	0	500	0	30	0	Punish Floating and Aku with NEW hero Lucifer the Fallen! ★ Tap for info!	0	5	fr	Élimine flottants et Akus avec Lucifer le déchu ! ★ Touche pour des infos	it	Punisci fluttuanti e Aku con il NUOVO eroe Lucifero caduto! ★ Tocca per info!	de	Strafe Fliegende & Aku: NEUER „Luzifer der Gefallene“! ★ Tippe für mehr Info!	es	¡Castiga a akus y voladores con Lucifer el Caído! ★ ¡Toca para saber más!	th	ลงทัณฑ์พวกลอยและอากุด้วยฮีโร่ใหม่อย่าง ลูซิเฟอร์ผู้เพลี่ยงพล้ำ! ★ แตะเพื่อดูข้อมูลเลย!
[end]
