[start]
20180109	1100	20300101	1100	50700	999999	0	0	0	1	0	0	0	0	10000	0	0	0	0	0	0	0	0	0	
20170101	0	20300101	0	80200	999999	0	0	2	3	0	30	0	0	0	0	7500	0	2000	0	500	0	0	0		0	30	0	0	0	0	7500	0	2000	0	500	0	0	0		0	30	0	0	0	0	7500	0	2000	0	500	0	0	0	
20170101	0	20300101	0	80200	999999	0	0	3	3	0	75	0	0	0	0	7500	0	2000	0	500	0	0	0		0	75	0	0	0	0	7500	0	2000	0	500	0	0	0		0	75	0	0	0	0	7500	0	2000	0	500	0	0	0	
20210503	1100	20300101	0	120400	999999	0	0	0	3	-1	0	0	0	0	0	0	0	0	0	0	0	0	0		-1	0	0	0	0	0	0	0	0	0	0	0	0	0		62	0	0	0	0	0	7400	0	2100	0	500	0	0	0	【Limited】 Collect Li'l Cats only during this event!	0	0	5	fr	【Durée limitée】 P’tits Chats uniquement dans cet événement !	it	【Limitato】 Ottieni Mini Gatti solo in questo evento! 	de	(Begrenzt) Sammle nur während dieses Events kleine Katzen!	es	[Exclusivo] ¡Consigue Minigatos solo en este evento!	th	【จำกัด】 เก็บแมวเล็กเฉพาะในอีเวนต์นี้เท่านั้น!
20210416	1100	20300101	0	100400	999999	0	0	0	4	-1	0	0	0	0	0	0	0	0	0	0	0	0	0		-1	0	0	0	0	0	0	0	0	0	0	0	0	0		-1	0	0	0	0	0	0	0	0	0	0	0	0	0		63	0	300	0	0	0	5100	0	3500	0	1400	0	0	0	【Limited Event】 Special chance for XP and Catamins!	0	0	0	5	fr	【Durée limitée】 Chance spéciale d’obtenir XP et vichamines ! 	it	【Evento limitato】 Occasione speciale per XP e Vitamiao! 	de	(Begrenztes Event) Sonderchance auf XP und Katzamine! 	es	[Evento exclusivo] ¡Probabilidad de ganar XP y gataminas!	th	【อีเวนต์จำกัด】 โอกาสพิเศษที่จะได้รับ XP และวิตาเมี้ยว!
20220106	1100	20300101	1100	110100	999999	0	0	0	1	64	0	2300	0	10000	0	0	0	0	0	0	0	0	0		4	fr		it		de		es	
20230512	1100	20300101	0	120200	999999	0	0	1	4	-1	0	0	0	0	0	0	0	0	0	0	0	0	0		-1	0	0	0	0	0	0	0	0	0	0	0	0	0		-1	0	0	0	0	0	0	0	0	0	0	0	0	0		803	0	0	0	0	0	0	0	0	0	9500	0	500	0	Get a Guaranteed Uber or Legend Rare from the Legend Capsules!	0	0	0	5	fr	Un ultra rare ou un légendaire garanti dans les Chapsules légendaires !	it	Ottieni un'unità ultra rara o leggendaria garantita dalle Capsule leggendarie!	de	Garantiert eine mega- oder legendär seltene Katze aus legendären Kapseln!	es	¡Una unidad megarrara o legendaria garantizada en las bolas legendarias!	th	ได้อูเบอร์หรือแรร์ตำนานแบบรับประกันจากกาชาตำนาน!
20230512	1100	20300101	0	120200	999999	0	0	1	5	-1	0	0	0	0	0	0	0	0	0	0	0	0	0		-1	0	0	0	0	0	0	0	0	0	0	0	0	0		-1	0	0	0	0	0	0	0	0	0	0	0	0	0		-1	0	0	0	0	0	0	0	0	0	0	0	0	0		802	0	0	0	0	0	0	0	0	0	10000	0	0	0	Get an Uber Rare Cat!! 100% Uber drop Rate in the PLATINUM CAPSULES!	0	0	0	0	5	fr	Obtiens un ultra rare ! 100 % de chances avec les Chapsules platine !	it	Ottieni un gatto ultra raro! 100% possibilità di Ultra nelle CAPSULE PLATINO!	de	Hol dir eine megaseltene Katze!! 100-%-Chance in den PLATINKAPSELN!	es	¡Gana un gato megarraro! Garantizado en las BOLAS DE PLATINO.	th	รับแมวอูเบอร์แรร์ไปเลย!! อัตราดร็อปอูเบอร์ 100% ในกาชาแพลตินัม!
20230825	1100	20300101	000	120500	999999	0	0	1	4	-1	0	0	0	0	0	0	0	0	0	0	0	0	0		-1	0	0	0	0	0	0	0	0	0	0	0	0	0		-1	0	0	0	0	0	0	0	0	0	0	0	0	0		833	0	0	0	0	0	0	0	0	0	9500	0	500	0	Get a Guaranteed Uber or Legend Rare from the Legend Capsules!	0	0	0	5	fr	Un ultra rare ou un légendaire garanti dans les Chapsules légendaires !	it	Ottieni un'unità ultra rara o leggendaria garantita dalle Capsule leggendarie!	de	Garantiert eine mega- oder legendär seltene Katze aus legendären Kapseln!	es	¡Una unidad megarrara o legendaria garantizada en las bolas legendarias!	th	ได้อูเบอร์หรือแรร์ตำนานแบบรับประกันจากกาชาตำนาน!
20230825	1100	20300101	000	120500	999999	0	0	1	5	-1	0	0	0	0	0	0	0	0	0	0	0	0	0		-1	0	0	0	0	0	0	0	0	0	0	0	0	0		-1	0	0	0	0	0	0	0	0	0	0	0	0	0		-1	0	0	0	0	0	0	0	0	0	0	0	0	0		832	0	0	0	0	0	0	0	0	0	10000	0	0	0	Get an Uber Rare Cat!! 100% Uber drop Rate in the PLATINUM CAPSULES!	0	0	0	0	5	fr	Obtiens un ultra rare ! 100 % de chances avec les Chapsules platine !	it	Ottieni un gatto ultra raro! 100% possibilità di Ultra nelle CAPSULE PLATINO!	de	Hol dir eine megaseltene Katze!! 100-%-Chance in den PLATINKAPSELN!	es	¡Gana un gato megarraro! Garantizado en las BOLAS DE PLATINO.	th	รับแมวอูเบอร์แรร์ไปเลย!! อัตราดร็อปอูเบอร์ 100% ในกาชาแพลตินัม!
20231030	1300	20300101	0	120600	999999	0	0	1	4	-1	0	0	0	0	0	0	0	0	0	0	0	0	0		-1	0	0	0	0	0	0	0	0	0	0	0	0	0		-1	0	0	0	0	0	0	0	0	0	0	0	0	0		816	0	0	0	0	0	0	0	0	0	9500	0	500	0	Get a Guaranteed Uber or Legend Rare from the Legend Capsules!	0	0	0	5	fr	Un ultra rare ou un légendaire garanti dans les Chapsules légendaires !	it	Ottieni un'unità ultra rara o leggendaria garantita dalle Capsule leggendarie!	de	Garantiert eine mega- oder legendär seltene Katze aus legendären Kapseln!	es	¡Una unidad megarrara o legendaria garantizada en las bolas legendarias!	th	ได้อูเบอร์หรือแรร์ตำนานแบบรับประกันจากกาชาตำนาน!
20231030	1300	20300101	0	120600	999999	0	0	1	5	-1	0	0	0	0	0	0	0	0	0	0	0	0	0		-1	0	0	0	0	0	0	0	0	0	0	0	0	0		-1	0	0	0	0	0	0	0	0	0	0	0	0	0		-1	0	0	0	0	0	0	0	0	0	0	0	0	0		815	0	0	0	0	0	0	0	0	0	10000	0	0	0	Get an Uber Rare Cat!! 100% Uber drop Rate in the PLATINUM CAPSULES!	0	0	0	0	5	fr	Obtiens un ultra rare ! 100 % de chances avec les Chapsules platine !	it	Ottieni un gatto ultra raro! 100% possibilità di Ultra nelle CAPSULE PLATINO!	de	Hol dir eine megaseltene Katze!! 100-%-Chance in den PLATINKAPSELN!	es	¡Gana un gato megarraro! Garantizado en las BOLAS DE PLATINO.	th	รับแมวอูเบอร์แรร์ไปเลย!! อัตราดร็อปอูเบอร์ 100% ในกาชาแพลตินัม!
20231113	1100	20231127	1100	120700	999999	0	0	1	2	-1	0	0	0	0	0	0	0	0	0	0	0	0	0		482	150	0	20600	0	0	7000	0	2500	0	500	0	0	0	Special Capsule set with Princess Punt Sweets units! ★Tap banner for details.	0	5	fr	Special Capsule set with Princess Punt Sweets units! ★Tap banner for details.	it	Special Capsule set with Princess Punt Sweets units! ★Tap banner for details.	de	Special Capsule set with Princess Punt Sweets units! ★Tap banner for details.	es	Special Capsule set with Princess Punt Sweets units! ★Tap banner for details.	th	Special Capsule set with Princess Punt Sweets units! ★Tap banner for details.
20231115	1100	20231117	1100	120700	999999	0	0	1	3	-1	0	0	0	0	0	0	0	0	0	0	0	0	0		-1	0	0	0	0	0	0	0	0	0	0	0	0	0		798	150	0	20600	0	0	6970	0	2500	0	500	0	30	0	New unit Thunder Jack, hero of justice appears! ★ Tap banner for info!	0	0	5	fr	Nouvelle unité Jack fulgurant, héros de la justice ! ★ Touche pour + d'infos !	it	Arriva la nuova unità Jack Tuono, il giustiziere! ★ Tocca il banner!	de	Neue Einheit „Blitzschlag-Jack,“ Held der Gerechtigkeit! ★ Tippe auf das Banner!	es	Ha aparecido una nueva unidad: ¡Jack, el eléctrico! ★ ¡Toca para saber más!	th	ยูนิตใหม่ แจ็กสายฟ้า ฮีโร่แห่งความยุติธรรม มาแล้ว! ★ แตะแบนเนอร์เพื่อดูข้อมูล!
20231117	1100	20231120	1100	120700	999999	0	0	1	1	814	150	0	4216	0	0	6500	0	2600	0	900	0	0	0	All hail King of Doom Phono! ★ Now in Epicfest, plus higher Uber drop rate!	5	fr	Gloire à Phono ! ★ Dispo en Méga-fête et meilleur taux d’obtention ultra rare !	it	Ave o Phono re della sventura! ★ Ora nel Festival Epico, con Ultra meno rari!	de	Verderbenskönig Phono! ★ Jetzt im epischen Fest, + mehr Megaseltene!	es	¡Viva Phono, Rey de la Destrucción! ★ ¡+ prob. de megarraros en el Hiperfesti!	th	ราชาแห่งโฟโนมรณะจงเจริญ! ★ ตอนนี้ในเอปิกเฟสต์ พร้อมอัตราดร็อปอูเบอร์ที่สูงขึ้น!
20231120	1100	20231127	1100	120700	999999	0	0	0	2	-1	0	0	0	0	0	0	0	0	0	0	0	0	0		65	0	0	2	500	0	6900	0	2000	0	500	0	100	0	★ Limited Capsules ★ Pick up extra Catseyes in this special Capsule set!	0	5	fr	★ Chapsules à durée limitée ★ Plus d’œils-de-chat dans ces Chapsules spéciales !	it	★ Capsule limitate ★ Ottieni Occhio di gatto in questo speciale set capsule!	de	★ Limitierte Kapseln ★ Hol dir zusätzliche Katzenaugen durch dieses Kapselset!	es	★ Bolas exclusivas ★ ¡Consigue más gatojos en esta serie especial de bolas!	th	★กาชาจำกัด★ เก็บตาแมวเพิ่มในชุดกาชาพิเศษนี้!
20231120	1100	20231122	1100	120700	999999	0	0	1	3	-1	0	0	0	0	0	0	0	0	0	0	0	0	0		-1	0	0	0	0	0	0	0	0	0	0	0	0	0		719	150	0	20600	0	0	6970	0	2500	0	500	0	30	0	Colossus Slaying NEW hero Bliza joins the Elemental Pixies! ★ Tap for info!	0	0	5	fr	Bliza, fléau des colosses des Farfadets élémentaires ! ★ Touche pour des infos	it	L'ammazzagiganti Bliza si unisce alle Fate elementali! ★ Tocca per info!	de	Die NEUE Kolosstöter-Heldin „Bliza“ stößt zu den Elementfeen! ★ Tippe für Infos!	es	Ventis matacolosos se une a las Hadas Elementales. ★ ¡Toca para saber más!	th	อูเบอร์คูณสอง / โอกาสตำนาน! ★ ตัวแทนพลังธาตุสุดน่ารัก!
20231122	1100	20231127	1100	120700	999999	0	0	1	2	-1	0	0	0	0	0	0	0	0	0	0	0	0	0		482	150	0	4216	0	0	7000	0	2500	0	500	1	0	0	Special Capsule set with Princess Punt Sweets units! ★Tap banner for details.	0	5	fr	Special Capsule set with Princess Punt Sweets units! ★Tap banner for details.	it	Special Capsule set with Princess Punt Sweets units! ★Tap banner for details.	de	Special Capsule set with Princess Punt Sweets units! ★Tap banner for details.	es	Special Capsule set with Princess Punt Sweets units! ★Tap banner for details.	th	Special Capsule set with Princess Punt Sweets units! ★Tap banner for details.
20231122	1100	20231124	1100	120700	999999	0	0	1	1	824	150	0	4216	0	0	6970	0	2500	0	500	1	30	0	Tough defense vs 3 enemy types: Mighty Sphinx Korps! ★ Tap banner for more info!	5	fr	Balèze contre 3 types : Puissant corps sphinx ! ★ Touche pour plus d’infos !	it	Forte difesa vs 3 tipi di nemici: Costruttori egizi possenti! ★ Tocca il banner!	de	Robust gegen 3 Feindtypen: Mächtiges Sphinxkorps! ★ Tippe auf das Banner!	es	Def. dura con 3 tipos enemigos: ¡Cuerpo Esfinge Brutal! ★ ¡Toca para saber más!	th	ป้องกันสุดแกร่งต่อศัตรู 3 ประเภท: คอร์ปสฟิงซ์จอมพลัง! ★ แตะแบนเนอร์เพื่อดูเลย!
20231122	1100	20300101	000	120700	999999	0	0	1	4	-1	0	0	0	0	0	0	0	0	0	0	0	0	0		-1	0	0	0	0	0	0	0	0	0	0	0	0	0		-1	0	0	0	0	0	0	0	0	0	0	0	0	0		828	0	0	0	0	0	0	0	0	0	9500	0	500	0	Get a Guaranteed Uber or Legend Rare from the Legend Capsules!	0	0	0	5	fr	Un ultra rare ou un légendaire garanti dans les Chapsules légendaires !	it	Ottieni un'unità ultra rara o leggendaria garantita dalle Capsule leggendarie!	de	Garantiert eine mega- oder legendär seltene Katze aus legendären Kapseln!	es	¡Una unidad megarrara o legendaria garantizada en las bolas legendarias!	th	ได้อูเบอร์หรือแรร์ตำนานแบบรับประกันจากกาชาตำนาน!
20231122	1100	20300101	000	120700	999999	0	0	1	5	-1	0	0	0	0	0	0	0	0	0	0	0	0	0		-1	0	0	0	0	0	0	0	0	0	0	0	0	0		-1	0	0	0	0	0	0	0	0	0	0	0	0	0		-1	0	0	0	0	0	0	0	0	0	0	0	0	0		827	0	0	0	0	0	0	0	0	0	10000	0	0	0	Get an Uber Rare Cat!! 100% Uber drop Rate in the PLATINUM CAPSULES!	0	0	0	0	5	fr	Obtiens un ultra rare ! 100 % de chances avec les Chapsules platine !	it	Ottieni un gatto ultra raro! 100% possibilità di Ultra nelle CAPSULE PLATINO!	de	Hol dir eine megaseltene Katze!! 100-%-Chance in den PLATINKAPSELN!	es	¡Gana un gato megarraro! Garantizado en las BOLAS DE PLATINO.	th	รับแมวอูเบอร์แรร์ไปเลย!! อัตราดร็อปอูเบอร์ 100% ในกาชาแพลตินัม!
20231124	1100	20231127	1100	120700	999999	0	0	1	3	-1	0	0	0	0	0	0	0	0	0	0	0	0	0		-1	0	0	0	0	0	0	0	0	0	0	0	0	0		679	150	0	4216	0	0	6970	0	2500	0	500	1	30	0	Punish Floating and Aku with NEW hero Lucifer the Fallen! ★ Tap for info!	0	0	5	fr	Élimine flottants et Akus avec Lucifer le déchu ! ★ Touche pour des infos	it	Punisci fluttuanti e Aku con il NUOVO eroe Lucifero caduto! ★ Tocca per info!	de	Strafe Fliegende & Aku: NEUER „Luzifer der Gefallene“! ★ Tippe für mehr Info!	es	¡Castiga a akus y voladores con Lucifer el Caído! ★ ¡Toca para saber más!	th	ลงทัณฑ์พวกลอยและอากุด้วยฮีโร่ใหม่อย่าง ลูซิเฟอร์ผู้เพลี่ยงพล้ำ! ★ แตะเพื่อดูข้อมูลเลย!
20231127	1100	20231204	1100	120700	999999	0	0	0	2	-1	0	0	0	0	0	0	0	0	0	0	0	0	0		3	0	300	0	400	0	2000	0	7000	0	600	0	0	0	Limited Capsules ★ Collect Catfruit by drawing from this set!	0	5	fr	Chapsules ponctuelles ★ Obtiens des Chagrumes dans cet ensemble !	it	Capsule limitate ★ Ottieni miagrumi sorteggiando da questo set!	de	Limitierte Kapseln ★ Sammle Katzenfrüchte aus diesem Set!	es	Bolas exclusivas ★ ¡Consigue fruta felina en esta serie de bolas!	th	กาชาจำกัด ★ เก็บผลไม้เหมียวด้วยการสุ่มจากเซ็ตนี้!
20231127	1100	20231201	1100	120700	999999	0	0	1	1	841	150	0	0	0	0	6770	0	2500	0	700	0	30	0	Joining forces from Seasonal sets, with higher drop rates!	5	fr	En renfort des ensembles saisonniers, avec des taux d’obt. plus élevés !	it	Unisciti alle forze dei set stagionali, con maggiori probabilità di ottenerli!	de	Sie stößt zu den Truppen aus den Saisonsets, mit höheren Chancen!	es	Las series de temporada se unen, ¡con más probabilidad de conseguir unidades!	th	ทีมผนึกกำลังจากเซ็ตฤดูกาล พร้อมอัตราดร็อปที่สูงขึ้น!
20231127	1100	20231129	1100	120700	999999	0	0	1	2	-1	0	0	0	0	0	0	0	0	0	0	0	0	0		812	150	0	16384	0	0	6970	0	2500	0	500	0	30	0	Introducing NEW hero: the uncanny lifeform Kaoluga! ★ Tap banner for more info!	0	5	fr	NOUVEAU héros : l’étrange entité Kaoluga ! ★ Touche pour plus d’infos !	it	Ecco un NUOVO eroe: Kalouga la creatura misteriosa! ★ Tocca il banner!	de	NEUER Held: unheimliche Lebensform Kaoluga! ★ Tippe auf das Banner!	es	NUEVO héroe: ¡Kaoluga, una insólita forma de vida! ★ ¡Toca para saber más!	th	แนะนำฮีโร่ใหม่: สิ่งมีชีวิตประหลาด คาโอลูก้า! ★ แตะแบนเนอร์เพื่อดูข้อมูลได้เลย!
20231129	1100	20231201	1100	120700	999999	0	0	1	2	-1	0	0	0	0	0	0	0	0	0	0	0	0	0		742	150	0	16384	0	0	6970	0	2500	0	500	0	30	0	Colossus Slayer Cat Tengu joins the fight! Tap banner for info!	0	5	fr	Chat Tengu, fléau des colosses, rejoint la bataille ! Touche pour plus d'infos !	it	L'ammazzagiganti Gatto Tengu Scende in campo! Tocca il banner!	de	Kolosstöter „Katzen-Tengu“ tritt dem Kampf bei! Tippe auf das Banner!	es	¡Gatengu matacolosos se une a la lucha! ¡Toca para saber más!	th	มือสังหารยักษ์ แมวเทงกุ มาร่วมต่อสู้ด้วย! แตะแบนเนอร์เพื่อดูข้อมูลได้เลย!
20231201	1100	20231204	1100	120700	999999	0	0	1	1	825	150	0	0	0	0	6500	0	2600	0	900	0	0	0	NEW hero Child of Destiny Phono! Plus, higher drop rates for Uber Rare Cats!	5	fr	Nouv. héros Phono l'enfant du destin ! + meilleurs taux d'obt. d'ultra rares !	it	NUOVO eroe Phono figlio del destino! Più probabilità per Gatti ultra rari!	de	NEUE Heldin „Schicksalskind Phono“! Plus mehr megaseltene Katzen!	es	¡NUEVO héroe, «Phono, Hijo del Destino»! ¡Más prob. de conseguir megarraros!	th	ฮีโร่ใหม่ บุตรแห่งโฟโนโชคชะตา และอัตราดร็อปแมวอูเบอร์แรร์สูงกว่าเดิม!
20231201	1100	20231204	1100	120700	999999	0	0	1	2	-1	0	0	0	0	0	0	0	0	0	0	0	0	0		761	150	0	16384	0	0	6970	0	2500	0	500	0	30	0	New Colossus Slayer Spectral Goth Vega added! Tap banner for details!	0	5	fr	Nouveau Fléau des colosses Déesse spectrale Véga ! Touche la bannière !	it	Nuova ammazzagiganti: Vega gotica spettrale! Tocca il banner per dettagli!	de	Neuer Kolosstöter Spektralgrufti Vega hinzugefügt! Tippe auf das Banner!	es	¡Nueva Gótica espectral Vega matacolosos añadida! ¡Toca para ver los detalles!	th	เพิ่มมือสังหารยักษ์ก็อธเวก้าภูติผีแล้ว! แตะดูรายละเอียดได้ที่แบนเนอร์!
[end]
