[start]
20180109	1100	20300101	1100	50700	999999	0	0	0	1	0	0	0	0	10000	0	0	0	0	0	0	0	0	0	
20170101	0	20300101	0	80200	999999	0	0	2	3	0	30	0	0	0	0	7500	0	2000	0	500	0	0	0		0	30	0	0	0	0	7500	0	2000	0	500	0	0	0		0	30	0	0	0	0	7500	0	2000	0	500	0	0	0	
20170101	0	20300101	0	80200	999999	0	0	3	3	0	75	0	0	0	0	7500	0	2000	0	500	0	0	0		0	75	0	0	0	0	7500	0	2000	0	500	0	0	0		0	75	0	0	0	0	7500	0	2000	0	500	0	0	0	
20210503	1100	20300101	0	120400	999999	0	0	0	3	-1	0	0	0	0	0	0	0	0	0	0	0	0	0		-1	0	0	0	0	0	0	0	0	0	0	0	0	0		62	0	0	0	0	0	7400	0	2100	0	500	0	0	0	【Limited】 Collect Li'l Cats only during this event!	0	0	5	fr	【Durée limitée】 P’tits Chats uniquement dans cet événement !	it	【Limitato】 Ottieni Mini Gatti solo in questo evento! 	de	(Begrenzt) Sammle nur während dieses Events kleine Katzen!	es	[Exclusivo] ¡Consigue Minigatos solo en este evento!	th	【จำกัด】 เก็บแมวเล็กเฉพาะในอีเวนต์นี้เท่านั้น!
20210416	1100	20300101	0	100400	999999	0	0	0	4	-1	0	0	0	0	0	0	0	0	0	0	0	0	0		-1	0	0	0	0	0	0	0	0	0	0	0	0	0		-1	0	0	0	0	0	0	0	0	0	0	0	0	0		63	0	300	0	0	0	5100	0	3500	0	1400	0	0	0	【Limited Event】 Special chance for XP and Catamins!	0	0	0	5	fr	【Durée limitée】 Chance spéciale d’obtenir XP et vichamines ! 	it	【Evento limitato】 Occasione speciale per XP e Vitamiao! 	de	(Begrenztes Event) Sonderchance auf XP und Katzamine! 	es	[Evento exclusivo] ¡Probabilidad de ganar XP y gataminas!	th	【อีเวนต์จำกัด】 โอกาสพิเศษที่จะได้รับ XP และวิตาเมี้ยว!
20220106	1100	20300101	1100	110100	999999	0	0	0	1	64	0	2300	0	10000	0	0	0	0	0	0	0	0	0		4	fr		it		de		es	
20230512	1100	20300101	0	120200	999999	0	0	1	4	-1	0	0	0	0	0	0	0	0	0	0	0	0	0		-1	0	0	0	0	0	0	0	0	0	0	0	0	0		-1	0	0	0	0	0	0	0	0	0	0	0	0	0		803	0	0	0	0	0	0	0	0	0	9500	0	500	0	Get a Guaranteed Uber or Legend Rare from the Legend Capsules!	0	0	0	5	fr	Un ultra rare ou un légendaire garanti dans les Chapsules légendaires !	it	Ottieni un'unità ultra rara o leggendaria garantita dalle Capsule leggendarie!	de	Garantiert eine mega- oder legendär seltene Katze aus legendären Kapseln!	es	¡Una unidad megarrara o legendaria garantizada en las bolas legendarias!	th	ได้อูเบอร์หรือแรร์ตำนานแบบรับประกันจากกาชาตำนาน!
20230512	1100	20300101	0	120200	999999	0	0	1	5	-1	0	0	0	0	0	0	0	0	0	0	0	0	0		-1	0	0	0	0	0	0	0	0	0	0	0	0	0		-1	0	0	0	0	0	0	0	0	0	0	0	0	0		-1	0	0	0	0	0	0	0	0	0	0	0	0	0		802	0	0	0	0	0	0	0	0	0	10000	0	0	0	Get an Uber Rare Cat!! 100% Uber drop Rate in the PLATINUM CAPSULES!	0	0	0	0	5	fr	Obtiens un ultra rare ! 100 % de chances avec les Chapsules platine !	it	Ottieni un gatto ultra raro! 100% possibilità di Ultra nelle CAPSULE PLATINO!	de	Hol dir eine megaseltene Katze!! 100-%-Chance in den PLATINKAPSELN!	es	¡Gana un gato megarraro! Garantizado en las BOLAS DE PLATINO.	th	รับแมวอูเบอร์แรร์ไปเลย!! อัตราดร็อปอูเบอร์ 100% ในกาชาแพลตินัม!
20230825	1100	20300101	000	120500	999999	0	0	1	4	-1	0	0	0	0	0	0	0	0	0	0	0	0	0		-1	0	0	0	0	0	0	0	0	0	0	0	0	0		-1	0	0	0	0	0	0	0	0	0	0	0	0	0		833	0	0	0	0	0	0	0	0	0	9500	0	500	0	Get a Guaranteed Uber or Legend Rare from the Legend Capsules!	0	0	0	5	fr	Un ultra rare ou un légendaire garanti dans les Chapsules légendaires !	it	Ottieni un'unità ultra rara o leggendaria garantita dalle Capsule leggendarie!	de	Garantiert eine mega- oder legendär seltene Katze aus legendären Kapseln!	es	¡Una unidad megarrara o legendaria garantizada en las bolas legendarias!	th	ได้อูเบอร์หรือแรร์ตำนานแบบรับประกันจากกาชาตำนาน!
20230825	1100	20300101	000	120500	999999	0	0	1	5	-1	0	0	0	0	0	0	0	0	0	0	0	0	0		-1	0	0	0	0	0	0	0	0	0	0	0	0	0		-1	0	0	0	0	0	0	0	0	0	0	0	0	0		-1	0	0	0	0	0	0	0	0	0	0	0	0	0		832	0	0	0	0	0	0	0	0	0	10000	0	0	0	Get an Uber Rare Cat!! 100% Uber drop Rate in the PLATINUM CAPSULES!	0	0	0	0	5	fr	Obtiens un ultra rare ! 100 % de chances avec les Chapsules platine !	it	Ottieni un gatto ultra raro! 100% possibilità di Ultra nelle CAPSULE PLATINO!	de	Hol dir eine megaseltene Katze!! 100-%-Chance in den PLATINKAPSELN!	es	¡Gana un gato megarraro! Garantizado en las BOLAS DE PLATINO.	th	รับแมวอูเบอร์แรร์ไปเลย!! อัตราดร็อปอูเบอร์ 100% ในกาชาแพลตินัม!
20231030	1300	20300101	0	120600	999999	0	0	1	4	-1	0	0	0	0	0	0	0	0	0	0	0	0	0		-1	0	0	0	0	0	0	0	0	0	0	0	0	0		-1	0	0	0	0	0	0	0	0	0	0	0	0	0		816	0	0	0	0	0	0	0	0	0	9500	0	500	0	Get a Guaranteed Uber or Legend Rare from the Legend Capsules!	0	0	0	5	fr	Un ultra rare ou un légendaire garanti dans les Chapsules légendaires !	it	Ottieni un'unità ultra rara o leggendaria garantita dalle Capsule leggendarie!	de	Garantiert eine mega- oder legendär seltene Katze aus legendären Kapseln!	es	¡Una unidad megarrara o legendaria garantizada en las bolas legendarias!	th	ได้อูเบอร์หรือแรร์ตำนานแบบรับประกันจากกาชาตำนาน!
20231030	1300	20300101	0	120600	999999	0	0	1	5	-1	0	0	0	0	0	0	0	0	0	0	0	0	0		-1	0	0	0	0	0	0	0	0	0	0	0	0	0		-1	0	0	0	0	0	0	0	0	0	0	0	0	0		-1	0	0	0	0	0	0	0	0	0	0	0	0	0		815	0	0	0	0	0	0	0	0	0	10000	0	0	0	Get an Uber Rare Cat!! 100% Uber drop Rate in the PLATINUM CAPSULES!	0	0	0	0	5	fr	Obtiens un ultra rare ! 100 % de chances avec les Chapsules platine !	it	Ottieni un gatto ultra raro! 100% possibilità di Ultra nelle CAPSULE PLATINO!	de	Hol dir eine megaseltene Katze!! 100-%-Chance in den PLATINKAPSELN!	es	¡Gana un gato megarraro! Garantizado en las BOLAS DE PLATINO.	th	รับแมวอูเบอร์แรร์ไปเลย!! อัตราดร็อปอูเบอร์ 100% ในกาชาแพลตินัม!
20231122	1100	20300101	000	120700	999999	0	0	1	4	-1	0	0	0	0	0	0	0	0	0	0	0	0	0		-1	0	0	0	0	0	0	0	0	0	0	0	0	0		-1	0	0	0	0	0	0	0	0	0	0	0	0	0		828	0	0	0	0	0	0	0	0	0	9500	0	500	0	Get a Guaranteed Uber or Legend Rare from the Legend Capsules!	0	0	0	5	fr	Un ultra rare ou un légendaire garanti dans les Chapsules légendaires !	it	Ottieni un'unità ultra rara o leggendaria garantita dalle Capsule leggendarie!	de	Garantiert eine mega- oder legendär seltene Katze aus legendären Kapseln!	es	¡Una unidad megarrara o legendaria garantizada en las bolas legendarias!	th	ได้อูเบอร์หรือแรร์ตำนานแบบรับประกันจากกาชาตำนาน!
20231122	1100	20300101	000	120700	999999	0	0	1	5	-1	0	0	0	0	0	0	0	0	0	0	0	0	0		-1	0	0	0	0	0	0	0	0	0	0	0	0	0		-1	0	0	0	0	0	0	0	0	0	0	0	0	0		-1	0	0	0	0	0	0	0	0	0	0	0	0	0		827	0	0	0	0	0	0	0	0	0	10000	0	0	0	Get an Uber Rare Cat!! 100% Uber drop Rate in the PLATINUM CAPSULES!	0	0	0	0	5	fr	Obtiens un ultra rare ! 100 % de chances avec les Chapsules platine !	it	Ottieni un gatto ultra raro! 100% possibilità di Ultra nelle CAPSULE PLATINO!	de	Hol dir eine megaseltene Katze!! 100-%-Chance in den PLATINKAPSELN!	es	¡Gana un gato megarraro! Garantizado en las BOLAS DE PLATINO.	th	รับแมวอูเบอร์แรร์ไปเลย!! อัตราดร็อปอูเบอร์ 100% ในกาชาแพลตินัม!
20231213	1100	20300101	000	120700	999999	0	0	1	4	-1	0	0	0	0	0	0	0	0	0	0	0	0	0		-1	0	0	0	0	0	0	0	0	0	0	0	0	0		-1	0	0	0	0	0	0	0	0	0	0	0	0	0		840	0	0	0	0	0	0	0	0	0	9500	0	500	0	Get a Guaranteed Uber or Legend Rare from the Legend Capsules!	0	0	0	5	fr	Un ultra rare ou un légendaire garanti dans les Chapsules légendaires !	it	Ottieni un'unità ultra rara o leggendaria garantita dalle Capsule leggendarie!	de	Garantiert eine mega- oder legendär seltene Katze aus legendären Kapseln!	es	¡Una unidad megarrara o legendaria garantizada en las bolas legendarias!	th	ได้อูเบอร์หรือแรร์ตำนานแบบรับประกันจากกาชาตำนาน!
20231213	1100	20300101	000	120700	999999	0	0	1	5	-1	0	0	0	0	0	0	0	0	0	0	0	0	0		-1	0	0	0	0	0	0	0	0	0	0	0	0	0		-1	0	0	0	0	0	0	0	0	0	0	0	0	0		-1	0	0	0	0	0	0	0	0	0	0	0	0	0		839	0	0	0	0	0	0	0	0	0	10000	0	0	0	Get an Uber Rare Cat!! 100% Uber drop Rate in the PLATINUM CAPSULES!	0	0	0	0	5	fr	Obtiens un ultra rare ! 100 % de chances avec les Chapsules platine !	it	Ottieni un gatto ultra raro! 100% possibilità di Ultra nelle CAPSULE PLATINO!	de	Hol dir eine megaseltene Katze!! 100-%-Chance in den PLATINKAPSELN!	es	¡Gana un gato megarraro! Garantizado en las BOLAS DE PLATINO.	th	รับแมวอูเบอร์แรร์ไปเลย!! อัตราดร็อปอูเบอร์ 100% ในกาชาแพลตินัม!
20231218	1100	20240101	000	130000	999999	0	0	1	2	-1	0	0	0	0	0	0	0	0	0	0	0	0	0		776	150	0	16384	0	0	7000	0	2500	0	500	0	0	0	Limited Xmas Girls, featuring new True Forms! ★ Tap banner for info!	0	5	fr	Minettes de Noël limitées, nouv. formes ultimes ! ★ Touche pour plus d'infos !	it	Ragazze natalizie limitate, con nuove Forme Reali! ★ Tocca il banner!	de	Limit. Weihnachtsdamen mit neuen wahren Formen! ★ Tippe auf das Banner!!	es	¡Navidamas exclusivas con nuevas formas finales! ★ ¡Toca para saber más!	th	สาวน้อยคริสต์มาสแบบจำกัด ที่มาพร้อมร่างจริงใหม่! ★ แตะแบนเนอร์เพื่อดูข้อมูลได้เลย!
20231225	1100	20240101	000	130000	999999	0	0	0	2	-1	0	0	0	0	0	0	0	0	0	0	0	0	0		65	0	0	2	500	0	6900	0	2000	0	500	0	100	0	★ Limited Capsules ★ Pick up extra Catseyes in this special Capsule set!	0	5	fr	★ Chapsules à durée limitée ★ Plus d’œils-de-chat dans ces Chapsules spéciales !	it	★ Capsule limitate ★ Ottieni Occhio di gatto in questo speciale set capsule!	de	★ Limitierte Kapseln ★ Hol dir zusätzliche Katzenaugen durch dieses Kapselset!	es	★ Bolas exclusivas ★ ¡Consigue más gatojos en esta serie especial de bolas!	th	★กาชาจำกัด★ เก็บตาแมวเพิ่มในชุดกาชาพิเศษนี้!
20231225	1100	20240101	000	130000	999999	0	0	1	2	-1	0	0	0	0	0	0	0	0	0	0	0	0	0		776	150	0	20600	0	0	7000	0	2500	0	500	0	0	0	Limited Xmas Girls, featuring new True Forms! ★ Tap banner for info!	0	5	fr	Minettes de Noël limitées, nouv. formes ultimes ! ★ Touche pour plus d'infos !	it	Ragazze natalizie limitate, con nuove Forme Reali! ★ Tocca il banner!	de	Limit. Weihnachtsdamen mit neuen wahren Formen! ★ Tippe auf das Banner!!	es	¡Navidamas exclusivas con nuevas formas finales! ★ ¡Toca para saber más!	th	สาวน้อยคริสต์มาสแบบจำกัด ที่มาพร้อมร่างจริงใหม่! ★ แตะแบนเนอร์เพื่อดูข้อมูลได้เลย!
20231225	1100	20231227	1100	130000	999999	0	0	1	3	-1	0	0	0	0	0	0	0	0	0	0	0	0	0		-1	0	0	0	0	0	0	0	0	0	0	0	0	0		741	150	0	20600	0	0	6970	0	2500	0	500	0	30	0	Colossus Slayer Cat Tengu joins the fight! Tap banner for info!	0	0	5	fr	Chat Tengu, fléau des colosses, rejoint la bataille ! Touche pour plus d'infos !	it	L'ammazzagiganti Gatto Tengu Scende in campo! Tocca il banner!	de	Kolosstöter „Katzen-Tengu“ tritt dem Kampf bei! Tippe auf das Banner!	es	¡Gatengu matacolosos se une a la lucha! ¡Toca para saber más!	th	มือสังหารยักษ์ แมวเทงกุ มาร่วมต่อสู้ด้วย! แตะแบนเนอร์เพื่อดูข้อมูลได้เลย!
20231227	1100	20240101	000	130000	999999	0	0	1	2	-1	0	0	0	0	0	0	0	0	0	0	0	0	0		776	150	0	4216	0	0	7000	0	2500	0	500	1	0	0	Limited Xmas Girls, featuring new True Forms! ★ Tap banner for info!	0	5	fr	Minettes de Noël limitées, nouv. formes ultimes ! ★ Touche pour plus d'infos !	it	Ragazze natalizie limitate, con nuove Forme Reali! ★ Tocca il banner!	de	Limit. Weihnachtsdamen mit neuen wahren Formen! ★ Tippe auf das Banner!!	es	¡Navidamas exclusivas con nuevas formas finales! ★ ¡Toca para saber más!	th	สาวน้อยคริสต์มาสแบบจำกัด ที่มาพร้อมร่างจริงใหม่! ★ แตะแบนเนอร์เพื่อดูข้อมูลได้เลย!
20231227	1100	20231229	1100	130000	999999	0	0	1	3	-1	0	0	0	0	0	0	0	0	0	0	0	0	0		-1	0	0	0	0	0	0	0	0	0	0	0	0	0		760	150	0	4216	0	0	6970	0	2500	0	500	1	30	0	New Colossus Slayer Spectral Goth Vega added! Tap banner for details!	0	0	5	fr	Nouveau Fléau des colosses Déesse spectrale Véga ! Touche la bannière !	it	Nuova ammazzagiganti: Vega gotica spettrale! Tocca il banner per dettagli!	de	Neuer Kolosstöter Spektralgrufti Vega hinzugefügt! Tippe auf das Banner!	es	¡Nueva Gótica espectral Vega matacolosos añadida! ¡Toca para ver los detalles!	th	เพิ่มมือสังหารยักษ์ก็อธเวก้าภูติผีแล้ว! แตะดูรายละเอียดได้ที่แบนเนอร์!
20231229	1100	20240101	000	130000	999999	0	0	1	3	-1	0	0	0	0	0	0	0	0	0	0	0	0	0		-1	0	0	0	0	0	0	0	0	0	0	0	0	0		732	150	0	4216	0	0	6970	0	2500	0	500	1	30	0	Colossus Slayer Daliasan joins the fight! Tap banner for info!	0	0	5	fr	Daliasan, fléau des colosses, rejoint la bataille ! Touche pour plus d'infos !	it	L'ammazzagiganti Daliasan scende in campo! Tocca il banner!	de	Kolosstöter „Daliasan“ tritt dem Kampf bei! Tippe auf das Banner!	es	¡Daliasan matacolosos se une a la lucha! ¡Toca para saber más!	th	มือสังหารยักษ์ ดาเลียซาน มาร่วมต่อสู้ด้วย! แตะแบนเนอร์เพื่อดูข้อมูลได้เลย!
20240101	000	20240108	1100	130000	999999	0	0	0	2	-1	0	0	0	0	0	0	0	0	0	0	0	0	0		3	0	300	0	400	0	2000	0	7000	0	600	0	0	0	Limited Capsules ★ Collect Catfruit by drawing from this set!	0	5	fr	Chapsules ponctuelles ★ Obtiens des Chagrumes dans cet ensemble !	it	Capsule limitate ★ Ottieni miagrumi sorteggiando da questo set!	de	Limitierte Kapseln ★ Sammle Katzenfrüchte aus diesem Set!	es	Bolas exclusivas ★ ¡Consigue fruta felina en esta serie de bolas!	th	กาชาจำกัด ★ เก็บผลไม้เหมียวด้วยการสุ่มจากเซ็ตนี้!
20240101	000	20240104	1100	130000	999999	0	0	1	1	837	150	0	4216	0	0	6500	0	2600	0	900	0	0	0	NEW hero Child of Destiny Phono! Plus, higher drop rates for Uber Rare Cats!	5	fr	Nouv. héros Phono l'enfant du destin ! + meilleurs taux d'obt. d'ultra rares !	it	NUOVO eroe Phono figlio del destino! Più probabilità per Gatti ultra rari!	de	NEUE Heldin „Schicksalskind Phono“! Plus mehr megaseltene Katzen!	es	¡NUEVO héroe, «Phono, Hijo del Destino»! ¡Más prob. de conseguir megarraros!	th	ฮีโร่ใหม่ บุตรแห่งโฟโนโชคชะตา และอัตราดร็อปแมวอูเบอร์แรร์สูงกว่าเดิม!
20240101	1100	20240104	1100	130000	999999	0	0	1	3	-1	0	0	0	0	0	0	0	0	0	0	0	0	0		-1	0	0	0	0	0	0	0	0	0	0	0	0	0		694	150	0	20600	0	0	6970	0	2500	0	500	0	30	0	Take down Colossal prey with NEW hero Huntress Terun! ★ Tap for info!	0	0	5	fr	Abats les colosses avec Terun chasseresse ! ★ Touche pour des infos	it	Elimina nemici giganti con la NUOVA unità Terun cacciatrice! ★ Tocca per info!	de	Vernichte kolossale Ziele: NEUE Heldin „Jägerin Terun“! ★ Tippe für mehr Info!	es	¡Derrota a presas colosales con Terun Cazadora! ★ ¡Toca para saber más!	th	ปราบเหยื่อยักษ์ด้วยฮีโร่ใหม่อย่าง เทรันนักล่า! ★ แตะเพื่อดูข้อมูลเลย!
20240104	1100	20240106	1100	130000	999999	0	0	1	2	-1	0	0	0	0	0	0	0	0	0	0	0	0	0		798	150	0	20600	0	0	6970	0	2500	0	500	0	30	0	New unit Thunder Jack, hero of justice appears! ★ Tap banner for info!	0	5	fr	Nouvelle unité Jack fulgurant, héros de la justice ! ★ Touche pour + d'infos !	it	Arriva la nuova unità Jack Tuono, il giustiziere! ★ Tocca il banner!	de	Neue Einheit „Blitzschlag-Jack,“ Held der Gerechtigkeit! ★ Tippe auf das Banner!	es	Ha aparecido una nueva unidad: ¡Jack, el eléctrico! ★ ¡Toca para saber más!	th	ยูนิตใหม่ แจ็กสายฟ้า ฮีโร่แห่งความยุติธรรม มาแล้ว! ★ แตะแบนเนอร์เพื่อดูข้อมูล!
20240104	1100	20240106	1100	130000	999999	0	0	1	3	-1	0	0	0	0	0	0	0	0	0	0	0	0	0		-1	0	0	0	0	0	0	0	0	0	0	0	0	0		789	150	0	20600	0	0	6970	0	2500	0	500	0	30	0	Mighty new hero Issun Boshi joins the ancient heroes! ★ Tap banner for info!	0	0	5	fr	Le héros puissant Issun Boshi rejoint les anciens ! ★ Touche pour plus d’infos !	it	Il nuovo eroe Issun Boshi si unisce agli Eroi antichi! ★ Tocca il banner!	de	Der neue Held „Issun Boshi“ tritt den uralten bei! ★ Tippe auf das Banner!	es	¡El nuevo héroe «Issun Boshi» se une a héroes antiguos! ★ ¡Toca para saber más!	th	อิสซัน โบชิ ฮีโร่จอมพลังใหม่ ร่วมทัพฮีโร่โบราณแล้ว! ★ แตะแบนเนอร์ดูข้อมูลเลย!
20240106	1100	20240108	1100	130000	999999	0	0	1	1	843	150	0	4216	0	0	6970	0	2500	0	500	1	30	0	Take down Colossi with new unit Lightmother Aset’s Wave attacks! ★ Tap for info!	5	fr	Abats les colosses avec les vagues off. d'Aset Mère-Lumière ★ Touche pour infos	it	Elimina giganti con att. a ondata dell'unità Madreluce Aset! ★ Tocca per info!	de	Vernichte kolossale Ziele mit Lichtmutter Aset! ★ Tippe für mehr Info!	es	¡Vence a Colossi con la oleada de Madre de la Luz! ★ ¡Toca para saber más!	th	ปราบยักษ์ด้วยการโจมตีคลื่นของยูนิตใหม่ไลท์มาเธอร์อะเซ็ต! ★ แตะเพื่อดูข้อมูลเลย!
20240106	1100	20300101	000	130000	999999	0	0	1	4	-1	0	0	0	0	0	0	0	0	0	0	0	0	0		-1	0	0	0	0	0	0	0	0	0	0	0	0	0		-1	0	0	0	0	0	0	0	0	0	0	0	0	0		847	0	0	0	0	0	0	0	0	0	9500	0	500	0	Get a Guaranteed Uber or Legend Rare from the Legend Capsules!	0	0	0	5	fr	Un ultra rare ou un légendaire garanti dans les Chapsules légendaires !	it	Ottieni un'unità ultra rara o leggendaria garantita dalle Capsule leggendarie!	de	Garantiert eine mega- oder legendär seltene Katze aus legendären Kapseln!	es	¡Una unidad megarrara o legendaria garantizada en las bolas legendarias!	th	ได้อูเบอร์หรือแรร์ตำนานแบบรับประกันจากกาชาตำนาน!
20240106	1100	20300101	000	130000	999999	0	0	1	5	-1	0	0	0	0	0	0	0	0	0	0	0	0	0		-1	0	0	0	0	0	0	0	0	0	0	0	0	0		-1	0	0	0	0	0	0	0	0	0	0	0	0	0		-1	0	0	0	0	0	0	0	0	0	0	0	0	0		846	0	0	0	0	0	0	0	0	0	10000	0	0	0	Get an Uber Rare Cat!! 100% Uber drop Rate in the PLATINUM CAPSULES!	0	0	0	0	5	fr	Obtiens un ultra rare ! 100 % de chances avec les Chapsules platine !	it	Ottieni un gatto ultra raro! 100% possibilità di Ultra nelle CAPSULE PLATINO!	de	Hol dir eine megaseltene Katze!! 100-%-Chance in den PLATINKAPSELN!	es	¡Gana un gato megarraro! Garantizado en las BOLAS DE PLATINO.	th	รับแมวอูเบอร์แรร์ไปเลย!! อัตราดร็อปอูเบอร์ 100% ในกาชาแพลตินัม!
20240106	1100	20240108	1100	130000	999999	0	0	1	2	-1	0	0	0	0	0	0	0	0	0	0	0	0	0		812	150	0	4216	0	0	6970	0	2500	0	500	1	30	0	Introducing NEW hero: the uncanny lifeform Kaoluga! ★ Tap banner for more info!	0	5	fr	NOUVEAU héros : l’étrange entité Kaoluga ! ★ Touche pour plus d’infos !	it	Ecco un NUOVO eroe: Kalouga la creatura misteriosa! ★ Tocca il banner!	de	NEUER Held: unheimliche Lebensform Kaoluga! ★ Tippe auf das Banner!	es	NUEVO héroe: ¡Kaoluga, una insólita forma de vida! ★ ¡Toca para saber más!	th	แนะนำฮีโร่ใหม่: สิ่งมีชีวิตประหลาด คาโอลูก้า! ★ แตะแบนเนอร์เพื่อดูข้อมูลได้เลย!
20240108	1100	20240110	1100	130000	999999	0	0	1	2	-1	0	0	0	0	0	0	0	0	0	0	0	0	0		836	150	0	16384	0	0	6970	0	2500	0	500	0	30	0	New unit Tetsukachi resists 3 enemy types! ★ Tap banner for more info!	0	5	fr	La nouvelle unité Tetsukachi résiste à 3 types ! ★ Touche pour plus d'infos !	it	La nuova unità Tetsukachi resiste a 3 tipi di nemici! ★ Tocca il banner!	de	Neue Einheit Tetsukachi: Robust gegen 3 Feindtypen! ★ Tippe auf das Banner!	es	¡Tetsukachi es resistente a 3 tipos de enemigos! ★ ¡Toca para saber más!	th	ยูนิตใหม่ เทตสึคาชิ ทนต่อศัตรูได้ 3 ประเภท! ★ แตะแบนเนอร์เพื่อดูเลย!
20240108	1100	20240110	1100	130000	999999	0	0	1	3	-1	0	0	0	0	0	0	0	0	0	0	0	0	0		-1	0	0	0	0	0	0	0	0	0	0	0	0	0		824	150	0	16384	0	0	6970	0	2500	0	500	0	30	0	Tough defense vs 3 enemy types: Mighty Sphinx Korps! ★ Tap banner for more info!	0	0	5	fr	Balèze contre 3 types : Puissant corps sphinx ! ★ Touche pour plus d’infos !	it	Forte difesa vs 3 tipi di nemici: Costruttori egizi possenti! ★ Tocca il banner!	de	Robust gegen 3 Feindtypen: Mächtiges Sphinxkorps! ★ Tippe auf das Banner!	es	Def. dura con 3 tipos enemigos: ¡Cuerpo Esfinge Brutal! ★ ¡Toca para saber más!	th	ป้องกันสุดแกร่งต่อศัตรู 3 ประเภท: คอร์ปสฟิงซ์จอมพลัง! ★ แตะแบนเนอร์เพื่อดูเลย!
20240110	1100	20240112	1100	130000	999999	0	0	1	2	-1	0	0	0	0	0	0	0	0	0	0	0	0	0		742	150	0	16384	0	0	6970	0	2500	0	500	0	30	0	Colossus Slayer Cat Tengu joins the fight! Tap banner for info!	0	5	fr	Chat Tengu, fléau des colosses, rejoint la bataille ! Touche pour plus d'infos !	it	L'ammazzagiganti Gatto Tengu Scende in campo! Tocca il banner!	de	Kolosstöter „Katzen-Tengu“ tritt dem Kampf bei! Tippe auf das Banner!	es	¡Gatengu matacolosos se une a la lucha! ¡Toca para saber más!	th	มือสังหารยักษ์ แมวเทงกุ มาร่วมต่อสู้ด้วย! แตะแบนเนอร์เพื่อดูข้อมูลได้เลย!
20240110	1100	20240112	1100	130000	999999	0	0	1	3	-1	0	0	0	0	0	0	0	0	0	0	0	0	0		-1	0	0	0	0	0	0	0	0	0	0	0	0	0		761	150	0	16384	0	0	6970	0	2500	0	500	0	30	0	New Colossus Slayer Spectral Goth Vega added! Tap banner for details!	0	0	5	fr	Nouveau Fléau des colosses Déesse spectrale Véga ! Touche la bannière !	it	Nuova ammazzagiganti: Vega gotica spettrale! Tocca il banner per dettagli!	de	Neuer Kolosstöter Spektralgrufti Vega hinzugefügt! Tippe auf das Banner!	es	¡Nueva Gótica espectral Vega matacolosos añadida! ¡Toca para ver los detalles!	th	เพิ่มมือสังหารยักษ์ก็อธเวก้าภูติผีแล้ว! แตะดูรายละเอียดได้ที่แบนเนอร์!
20240112	1100	20240115	1100	130000	999999	0	0	1	2	-1	0	0	0	0	0	0	0	0	0	0	0	0	0		695	150	0	16384	0	0	6970	0	2500	0	500	0	30	0	Take down Colossal prey with NEW hero Huntress Terun! ★ Tap for info!	0	5	fr	Abats les colosses avec Terun chasseresse ! ★ Touche pour des infos	it	Elimina nemici giganti con la NUOVA unità Terun cacciatrice! ★ Tocca per info!	de	Vernichte kolossale Ziele: NEUE Heldin „Jägerin Terun“! ★ Tippe für mehr Info!	es	¡Derrota a presas colosales con Terun Cazadora! ★ ¡Toca para saber más!	th	ปราบเหยื่อยักษ์ด้วยฮีโร่ใหม่อย่าง เทรันนักล่า! ★ แตะเพื่อดูข้อมูลเลย!
20240112	1100	20240115	1100	130000	999999	0	0	1	3	-1	0	0	0	0	0	0	0	0	0	0	0	0	0		-1	0	0	0	0	0	0	0	0	0	0	0	0	0		733	150	0	16384	0	0	6970	0	2500	0	500	0	30	0	Colossus Slayer Daliasan joins the fight! Tap banner for info!	0	0	5	fr	Daliasan, fléau des colosses, rejoint la bataille ! Touche pour plus d'infos !	it	L'ammazzagiganti Daliasan scende in campo! Tocca il banner!	de	Kolosstöter „Daliasan“ tritt dem Kampf bei! Tippe auf das Banner!	es	¡Daliasan matacolosos se une a la lucha! ¡Toca para saber más!	th	มือสังหารยักษ์ ดาเลียซาน มาร่วมต่อสู้ด้วย! แตะแบนเนอร์เพื่อดูข้อมูลได้เลย!
[end]
