[start]
20180109	1100	20300101	1100	50700	999999	0	0	0	1	0	0	0	0	10000	0	0	0	0	0	0	0	0	0	
20170101	0	20300101	0	80200	999999	0	0	2	3	0	30	0	0	0	0	7500	0	2000	0	500	0	0	0		0	30	0	0	0	0	7500	0	2000	0	500	0	0	0		0	30	0	0	0	0	7500	0	2000	0	500	0	0	0	
20170101	0	20300101	0	80200	999999	0	0	3	3	0	75	0	0	0	0	7500	0	2000	0	500	0	0	0		0	75	0	0	0	0	7500	0	2000	0	500	0	0	0		0	75	0	0	0	0	7500	0	2000	0	500	0	0	0	
20210503	1100	20300101	0	120400	999999	0	0	0	3	-1	0	0	0	0	0	0	0	0	0	0	0	0	0		-1	0	0	0	0	0	0	0	0	0	0	0	0	0		62	0	0	0	0	0	7400	0	2100	0	500	0	0	0	【Limited】 Collect Li'l Cats only during this event!	0	0	5	fr	【Durée limitée】 P’tits Chats uniquement dans cet événement !	it	【Limitato】 Ottieni Mini Gatti solo in questo evento! 	de	(Begrenzt) Sammle nur während dieses Events kleine Katzen!	es	[Exclusivo] ¡Consigue Minigatos solo en este evento!	th	【จำกัด】 เก็บแมวเล็กเฉพาะในอีเวนต์นี้เท่านั้น!
20210416	1100	20300101	0	100400	999999	0	0	0	4	-1	0	0	0	0	0	0	0	0	0	0	0	0	0		-1	0	0	0	0	0	0	0	0	0	0	0	0	0		-1	0	0	0	0	0	0	0	0	0	0	0	0	0		63	0	300	0	0	0	5100	0	3500	0	1400	0	0	0	【Limited Event】 Special chance for XP and Catamins!	0	0	0	5	fr	【Durée limitée】 Chance spéciale d’obtenir XP et vichamines ! 	it	【Evento limitato】 Occasione speciale per XP e Vitamiao! 	de	(Begrenztes Event) Sonderchance auf XP und Katzamine! 	es	[Evento exclusivo] ¡Probabilidad de ganar XP y gataminas!	th	【อีเวนต์จำกัด】 โอกาสพิเศษที่จะได้รับ XP และวิตาเมี้ยว!
20220106	1100	20300101	1100	110100	999999	0	0	0	1	64	0	2300	0	10000	0	0	0	0	0	0	0	0	0		4	fr		it		de		es	
20240426	1100	20300101	000	130300	999999	0	0	1	4	-1	0	0	0	0	0	0	0	0	0	0	0	0	0		-1	0	0	0	0	0	0	0	0	0	0	0	0	0		-1	0	0	0	0	0	0	0	0	0	0	0	0	0		873	0	0	0	0	0	0	0	0	0	9500	0	500	0	Get a Guaranteed Uber or Legend Rare from the Legend Capsules!	0	0	0	5	fr	Un ultra rare ou un légendaire garanti dans les Chapsules légendaires !	it	Ottieni un'unità ultra rara o leggendaria garantita dalle Capsule leggendarie!	de	Garantiert eine mega- oder legendär seltene Katze aus legendären Kapseln!	es	¡Una unidad megarrara o legendaria garantizada en las bolas legendarias!	th	ได้อูเบอร์หรือแรร์ตำนานแบบรับประกันจากกาชาตำนาน!
20240426	1100	20300101	000	130300	999999	0	0	1	5	-1	0	0	0	0	0	0	0	0	0	0	0	0	0		-1	0	0	0	0	0	0	0	0	0	0	0	0	0		-1	0	0	0	0	0	0	0	0	0	0	0	0	0		-1	0	0	0	0	0	0	0	0	0	0	0	0	0		872	0	0	0	0	0	0	0	0	0	10000	0	0	0	Get an Uber Rare Cat!! 100% Uber drop Rate in the PLATINUM CAPSULES!	0	0	0	0	5	fr	Obtiens un ultra rare ! 100 % de chances avec les Chapsules platine !	it	Ottieni un gatto ultra raro! 100% possibilità di Ultra nelle CAPSULE PLATINO!	de	Hol dir eine megaseltene Katze!! 100-%-Chance in den PLATINKAPSELN!	es	¡Gana un gato megarraro! Garantizado en las BOLAS DE PLATINO.	th	รับแมวอูเบอร์แรร์ไปเลย!! อัตราดร็อปอูเบอร์ 100% ในกาชาแพลตินัม!
20240906	1100	20300101	000	130500	999999	0	0	1	4	-1	0	0	0	0	0	0	0	0	0	0	0	0	0		-1	0	0	0	0	0	0	0	0	0	0	0	0	0		-1	0	0	0	0	0	0	0	0	0	0	0	0	0		900	0	0	0	0	0	0	0	0	0	9500	0	500	0	Get a Guaranteed Uber or Legend Rare from the Legend Capsules!	0	0	0	5	fr	Un ultra rare ou un légendaire garanti dans les Chapsules légendaires !	it	Ottieni un'unità ultra rara o leggendaria garantita dalle Capsule leggendarie!	de	Garantiert eine mega- oder legendär seltene Katze aus legendären Kapseln!	es	¡Una unidad megarrara o legendaria garantizada en las bolas legendarias!	th	ได้อูเบอร์หรือแรร์ตำนานแบบรับประกันจากกาชาตำนาน!
20240906	1100	20300101	000	130500	999999	0	0	1	5	-1	0	0	0	0	0	0	0	0	0	0	0	0	0		-1	0	0	0	0	0	0	0	0	0	0	0	0	0		-1	0	0	0	0	0	0	0	0	0	0	0	0	0		-1	0	0	0	0	0	0	0	0	0	0	0	0	0		885	0	0	0	0	0	0	0	0	0	10000	0	0	0	Get an Uber Rare Cat!! 100% Uber drop Rate in the PLATINUM CAPSULES!	0	0	0	0	5	fr	Obtiens un ultra rare ! 100 % de chances avec les Chapsules platine !	it	Ottieni un gatto ultra raro! 100% possibilità di Ultra nelle CAPSULE PLATINO!	de	Hol dir eine megaseltene Katze!! 100-%-Chance in den PLATINKAPSELN!	es	¡Gana un gato megarraro! Garantizado en las BOLAS DE PLATINO.	th	รับแมวอูเบอร์แรร์ไปเลย!! อัตราดร็อปอูเบอร์ 100% ในกาชาแพลตินัม!
20240916	1100	20241029	000	130600	999999	0	0	4	1	30	0	0	0	1000	0	5000	0	3000	0	1000	1	0	0	[A Decade of Memories] Use Legend Passes until 10/28!	Pull from the Capsules	 times to earn a limited unit!	5	fr	[10 ans de souvenirs] Utilise les pass Légende jusqu'au 28/10 !	Unité à durée limitée à gagner	 dans les Chapsules !	it	[Dieci anni di ricordi] Usa pass leggendari fino al 28/10!	Sorteggia	 volte per ottenere un’unità limitata!	de	[Ein Jahrzehnt der Erinnerungen] Benutze Legendenpässe bis zum 28.10.!	Ziehe von den Kapseln,	 um eine limitierte Einheiten zu erhalten!	es	[Recordando Diez Años] Usa pases legendarios hasta el 28/10	Consigue una unidad exclusiva tirando	 veces.	th	[ทศวรรษแห่งค.ทรงจำ] ใช้บัตรผ่านตำนานกับกาชาอีเวนต์จำกัดได้ถึง 28/10!	สุ่มจากแคปซูล	 รับยูนิตจำกัด!
20240916	1100	20240930	1100	130600	999999	0	0	4	2	-1	0	0	0	0	0	0	0	0	0	0	0	0	0				32	0	0	0	1000	0	5000	0	3000	0	1000	1	0	0	[Summer Break Cats] Use Legend Trap for limited event Capsules til 9/30 (11AM)!	Pull from the Capsules	 times to earn 1 of 3 limited units!	0	5	fr	[Chats de vacances d’été] Utilise des Piège légend. jusqu'au 30/09 !		 1 à 3 unités à durée limitée à gagner !	it	[Gatti estivi] Usa Trappola leggendarie, fino al 30/09!	Sorteggia	 volte per ottenere una delle 3 unità limitate!	de	[Sommerferienkatzen] Bis 30.9.: Gegenst. & limit. Katzen mit Legendenfalle!	Ziehe von den Kapseln,	 um 1 von 3 limitierten Einheiten zu erhalten!	es	[Gatos Estivales] Bolas exclusivas con Trampa legendaria hasta el 30/9	Tira	 veces y consigue 1 de 3 unidades exclusivas.	th	[แมวพักฤดูร้อน] ใช้กับดักตำนานในกาชาอีเวนต์จำกัดถึง 30/9!	สุ่มจากแคปซูล	 รับยูนิตจำกัด 1 ใน 3!
20240920	1100	20300101	000	130600	999999	0	0	1	4	-1	0	0	0	0	0	0	0	0	0	0	0	0	0		-1	0	0	0	0	0	0	0	0	0	0	0	0	0		-1	0	0	0	0	0	0	0	0	0	0	0	0	0		902	0	0	0	0	0	0	0	0	0	9500	0	500	0	Get a Guaranteed Uber or Legend Rare from the Legend Capsules!	0	0	0	5	fr	Un ultra rare ou un légendaire garanti dans les Chapsules légendaires !	it	Ottieni un'unità ultra rara o leggendaria garantita dalle Capsule leggendarie!	de	Garantiert eine mega- oder legendär seltene Katze aus legendären Kapseln!	es	¡Una unidad megarrara o legendaria garantizada en las bolas legendarias!	th	ได้อูเบอร์หรือแรร์ตำนานแบบรับประกันจากกาชาตำนาน!
20240920	1100	20300101	000	130600	999999	0	0	1	5	-1	0	0	0	0	0	0	0	0	0	0	0	0	0		-1	0	0	0	0	0	0	0	0	0	0	0	0	0		-1	0	0	0	0	0	0	0	0	0	0	0	0	0		-1	0	0	0	0	0	0	0	0	0	0	0	0	0		894	0	0	0	0	0	0	0	0	0	10000	0	0	0	Get an Uber Rare Cat!! 100% Uber drop Rate in the PLATINUM CAPSULES!	0	0	0	0	5	fr	Obtiens un ultra rare ! 100 % de chances avec les Chapsules platine !	it	Ottieni un gatto ultra raro! 100% possibilità di Ultra nelle CAPSULE PLATINO!	de	Hol dir eine megaseltene Katze!! 100-%-Chance in den PLATINKAPSELN!	es	¡Gana un gato megarraro! Garantizado en las BOLAS DE PLATINO.	th	รับแมวอูเบอร์แรร์ไปเลย!! อัตราดร็อปอูเบอร์ 100% ในกาชาแพลตินัม!
20240923	1100	20240930	1100	130600	999999	0	0	0	2	-1	0	0	0	0	0	0	0	0	0	0	0	0	0		3	0	300	0	400	0	2000	0	7000	0	600	0	0	0	Limited Capsules ★ Collect Catfruit by drawing from this set!	0	5	fr	Chapsules ponctuelles ★ Obtiens des Chagrumes dans cet ensemble !	it	Capsule limitate ★ Ottieni miagrumi sorteggiando da questo set!	de	Limitierte Kapseln ★ Sammle Katzenfrüchte aus diesem Set!	es	Bolas exclusivas ★ ¡Consigue fruta felina en esta serie de bolas!	th	กาชาจำกัด ★ เก็บผลไม้เหมียวด้วยการสุ่มจากเซ็ตนี้!
20240923	1100	20240927	1100	130600	999999	0	0	1	1	854	150	0	0	0	0	6970	0	2500	0	500	0	30	0	10 Year Celebration: Miracle Selection! ★ Tap banner for info!	5	fr	Célébration des 10 ans : Choix miraculeux ! ★ Touche pour plus d’infos !	it	Festeggiamo 10 anni: Selezione Miracolo! ★ Tocca il banner!	de	10-Jahres-Feier: Wunderauswahl! ★ Tippe auf das Banner!	es	Celebración de los 10 años: ¡Selección milagrosa! ★ ¡Toca para saber más!	th	งานฉลองครบรอบ 10 ปี: การเลือกปาฏิหาริย์! ★ แตะแบนเนอร์เพื่อดูข้อมูลได้เลย!
20240925	1100	20240927	1100	130600	999999	0	0	1	2	-1	0	0	0	0	0	0	0	0	0	0	0	0	0		881	150	0	16384	0	0	6970	0	2500	0	500	0	30	0	Conjure spirits with new hero Akechi Mitsuhide! Tap banner for info!	0	5	fr	Invoque des esprits avec le nouveau héros Akechi Mitsuhide ! Touche pour info !	it	Evoca spiriti con il nuovo eroe Akechi Mitsuhide! Tocca il banner!	de	Beschwöre Geister mit dem neuem Helden Akechi Mitsuhide! Tippe auf das Banner!	es	¡Invoca espíritus con Akechi Mitsuhide, el nuevo héroe! ¡Toca para saber más!	th	เรียกวิญญาณด้วยฮีโร่ใหม่ อะเคชิ มิตซุฮิเดะ! แตะแบนเนอร์เพื่อดูข้อมูล!
20240927	1100	20241004	1100	130600	999999	0	0	1	1	914	150	0	0	0	0	6470	0	2500	0	1000	0	30	0	New Legend Rare Izanami of Dusk! ★ Plus, higher Uber Rare drop rates!	5	fr	Izanami du couchant légendaire ! ★ Meilleur taux d’obtention d'ultra rares !	it	Nuova unità leggendaria: Izanami del crepuscolo! ★ Inoltre, più ultra rare!	de	Neue leg. seltene Izanami der Dämmerung! ★ Und höhere Chancen auf Megaseltene!	es	¡Inazami del Anochecer, unidad megarrara! ★ ¡Más probabilidad de megarraros!	th	แรร์ระดับตำนานใหม่ อิซานามิสนธยา! ★ พร้อมเพิ่มอัตราดร็อปแรร์ระดับตำนาน!
20240927	1100	20240930	1100	130600	999999	0	0	1	2	-1	0	0	0	0	0	0	0	0	0	0	0	0	0		842	150	0	16384	0	0	6970	0	2500	0	500	0	30	0	Take down Colossi with new unit Lightmother Aset’s Wave attacks! ★ Tap for info!	0	5	fr	Abats les colosses avec les vagues off. d'Aset Mère-Lumière ★ Touche pour infos	it	Elimina giganti con att. a ondata dell'unità Madreluce Aset! ★ Tocca per info!	de	Vernichte kolossale Ziele mit Lichtmutter Aset! ★ Tippe für mehr Info!	es	¡Vence a Colossi con la oleada de Madre de la Luz! ★ ¡Toca para saber más!	th	ปราบยักษ์ด้วยการโจมตีคลื่นของยูนิตใหม่ไลท์มาเธอร์อะเซ็ต! ★ แตะเพื่อดูข้อมูลเลย!
20240927	1100	20300101	0	130601	999999	0	0	1	4	-1	0	0	0	0	0	0	0	0	0	0	0	0	0		-1	0	0	0	0	0	0	0	0	0	0	0	0	0		-1	0	0	0	0	0	0	0	0	0	0	0	0	0		895	0	0	0	0	0	0	0	0	0	9500	0	500	0	Get a Guaranteed Uber or Legend Rare from the Legend Capsules!	0	0	0	5	fr	Un ultra rare ou un légendaire garanti dans les Chapsules légendaires !	it	Ottieni un'unità ultra rara o leggendaria garantita dalle Capsule leggendarie!	de	Garantiert eine mega- oder legendär seltene Katze aus legendären Kapseln!	es	¡Una unidad megarrara o legendaria garantizada en las bolas legendarias!	th	ได้อูเบอร์หรือแรร์ตำนานแบบรับประกันจากกาชาตำนาน!
20240930	1100	20241007	1100	130600	999999	0	0	0	2	-1	0	0	0	0	0	0	0	0	0	0	0	0	0		65	0	0	2	500	0	6900	0	2000	0	500	0	100	0	★ Limited Capsules ★ Pick up extra Catseyes in this special Capsule set!	0	5	fr	★ Chapsules à durée limitée ★ Plus d’œils-de-chat dans ces Chapsules spéciales !	it	★ Capsule limitate ★ Ottieni Occhio di gatto in questo speciale set capsule!	de	★ Limitierte Kapseln ★ Hol dir zusätzliche Katzenaugen durch dieses Kapselset!	es	★ Bolas exclusivas ★ ¡Consigue más gatojos en esta serie especial de bolas!	th	★กาชาจำกัด★ เก็บตาแมวเพิ่มในชุดกาชาพิเศษนี้!
20240930	1100	20241002	1100	130600	999999	0	0	1	2	-1	0	0	0	0	0	0	0	0	0	0	0	0	0		823	150	0	16384	0	0	6970	0	2500	0	500	0	30	0	Tough defense vs 3 enemy types: Mighty Sphinx Korps! ★ Tap banner for more info!	0	5	fr	Balèze contre 3 types : Puissant corps sphinx ! ★ Touche pour plus d’infos !	it	Forte difesa vs 3 tipi di nemici: Costruttori egizi possenti! ★ Tocca il banner!	de	Robust gegen 3 Feindtypen: Mächtiges Sphinxkorps! ★ Tippe auf das Banner!	es	Def. dura con 3 tipos enemigos: ¡Cuerpo Esfinge Brutal! ★ ¡Toca para saber más!	th	ป้องกันสุดแกร่งต่อศัตรู 3 ประเภท: คอร์ปสฟิงซ์จอมพลัง! ★ แตะแบนเนอร์เพื่อดูเลย!
20241002	1100	20241004	1100	130600	999999	0	0	1	2	-1	0	0	0	0	0	0	0	0	0	0	0	0	0		798	150	0	16384	0	0	6970	0	2500	0	500	0	30	0	New unit Thunder Jack, hero of justice appears! ★ Tap banner for info!	0	5	fr	Nouvelle unité Jack fulgurant, héros de la justice ! ★ Touche pour + d'infos !	it	Arriva la nuova unità Jack Tuono, il giustiziere! ★ Tocca il banner!	de	Neue Einheit „Blitzschlag-Jack,“ Held der Gerechtigkeit! ★ Tippe auf das Banner!	es	Ha aparecido una nueva unidad: ¡Jack, el eléctrico! ★ ¡Toca para saber más!	th	ยูนิตใหม่ แจ็กสายฟ้า ฮีโร่แห่งความยุติธรรม มาแล้ว! ★ แตะแบนเนอร์เพื่อดูข้อมูล!
20241004	1100	20241008	1100	130600	999999	0	0	1	1	855	150	0	0	0	0	6970	0	2500	0	500	0	30	0	10 Year Celebration: Excellent Selection! ★ Tap banner for info!	5	fr	Célébration des 10 ans : excellent choix ! ★ Touche pour plus d’infos !	it	Festeggiamo 10 anni: Selezione eccellente! ★ Tocca il banner!	de	10-Jahres-Feier: Exzellente Auswahl! ★ Tippe auf das Banner!	es	Celebración de los 10 años: ¡Gran selección! ★ ¡Toca para saber más!	th	งานฉลองครบรอบ 10 ปี: การเลือกดีเลิศ! ★ แตะแบนเนอร์เพื่อดูข้อมูลได้เลย!
20241004	1100	20241007	1100	130600	999999	0	0	1	2	-1	0	0	0	0	0	0	0	0	0	0	0	0	0		868	150	0	16384	0	0	6970	0	2500	0	500	0	30	0	Pegasa joins the Galaxy Girls with the power of Conjury! ★ Tap banner for info!	0	5	fr	Pégasa rejoint les Minettes galactiques avec le pouvoir d'invocation ! ★ Touche la bannière pour plus d'informations !	it	Pegasa si unisce alle Ragazze galattiche con il potere di evocare! ★ Tocca il banner per più informazioni!	de	Pegasa springt den Galaxis-Girls mit ihrer Beschwörungskraft bei! ★ Tippe den Banner für weitere Infos!	es	¡Pegasa se une a las galaxichicas con el poder de invocación! ★ Pulsa en el báner para saber más.	th	เปกาซ่าผู้ใช้พลังปลุกวิญญาณเข้าร่วมกับกาแล็กซี่เกิร์ลแล้ว ★ แตะแบนเนอร์เพื่อดูข้อมูลเพิ่มเติม
20241007	1100	20241014	1100	130600	999999	0	0	0	2	-1	0	0	0	0	0	0	0	0	0	0	0	0	0		3	0	300	0	400	0	2000	0	7000	0	600	0	0	0	Limited Capsules ★ Collect Catfruit by drawing from this set!	0	5	fr	Chapsules ponctuelles ★ Obtiens des Chagrumes dans cet ensemble !	it	Capsule limitate ★ Ottieni miagrumi sorteggiando da questo set!	de	Limitierte Kapseln ★ Sammle Katzenfrüchte aus diesem Set!	es	Bolas exclusivas ★ ¡Consigue fruta felina en esta serie de bolas!	th	กาชาจำกัด ★ เก็บผลไม้เหมียวด้วยการสุ่มจากเซ็ตนี้!
20241007	1100	20241009	1100	130602	999999	0	0	1	2	-1	0	0	0	0	0	0	0	0	0	0	0	0	0		811	150	0	16384	0	0	6970	0	2500	0	500	0	30	0	Introducing NEW hero: the uncanny lifeform Kaoluga! ★ Tap banner for more info!	0	5	fr	NOUVEAU héros : l’étrange entité Kaoluga ! ★ Touche pour plus d’infos !	it	Ecco un NUOVO eroe: Kalouga la creatura misteriosa! ★ Tocca il banner!	de	NEUER Held: unheimliche Lebensform Kaoluga! ★ Tippe auf das Banner!	es	NUEVO héroe: ¡Kaoluga, una insólita forma de vida! ★ ¡Toca para saber más!	th	แนะนำฮีโร่ใหม่: สิ่งมีชีวิตประหลาด คาโอลูก้า! ★ แตะแบนเนอร์เพื่อดูข้อมูลได้เลย!
20241008	1100	20241011	1100	130602	999999	0	0	1	1	853	150	0	0	0	0	6970	0	2500	0	500	0	30	0	10 Year Celebration: Ultra Selection! ★ Tap banner for info!	5	fr	Célébration des 10 ans : Ultra rares au choix ! ★ Touche pour plus d’infos !	it	Festeggiamo 10 anni: Selezione Ultra! ★ Tocca il banner!	de	10-Jahres-Feier: Mega-Auswahl! ★ Tippe auf das Banner!	es	Celebración de los 10 años: ¡Ultraselección! ★ ¡Toca para saber más!	th	งานฉลองครบรอบ 10 ปี: การเลือกอัลตร้า! ★ แตะแบนเนอร์เพื่อดูข้อมูลได้เลย!
20241009	1100	20241017	1100	130602	999999	0	0	1	2	-1	0	0	0	0	0	0	0	0	0	0	0	0	0		856	150	0	0	0	0	6800	0	2500	0	700	0	0	0	Units from Busters sets join forces! ★ Uber Rare drop rates UP!	0	5	fr	Les unités des ensembles Chasseurs s'allient ! ★ Chances d'ultra rares ↑ !	it	Le unità dei set Anti uniscono le forze! ★ PIÙ possibilità di ultra rare!	de	Einheiten aus Sprenger-Sets vereint! ★ HÖHERE Chance auf Megaseltene!	es	¡Los antilotes unen fuerzas! ★ ¡Aumenta la probabilidad de conseguir megarraros!	th	ยูนิตจากเซ็ตบัสเตอร์ร่วมทัพ! ★ อัตราดร็อปอูเบอร์แรร์เพิ่มขึ้น!
20241009	1100	20241011	1100	130602	999999	0	0	1	3	-1	0	0	0	0	0	0	0	0	0	0	0	0	0		-1	0	0	0	0	0	0	0	0	0	0	0	0	0		741	150	0	16384	0	0	6970	0	2500	0	500	0	30	0	Colossus Slayer Cat Tengu joins the fight! Tap banner for info!	0	0	5	fr	Chat Tengu, fléau des colosses, rejoint la bataille ! Touche pour plus d'infos !	it	L'ammazzagiganti Gatto Tengu Scende in campo! Tocca il banner!	de	Kolosstöter „Katzen-Tengu“ tritt dem Kampf bei! Tippe auf das Banner!	es	¡Gatengu matacolosos se une a la lucha! ¡Toca para saber más!	th	มือสังหารยักษ์ แมวเทงกุ มาร่วมต่อสู้ด้วย! แตะแบนเนอร์เพื่อดูข้อมูลได้เลย!
20241011	1100	20241014	1100	130602	999999	0	0	1	1	852	150	0	0	0	0	7000	0	2500	0	500	0	0	0	New Heroes appear to celebrate 10 Years! ★ Tap banner for info!	5	fr	De nouveaux héros arrivent pour fêter les 10 ans ! ★ Touche pour plus d’infos !	it	Arrivano dei nuovi eroi per festeggiare 10 anni! ★ Tocca il banner!	de	Neue Helden erscheinen, um 10 Jahre zu feiern! ★ Tippe auf das Banner!	es	Llegan nuevos héroes para celebrar los 10 años. ★ ¡Toca para saber más!	th	ฮีโร่ใหม่ปรากฏตัวขึ้นเพื่อฉลองครบรอบ 10 ปี! ★ แตะแบนเนอร์เพื่อดูข้อมูลได้เลย!
20241011	1100	20241014	1100	130602	999999	0	0	1	3	-1	0	0	0	0	0	0	0	0	0	0	0	0	0		-1	0	0	0	0	0	0	0	0	0	0	0	0	0		835	150	0	16384	0	0	6970	0	2500	0	500	0	30	0	New unit Tetsukachi resists 3 enemy types! ★ Tap banner for more info!	0	0	5	fr	La nouvelle unité Tetsukachi résiste à 3 types ! ★ Touche pour plus d'infos !	it	La nuova unità Tetsukachi resiste a 3 tipi di nemici! ★ Tocca il banner!	de	Neue Einheit Tetsukachi: Robust gegen 3 Feindtypen! ★ Tippe auf das Banner!	es	¡Tetsukachi es resistente a 3 tipos de enemigos! ★ ¡Toca para saber más!	th	ยูนิตใหม่ เทตสึคาชิ ทนต่อศัตรูได้ 3 ประเภท! ★ แตะแบนเนอร์เพื่อดูเลย!
[end]
