[start]
20180109	1100	20300101	1100	50700	999999	0	0	0	1	0	0	0	0	10000	0	0	0	0	0	0	0	0	0	
20170101	0	20300101	0	80200	999999	0	0	2	3	0	30	0	0	0	0	7500	0	2000	0	500	0	0	0		0	30	0	0	0	0	7500	0	2000	0	500	0	0	0		0	30	0	0	0	0	7500	0	2000	0	500	0	0	0	
20170101	0	20300101	0	80200	999999	0	0	3	3	0	75	0	0	0	0	7500	0	2000	0	500	0	0	0		0	75	0	0	0	0	7500	0	2000	0	500	0	0	0		0	75	0	0	0	0	7500	0	2000	0	500	0	0	0	
20210503	1100	20300101	0	120400	999999	0	0	0	3	-1	0	0	0	0	0	0	0	0	0	0	0	0	0		-1	0	0	0	0	0	0	0	0	0	0	0	0	0		62	0	0	0	0	0	7400	0	2100	0	500	0	0	0	【Limited】 Collect Li'l Cats only during this event!	0	0	5	fr	【Durée limitée】 P’tits Chats uniquement dans cet événement !	it	【Limitato】 Ottieni Mini Gatti solo in questo evento! 	de	(Begrenzt) Sammle nur während dieses Events kleine Katzen!	es	[Exclusivo] ¡Consigue Minigatos solo en este evento!	th	【จำกัด】 เก็บแมวเล็กเฉพาะในอีเวนต์นี้เท่านั้น!
20210416	1100	20300101	0	100400	999999	0	0	0	4	-1	0	0	0	0	0	0	0	0	0	0	0	0	0		-1	0	0	0	0	0	0	0	0	0	0	0	0	0		-1	0	0	0	0	0	0	0	0	0	0	0	0	0		63	0	300	0	0	0	5100	0	3500	0	1400	0	0	0	【Limited Event】 Special chance for XP and Catamins!	0	0	0	5	fr	【Durée limitée】 Chance spéciale d’obtenir XP et vichamines ! 	it	【Evento limitato】 Occasione speciale per XP e Vitamiao! 	de	(Begrenztes Event) Sonderchance auf XP und Katzamine! 	es	[Evento exclusivo] ¡Probabilidad de ganar XP y gataminas!	th	【อีเวนต์จำกัด】 โอกาสพิเศษที่จะได้รับ XP และวิตาเมี้ยว!
20220106	1100	20300101	1100	110100	999999	0	0	0	1	64	0	2300	0	10000	0	0	0	0	0	0	0	0	0		4	fr		it		de		es	
20240426	1100	20300101	000	130300	999999	0	0	1	4	-1	0	0	0	0	0	0	0	0	0	0	0	0	0		-1	0	0	0	0	0	0	0	0	0	0	0	0	0		-1	0	0	0	0	0	0	0	0	0	0	0	0	0		873	0	0	0	0	0	0	0	0	0	9500	0	500	0	Get a Guaranteed Uber or Legend Rare from the Legend Capsules!	0	0	0	5	fr	Un ultra rare ou un légendaire garanti dans les Chapsules légendaires !	it	Ottieni un'unità ultra rara o leggendaria garantita dalle Capsule leggendarie!	de	Garantiert eine mega- oder legendär seltene Katze aus legendären Kapseln!	es	¡Una unidad megarrara o legendaria garantizada en las bolas legendarias!	th	ได้อูเบอร์หรือแรร์ตำนานแบบรับประกันจากกาชาตำนาน!
20240426	1100	20300101	000	130300	999999	0	0	1	5	-1	0	0	0	0	0	0	0	0	0	0	0	0	0		-1	0	0	0	0	0	0	0	0	0	0	0	0	0		-1	0	0	0	0	0	0	0	0	0	0	0	0	0		-1	0	0	0	0	0	0	0	0	0	0	0	0	0		872	0	0	0	0	0	0	0	0	0	10000	0	0	0	Get an Uber Rare Cat!! 100% Uber drop Rate in the PLATINUM CAPSULES!	0	0	0	0	5	fr	Obtiens un ultra rare ! 100 % de chances avec les Chapsules platine !	it	Ottieni un gatto ultra raro! 100% possibilità di Ultra nelle CAPSULE PLATINO!	de	Hol dir eine megaseltene Katze!! 100-%-Chance in den PLATINKAPSELN!	es	¡Gana un gato megarraro! Garantizado en las BOLAS DE PLATINO.	th	รับแมวอูเบอร์แรร์ไปเลย!! อัตราดร็อปอูเบอร์ 100% ในกาชาแพลตินัม!
20240906	1100	20300101	000	130500	999999	0	0	1	4	-1	0	0	0	0	0	0	0	0	0	0	0	0	0		-1	0	0	0	0	0	0	0	0	0	0	0	0	0		-1	0	0	0	0	0	0	0	0	0	0	0	0	0		900	0	0	0	0	0	0	0	0	0	9500	0	500	0	Get a Guaranteed Uber or Legend Rare from the Legend Capsules!	0	0	0	5	fr	Un ultra rare ou un légendaire garanti dans les Chapsules légendaires !	it	Ottieni un'unità ultra rara o leggendaria garantita dalle Capsule leggendarie!	de	Garantiert eine mega- oder legendär seltene Katze aus legendären Kapseln!	es	¡Una unidad megarrara o legendaria garantizada en las bolas legendarias!	th	ได้อูเบอร์หรือแรร์ตำนานแบบรับประกันจากกาชาตำนาน!
20240906	1100	20300101	000	130500	999999	0	0	1	5	-1	0	0	0	0	0	0	0	0	0	0	0	0	0		-1	0	0	0	0	0	0	0	0	0	0	0	0	0		-1	0	0	0	0	0	0	0	0	0	0	0	0	0		-1	0	0	0	0	0	0	0	0	0	0	0	0	0		885	0	0	0	0	0	0	0	0	0	10000	0	0	0	Get an Uber Rare Cat!! 100% Uber drop Rate in the PLATINUM CAPSULES!	0	0	0	0	5	fr	Obtiens un ultra rare ! 100 % de chances avec les Chapsules platine !	it	Ottieni un gatto ultra raro! 100% possibilità di Ultra nelle CAPSULE PLATINO!	de	Hol dir eine megaseltene Katze!! 100-%-Chance in den PLATINKAPSELN!	es	¡Gana un gato megarraro! Garantizado en las BOLAS DE PLATINO.	th	รับแมวอูเบอร์แรร์ไปเลย!! อัตราดร็อปอูเบอร์ 100% ในกาชาแพลตินัม!
20240916	1100	20241029	000	130600	999999	0	0	4	1	30	0	0	0	1000	0	5000	0	3000	0	1000	1	0	0	[A Decade of Memories] Use Legend Passes until 10/28!	Pull from the Capsules	 times to earn a limited unit!	5	fr	[10 ans de souvenirs] Utilise les pass Légende jusqu'au 28/10 !	Unité à durée limitée à gagner	 dans les Chapsules !	it	[Dieci anni di ricordi] Usa pass leggendari fino al 28/10!	Sorteggia	 volte per ottenere un’unità limitata!	de	[Ein Jahrzehnt der Erinnerungen] Benutze Legendenpässe bis zum 28.10.!	Ziehe von den Kapseln,	 um eine limitierte Einheiten zu erhalten!	es	[Recordando Diez Años] Usa pases legendarios hasta el 28/10	Consigue una unidad exclusiva tirando	 veces.	th	[ทศวรรษแห่งค.ทรงจำ] ใช้บัตรผ่านตำนานกับกาชาอีเวนต์จำกัดได้ถึง 28/10!	สุ่มจากแคปซูล	 รับยูนิตจำกัด!
20240920	1100	20300101	000	130600	999999	0	0	1	4	-1	0	0	0	0	0	0	0	0	0	0	0	0	0		-1	0	0	0	0	0	0	0	0	0	0	0	0	0		-1	0	0	0	0	0	0	0	0	0	0	0	0	0		902	0	0	0	0	0	0	0	0	0	9500	0	500	0	Get a Guaranteed Uber or Legend Rare from the Legend Capsules!	0	0	0	5	fr	Un ultra rare ou un légendaire garanti dans les Chapsules légendaires !	it	Ottieni un'unità ultra rara o leggendaria garantita dalle Capsule leggendarie!	de	Garantiert eine mega- oder legendär seltene Katze aus legendären Kapseln!	es	¡Una unidad megarrara o legendaria garantizada en las bolas legendarias!	th	ได้อูเบอร์หรือแรร์ตำนานแบบรับประกันจากกาชาตำนาน!
20240920	1100	20300101	000	130600	999999	0	0	1	5	-1	0	0	0	0	0	0	0	0	0	0	0	0	0		-1	0	0	0	0	0	0	0	0	0	0	0	0	0		-1	0	0	0	0	0	0	0	0	0	0	0	0	0		-1	0	0	0	0	0	0	0	0	0	0	0	0	0		894	0	0	0	0	0	0	0	0	0	10000	0	0	0	Get an Uber Rare Cat!! 100% Uber drop Rate in the PLATINUM CAPSULES!	0	0	0	0	5	fr	Obtiens un ultra rare ! 100 % de chances avec les Chapsules platine !	it	Ottieni un gatto ultra raro! 100% possibilità di Ultra nelle CAPSULE PLATINO!	de	Hol dir eine megaseltene Katze!! 100-%-Chance in den PLATINKAPSELN!	es	¡Gana un gato megarraro! Garantizado en las BOLAS DE PLATINO.	th	รับแมวอูเบอร์แรร์ไปเลย!! อัตราดร็อปอูเบอร์ 100% ในกาชาแพลตินัม!
20240927	1100	20300101	0	130601	999999	0	0	1	4	-1	0	0	0	0	0	0	0	0	0	0	0	0	0		-1	0	0	0	0	0	0	0	0	0	0	0	0	0		-1	0	0	0	0	0	0	0	0	0	0	0	0	0		895	0	0	0	0	0	0	0	0	0	9500	0	500	0	Get a Guaranteed Uber or Legend Rare from the Legend Capsules!	0	0	0	5	fr	Un ultra rare ou un légendaire garanti dans les Chapsules légendaires !	it	Ottieni un'unità ultra rara o leggendaria garantita dalle Capsule leggendarie!	de	Garantiert eine mega- oder legendär seltene Katze aus legendären Kapseln!	es	¡Una unidad megarrara o legendaria garantizada en las bolas legendarias!	th	ได้อูเบอร์หรือแรร์ตำนานแบบรับประกันจากกาชาตำนาน!
20241007	1100	20241014	1100	130600	999999	0	0	0	2	-1	0	0	0	0	0	0	0	0	0	0	0	0	0		3	0	300	0	400	0	2000	0	7000	0	600	0	0	0	Limited Capsules ★ Collect Catfruit by drawing from this set!	0	5	fr	Chapsules ponctuelles ★ Obtiens des Chagrumes dans cet ensemble !	it	Capsule limitate ★ Ottieni miagrumi sorteggiando da questo set!	de	Limitierte Kapseln ★ Sammle Katzenfrüchte aus diesem Set!	es	Bolas exclusivas ★ ¡Consigue fruta felina en esta serie de bolas!	th	กาชาจำกัด ★ เก็บผลไม้เหมียวด้วยการสุ่มจากเซ็ตนี้!
20241008	1100	20241011	1100	130602	999999	0	0	1	1	853	150	0	0	0	0	6970	0	2500	0	500	0	30	0	10 Year Celebration: Ultra Selection! ★ Tap banner for info!	5	fr	Célébration des 10 ans : Ultra rares au choix ! ★ Touche pour plus d’infos !	it	Festeggiamo 10 anni: Selezione Ultra! ★ Tocca il banner!	de	10-Jahres-Feier: Mega-Auswahl! ★ Tippe auf das Banner!	es	Celebración de los 10 años: ¡Ultraselección! ★ ¡Toca para saber más!	th	งานฉลองครบรอบ 10 ปี: การเลือกอัลตร้า! ★ แตะแบนเนอร์เพื่อดูข้อมูลได้เลย!
20241009	1100	20241017	1100	130602	999999	0	0	1	2	-1	0	0	0	0	0	0	0	0	0	0	0	0	0		856	150	0	0	0	0	6800	0	2500	0	700	0	0	0	Units from Busters sets join forces! ★ Uber Rare drop rates UP!	0	5	fr	Les unités des ensembles Chasseurs s'allient ! ★ Chances d'ultra rares ↑ !	it	Le unità dei set Anti uniscono le forze! ★ PIÙ possibilità di ultra rare!	de	Einheiten aus Sprenger-Sets vereint! ★ HÖHERE Chance auf Megaseltene!	es	¡Los antilotes unen fuerzas! ★ ¡Aumenta la probabilidad de conseguir megarraros!	th	ยูนิตจากเซ็ตบัสเตอร์ร่วมทัพ! ★ อัตราดร็อปอูเบอร์แรร์เพิ่มขึ้น!
20241009	1100	20241011	1100	130602	999999	0	0	1	3	-1	0	0	0	0	0	0	0	0	0	0	0	0	0		-1	0	0	0	0	0	0	0	0	0	0	0	0	0		741	150	0	16384	0	0	6970	0	2500	0	500	0	30	0	Colossus Slayer Cat Tengu joins the fight! Tap banner for info!	0	0	5	fr	Chat Tengu, fléau des colosses, rejoint la bataille ! Touche pour plus d'infos !	it	L'ammazzagiganti Gatto Tengu Scende in campo! Tocca il banner!	de	Kolosstöter „Katzen-Tengu“ tritt dem Kampf bei! Tippe auf das Banner!	es	¡Gatengu matacolosos se une a la lucha! ¡Toca para saber más!	th	มือสังหารยักษ์ แมวเทงกุ มาร่วมต่อสู้ด้วย! แตะแบนเนอร์เพื่อดูข้อมูลได้เลย!
20241011	1100	20241014	1100	130602	999999	0	0	1	1	852	150	0	0	0	0	7000	0	2500	0	500	0	0	0	New Heroes appear to celebrate 10 Years! ★ Tap banner for info!	5	fr	De nouveaux héros arrivent pour fêter les 10 ans ! ★ Touche pour plus d’infos !	it	Arrivano dei nuovi eroi per festeggiare 10 anni! ★ Tocca il banner!	de	Neue Helden erscheinen, um 10 Jahre zu feiern! ★ Tippe auf das Banner!	es	Llegan nuevos héroes para celebrar los 10 años. ★ ¡Toca para saber más!	th	ฮีโร่ใหม่ปรากฏตัวขึ้นเพื่อฉลองครบรอบ 10 ปี! ★ แตะแบนเนอร์เพื่อดูข้อมูลได้เลย!
20241011	1100	20241014	1100	130602	999999	0	0	1	3	-1	0	0	0	0	0	0	0	0	0	0	0	0	0		-1	0	0	0	0	0	0	0	0	0	0	0	0	0		835	150	0	16384	0	0	6970	0	2500	0	500	0	30	0	New unit Tetsukachi resists 3 enemy types! ★ Tap banner for more info!	0	0	5	fr	La nouvelle unité Tetsukachi résiste à 3 types ! ★ Touche pour plus d'infos !	it	La nuova unità Tetsukachi resiste a 3 tipi di nemici! ★ Tocca il banner!	de	Neue Einheit Tetsukachi: Robust gegen 3 Feindtypen! ★ Tippe auf das Banner!	es	¡Tetsukachi es resistente a 3 tipos de enemigos! ★ ¡Toca para saber más!	th	ยูนิตใหม่ เทตสึคาชิ ทนต่อศัตรูได้ 3 ประเภท! ★ แตะแบนเนอร์เพื่อดูเลย!
20241014	1100	20241021	1100	130602	999999	0	0	0	2	-1	0	0	0	0	0	0	0	0	0	0	0	0	0		65	0	0	2	500	0	6900	0	2000	0	500	0	100	0	★ Limited Capsules ★ Pick up extra Catseyes in this special Capsule set!	0	5	fr	★ Chapsules à durée limitée ★ Plus d’œils-de-chat dans ces Chapsules spéciales !	it	★ Capsule limitate ★ Ottieni Occhio di gatto in questo speciale set capsule!	de	★ Limitierte Kapseln ★ Hol dir zusätzliche Katzenaugen durch dieses Kapselset!	es	★ Bolas exclusivas ★ ¡Consigue más gatojos en esta serie especial de bolas!	th	★กาชาจำกัด★ เก็บตาแมวเพิ่มในชุดกาชาพิเศษนี้!	0	0
20241014	1100	20241017	1100	130602	999999	0	0	1	1	854	150	0	4216	0	0	6970	0	2500	0	500	0	30	0	10 Year Celebration: Miracle Selection! ★ Tap banner for info!	5	fr	Célébration des 10 ans : Choix miraculeux ! ★ Touche pour plus d’infos !	it	Festeggiamo 10 anni: Selezione Miracolo! ★ Tocca il banner!	de	10-Jahres-Feier: Wunderauswahl! ★ Tippe auf das Banner!	es	Celebración de los 10 años: ¡Selección milagrosa! ★ ¡Toca para saber más!	th	งานฉลองครบรอบ 10 ปี: การเลือกปาฏิหาริย์! ★ แตะแบนเนอร์เพื่อดูข้อมูลได้เลย!	0
20241014	1100	20241017	1100	130602	999999	0	0	1	3	-1	0	0	0	0	0	0	0	0	0	0	0	0	0		-1	0	0	0	0	0	0	0	0	0	0	0	0	0		857	150	0	20600	0	0	6970	0	2500	0	500	0	30	0	NEW hero Ninja Girl Tomoe! Strong vs Traitless and Aku! ★ Tap banner for info!	0	0	5	fr	NOUV. : Tomoe kunoichi ! Assure contre sans carac./Akus ! ★ Touche la bannière !	it	NUOVO eroe Tomoe ragazza ninja! Efficace vs senza tratti e Aku! ★ Tocca banner!	de	NEUES Ninjamädchen Tomoe! Stark gg. Wertelose & Aku! ★ Tippe auf das Banner!	es	¡NUEVA Chica Ninja Tomoe, eficaz vs. sin rasgos y aku! ★ ¡Toca para saber más!	th	สาวน้อยนินจาใหม่ โทโมเอะ! เก่งกับไร้คุณสมบัติและอากุ! ★ แตะแบนเนอร์เพื่อดูเลย!	0	0	0
20241017	1100	20241021	1100	130602	999999	0	0	1	1	889	150	0	4216	0	0	7000	0	2500	0	500	0	0	0	New unit Trixi joins the 10th anniversary Capsules! ★Check banner for details!	5	fr	Trixi rejoint les Chapsules des 10 ans ! ★Plus d'infos sur la bannière !	it	Trixi arriva nelle capsule del 10° anniversario! ★ Dettagli nel banner!	de	Die neue Einheit Trixi schließt sich den Kapseln zum 10. Jubiläum an! ★Prüfe das Banner für Details!	es	¡Trixi se une a las bolas del 10.º aniversario! ★Toca para ver los detalles.	th	ยูนิตใหม่ ทริกซี เข้าร่วมกาชาฉลอง 10 ปี! ★ดูรายละเอียดได้ที่แบนเนอร์!	0
20241017	1100	20241019	1100	130602	999999	0	0	1	2	-1	0	0	0	0	0	0	0	0	0	0	0	0	0		891	150	0	20600	0	0	6970	0	2500	0	500	0	30	0	Conjure spirits with new hero Gunduros! Tap banner for info!	0	5	fr	Invoque des esprits avec le nouveau héros Gunduros ! Touche pour plus d’infos !	it	Evoca spiriti con il nuovo eroe Gunduros! Tocca il banner!	de	Beschwöre Geister mit dem neuem Helden Gunduros! Tippe auf das Banner!	es	¡Invoca espíritus con Gunduros, el nuevo héroe! ¡Toca para saber más!	th	เรียกวิญญาณด้วยฮีโร่ใหม่ กันดูรอส! แตะแบนเนอร์เพื่อดูข้อมูล!	0	0
20241019	1100	20241021	1100	130602	999999	0	0	1	2	-1	0	0	0	0	0	0	0	0	0	0	0	0	0		790	150	0	20600	0	0	6970	0	2500	0	500	0	30	0	Mighty new hero Issun Boshi joins the ancient heroes! ★ Tap banner for info!	0	5	fr	Le héros puissant Issun Boshi rejoint les anciens ! ★ Touche pour plus d’infos !	it	Il nuovo eroe Issun Boshi si unisce agli Eroi antichi! ★ Tocca il banner!	de	Der neue Held „Issun Boshi“ tritt den uralten bei! ★ Tippe auf das Banner!	es	¡El nuevo héroe «Issun Boshi» se une a héroes antiguos! ★ ¡Toca para saber más!	th	อิสซัน โบชิ ฮีโร่จอมพลังใหม่ ร่วมทัพฮีโร่โบราณแล้ว! ★ แตะแบนเนอร์ดูข้อมูลเลย!	0	0
20241021	1100	20241028	1100	130602	999999	0	0	0	2	-1	0	0	0	0	0	0	0	0	0	0	0	0	0		3	0	300	0	400	0	2000	0	7000	0	600	0	0	0	Limited Capsules ★ Collect Catfruit by drawing from this set!	0	5	fr	Chapsules ponctuelles ★ Obtiens des Chagrumes dans cet ensemble !	it	Capsule limitate ★ Ottieni miagrumi sorteggiando da questo set!	de	Limitierte Kapseln ★ Sammle Katzenfrüchte aus diesem Set!	es	Bolas exclusivas ★ ¡Consigue fruta felina en esta serie de bolas!	th	กาชาจำกัด ★ เก็บผลไม้เหมียวด้วยการสุ่มจากเซ็ตนี้!	0	0
20241021	1100	20241025	1100	130602	999999	0	0	1	1	855	150	0	4216	0	0	6970	0	2500	0	500	0	30	0	10 Year Celebration: Excellent Selection! ★ Tap banner for info!	5	fr	Célébration des 10 ans : excellent choix ! ★ Touche pour plus d’infos !	it	Festeggiamo 10 anni: Selezione eccellente! ★ Tocca il banner!	de	10-Jahres-Feier: Exzellente Auswahl! ★ Tippe auf das Banner!	es	Celebración de los 10 años: ¡Gran selección! ★ ¡Toca para saber más!	th	งานฉลองครบรอบ 10 ปี: การเลือกดีเลิศ! ★ แตะแบนเนอร์เพื่อดูข้อมูลได้เลย!	0
20241021	1100	20241023	1100	130602	999999	0	0	1	2	-1	0	0	0	0	0	0	0	0	0	0	0	0	0		882	150	0	20600	0	0	6970	0	2500	0	500	0	30	0	Conjure spirits with new hero Akechi Mitsuhide! Tap banner for info!	0	5	fr	Invoque des esprits avec le nouveau héros Akechi Mitsuhide ! Touche pour info !	it	Evoca spiriti con il nuovo eroe Akechi Mitsuhide! Tocca il banner!	de	Beschwöre Geister mit dem neuem Helden Akechi Mitsuhide! Tippe auf das Banner!	es	¡Invoca espíritus con Akechi Mitsuhide, el nuevo héroe! ¡Toca para saber más!	th	เรียกวิญญาณด้วยฮีโร่ใหม่ อะเคชิ มิตซุฮิเดะ! แตะแบนเนอร์เพื่อดูข้อมูล!	0	0
20241023	1100	20241025	1100	130602	999999	0	0	1	2	-1	0	0	0	0	0	0	0	0	0	0	0	0	0		843	150	0	20600	0	0	6970	0	2500	0	500	0	30	0	Take down Colossi with new unit Lightmother Aset’s Wave attacks! ★ Tap for info!	0	5	fr	Abats les colosses avec les vagues off. d'Aset Mère-Lumière ★ Touche pour infos	it	Elimina giganti con att. a ondata dell'unità Madreluce Aset! ★ Tocca per info!	de	Vernichte kolossale Ziele mit Lichtmutter Aset! ★ Tippe für mehr Info!	es	¡Vence a Colossi con la oleada de Madre de la Luz! ★ ¡Toca para saber más!	th	ปราบยักษ์ด้วยการโจมตีคลื่นของยูนิตใหม่ไลท์มาเธอร์อะเซ็ต! ★ แตะเพื่อดูข้อมูลเลย!	0	0
20241025	1100	20241028	1100	130602	999999	0	0	1	1	893	150	0	4216	0	0	6470	0	2600	0	900	0	30	0	Limited Legend Rare unit Izanami of Dusk! ★Uber Rare drop rate UP for Epicfest!	5	fr	Izanami du couchant légendaire ! ★Taux d'obt. d'ultra rares ↑ pour Méga-fête !	it	Nuova unità rara: Izanami del crepuscolo! ★ Più ultra rare nel Festival Epico!	de	Limitierte legendär seltene Einheit Izanami der Dämmerung! ★Höhere Chance auf Megaseltene für das Epische Fest!	es	¡Inazami del Anochecer, unidad megarrara! ★¡Más probabilidad en el hiperfesti!	th	ยูนิตแรร์ตำนานจำกัด อิซานามิสนธยา! ★เพิ่มอัตราดร็อปอูเบอร์แรร์ในเอปิกเฟสต์!	0
20241025	1100	20241028	1100	130602	999999	0	0	1	2	-1	0	0	0	0	0	0	0	0	0	0	0	0	0		824	150	0	20600	0	0	6970	0	2500	0	500	0	30	0	Tough defense vs 3 enemy types: Mighty Sphinx Korps! ★ Tap banner for more info!	0	5	fr	Balèze contre 3 types : Puissant corps sphinx ! ★ Touche pour plus d’infos !	it	Forte difesa vs 3 tipi di nemici: Costruttori egizi possenti! ★ Tocca il banner!	de	Robust gegen 3 Feindtypen: Mächtiges Sphinxkorps! ★ Tippe auf das Banner!	es	Def. dura con 3 tipos enemigos: ¡Cuerpo Esfinge Brutal! ★ ¡Toca para saber más!	th	ป้องกันสุดแกร่งต่อศัตรู 3 ประเภท: คอร์ปสฟิงซ์จอมพลัง! ★ แตะแบนเนอร์เพื่อดูเลย!	0	0
[end]
