[start]
20180109	1100	20300101	1100	50700	999999	0	0	0	1	0	0	0	0	10000	0	0	0	0	0	0	0	0	0	
20170101	0	20300101	0	80200	999999	0	0	2	3	0	30	0	0	0	0	7500	0	2000	0	500	0	0	0		0	30	0	0	0	0	7500	0	2000	0	500	0	0	0		0	30	0	0	0	0	7500	0	2000	0	500	0	0	0	
20170101	0	20300101	0	80200	999999	0	0	3	3	0	75	0	0	0	0	7500	0	2000	0	500	0	0	0		0	75	0	0	0	0	7500	0	2000	0	500	0	0	0		0	75	0	0	0	0	7500	0	2000	0	500	0	0	0	
20201009	1100	20300101	1100	90900	999999	0	0	1	4	-1	0	0	0	0	0	0	0	0	0	0	0	0	0		-1	0	0	0	0	0	0	0	0	0	0	0	0	0		-1	0	0	0	0	0	0	0	0	0	0	0	0	0		525	0	0	0	0	0	0	0	0	0	10000	0	0	0	울트라 슈퍼 레어 캐릭터를 반드시 뽑을 수 있는 ★플래티넘 뽑기★
20201113	1100	20300101	1100	91000	999999	0	0	1	4	-1	0	0	0	0	0	0	0	0	0	0	0	0	0		-1	0	0	0	0	0	0	0	0	0	0	0	0	0		-1	0	0	0	0	0	0	0	0	0	0	0	0	0		543	0	0	0	0	0	0	0	0	0	10000	0	0	0	울트라 슈퍼 레어 캐릭터 100% 획득 가능! ★플래티넘 뽑기★
20210212	000	20300101	1100	100200	999999	0	0	1	4	-1	0	0	0	0	0	0	0	0	0	0	0	0	0		-1	0	0	0	0	0	0	0	0	0	0	0	0	0		-1	0	0	0	0	0	0	0	0	0	0	0	0	0		556	0	0	0	0	0	0	0	0	0	10000	0	0	0	울트라 슈퍼 레어 캐릭터 100% 획득 가능! ★플래티넘 뽑기★
20210316	1100	20210402	0	100300	999999	0	0	0	4	-1	0	0	0	0	0	0	0	0	0	0	0	0	0		-1	0	0	0	0	0	0	0	0	0	0	0	0	0		-1	0	0	0	0	0	0	0	0	0	0	0	0	0		60	0	300	0	0	0	5100	0	3500	0	1400	0	0	0	【기간한정】고양이 드링크와 XP를 GET할 수 있는 특별 뽑기!★ 4월 1일까지!
20210315	1100	20210329	1100	100300	999999	0	0	1	2	-1	0	0	0	0	0	0	0	0	0	0	0	0	0		584	150	0	0	0	0	7000	0	2500	0	500	0	0	0	콜라보 한정 캐릭터 총 12개 참전! '하츠네 미쿠' 올해 마지막 뽑기!★자세한 내용은 배너를 탭!
20210324	1100	20210326	1100	100300	999999	0	0	1	3	-1	0	0	0	0	0	0	0	0	0	0	0	0	0		-1	0	0	0	0	0	0	0	0	0	0	0	0	0		538	150	0	0	0	0	6970	0	2500	0	500	0	30	0	신 캐릭터 '돌의 정령 롤링스톤' 참전! 개성적이고 유쾌한 정령들!★자세한 내용은 배너를 클릭!
20210326	1100	20210329	1100	100300	999999	0	0	1	2	-1	0	0	0	0	0	0	0	0	0	0	0	0	0		584	150	0	0	0	0	7000	0	2500	0	500	1	0	0	콜라보 한정 캐릭터 총 12개 참전! '하츠네 미쿠' 올해 마지막 뽑기!★자세한 내용은 배너를 탭!
20210326	1100	20210329	1100	100300	999999	0	0	1	3	-1	0	0	0	0	0	0	0	0	0	0	0	0	0		-1	0	0	0	0	0	0	0	0	0	0	0	0	0		487	150	0	0	0	0	6970	0	2500	0	500	1	30	0	정의와 어둠의 힘을 둘 다 갖춘 냥코 군단의 구세주들!★자세한 내용은 배너를 탭!
20210329	1100	20210412	1100	100300	999999	0	0	1	2	-1	0	0	0	0	0	0	0	0	0	0	0	0	0		580	150	0	0	0	0	7000	0	2500	0	500	0	0	0	신 등장! '춘룡 카무쿠라' 봄 한정 캐릭터를 획득하자냥!★자세한 내용은 배너를 클릭!
20210329	1100	20210331	1100	100300	999999	0	0	1	3	-1	0	0	0	0	0	0	0	0	0	0	0	0	0		-1	0	0	0	0	0	0	0	0	0	0	0	0	0		506	150	0	0	0	0	6970	0	2500	0	500	0	30	0	이세계에서 소환된 유쾌한 미소녀들! 시크릿 미소녀 참전!★자세한 내용은 배너를 클릭!
20210331	1100	20210402	1100	100300	999999	0	0	1	3	-1	0	0	0	0	0	0	0	0	0	0	0	0	0		-1	0	0	0	0	0	0	0	0	0	0	0	0	0		475	150	0	0	0	0	6970	0	2500	0	500	0	30	0	냥코 월드 최대급 진화! 초고대 전설의 용사들!★자세한 내용은 배너를 클릭!
20210402	1100	20210405	1100	100300	999999	0	0	1	1	555	150	0	0	0	0	6500	0	2600	0	900	0	0	0	신 캐릭터 '요수 가루' 참전!★울슈레 출현율 초 UP! 울트라 고양이 축제 개최 중!
20210405	1100	20210407	1100	100300	999999	0	0	1	3	-1	0	0	0	0	0	0	0	0	0	0	0	0	0		-1	0	0	0	0	0	0	0	0	0	0	0	0	0		445	150	0	0	0	0	6970	0	2500	0	500	0	30	0	★냥코 군단의 초비밀 병기! 시크릿 참전!?★자세한 내용은 배너를 클릭!!★
20210407	1100	20210409	1100	100300	999999	0	0	1	3	-1	0	0	0	0	0	0	0	0	0	0	0	0	0		-1	0	0	0	0	0	0	0	0	0	0	0	0	0		430	150	0	0	0	0	6970	0	2500	0	500	0	30	0	♡파워풀&큐트한 소녀들♡자세한 내용은 배너를 클릭♡
20210409	1100	20210412	1100	100300	999999	0	0	1	2	-1	0	0	0	0	0	0	0	0	0	0	0	0	0		580	150	0	0	0	0	7000	0	2500	0	500	1	0	0	신 등장! '춘룡 카무쿠라' 봄 한정 캐릭터를 획득하자냥!★11연속 뽑기 울슈레 확정!
20210409	1100	20210412	1100	100300	999999	0	0	1	3	-1	0	0	0	0	0	0	0	0	0	0	0	0	0		-1	0	0	0	0	0	0	0	0	0	0	0	0	0		427	150	0	0	0	0	6970	0	2500	0	500	1	30	0	★검은 적에 강한 멋진 환수들! 자세한 내용은 배너를 클릭!★
20210503	1100	20300101	0	100400	999999	0	0	0	3	-1	0	0	0	0	0	0	0	0	0	0	0	0	0		-1	0	0	0	0	0	0	0	0	0	0	0	0	0		62	0	0	0	0	0	7400	0	2100	0	500	0	0	0	【기간한정】 꼬맹이 고양이들을 손에 넣을 수 있는 특별 이벤트 뽑기 등장!
20210416	1100	20300101	0	100400	999999	0	0	0	4	-1	0	0	0	0	0	0	0	0	0	0	0	0	0		-1	0	0	0	0	0	0	0	0	0	0	0	0	0		-1	0	0	0	0	0	0	0	0	0	0	0	0	0		63	0	300	0	0	0	5100	0	3500	0	1400	0	0	0	【기간한정】 고양이 드링크와 XP를 GET할 수 있는 특별 뽑기!
[end]
