[start]
20180109	1100	20300101	1100	50700	999999	0	0	0	1	0	0	0	0	10000	0	0	0	0	0	0	0	0	0	
20170101	0	20300101	0	80200	999999	0	0	2	3	0	30	0	0	0	0	7500	0	2000	0	500	0	0	0		0	30	0	0	0	0	7500	0	2000	0	500	0	0	0		0	30	0	0	0	0	7500	0	2000	0	500	0	0	0	
20170101	0	20300101	0	80200	999999	0	0	3	3	0	75	0	0	0	0	7500	0	2000	0	500	0	0	0		0	75	0	0	0	0	7500	0	2000	0	500	0	0	0		0	75	0	0	0	0	7500	0	2000	0	500	0	0	0	
20210503	1100	20300101	0	100400	999999	0	0	0	3	-1	0	0	0	0	0	0	0	0	0	0	0	0	0		-1	0	0	0	0	0	0	0	0	0	0	0	0	0		62	0	0	0	0	0	7400	0	2100	0	500	0	0	0	【기간한정】 꼬맹이 고양이들을 손에 넣을 수 있는 특별 이벤트 뽑기 등장!
20210416	1100	20300101	0	100400	999999	0	0	0	4	-1	0	0	0	0	0	0	0	0	0	0	0	0	0		-1	0	0	0	0	0	0	0	0	0	0	0	0	0		-1	0	0	0	0	0	0	0	0	0	0	0	0	0		63	0	300	0	0	0	5100	0	3500	0	1400	0	0	0	【기간한정】 고양이 드링크와 XP를 GET할 수 있는 특별 뽑기!
20220106	1100	20300101	1100	110100	999999	0	0	0	1	64	0	2300	0	10000	0	0	0	0	0	0	0	0	0	
20240426	1100	20300101	0	130300	999999	0	0	1	4	-1	0	0	0	0	0	0	0	0	0	0	0	0	0		-1	0	0	0	0	0	0	0	0	0	0	0	0	0		-1	0	0	0	0	0	0	0	0	0	0	0	0	0		873	0	0	0	0	0	0	0	0	0	9500	0	500	0	★확률, 상세 내용은 배너를 클릭!★울슈레 이상 캐릭터 반드시 1개 확정 획득 가능!★레전드 뽑기★	0	0	0	0
20240426	1100	20300101	0	130300	999999	0	0	1	5	-1	0	0	0	0	0	0	0	0	0	0	0	0	0		-1	0	0	0	0	0	0	0	0	0	0	0	0	0		-1	0	0	0	0	0	0	0	0	0	0	0	0	0		-1	0	0	0	0	0	0	0	0	0	0	0	0	0		872	0	0	0	0	0	0	0	0	0	10000	0	0	0	★확률, 상세 내용은 배너를 클릭!★울트라 슈퍼 레어 캐릭터 100% 획득 가능!★플래티넘 뽑기★	0	0	0	0	0
20240712	1100	20300101	000	130401	999999	0	0	1	4	-1	0	0	0	0	0	0	0	0	0	0	0	0	0		-1	0	0	0	0	0	0	0	0	0	0	0	0	0		-1	0	0	0	0	0	0	0	0	0	0	0	0	0		878	0	0	0	0	0	0	0	0	0	9500	0	500	0	★확률, 상세 내용은 배너를 클릭!★울슈레 이상 캐릭터 반드시 1개 확정 획득 가능!★레전드 뽑기★
20240906	1100	20300101	000	130500	999999	0	0	1	4	-1	0	0	0	0	0	0	0	0	0	0	0	0	0		-1	0	0	0	0	0	0	0	0	0	0	0	0	0		-1	0	0	0	0	0	0	0	0	0	0	0	0	0		886	0	0	0	0	0	0	0	0	0	9500	0	500	0	★확률, 상세 내용은 배너를 클릭!★울슈레 이상 캐릭터 반드시 1개 확정 획득 가능!★레전드 뽑기★
20240906	1100	20300101	000	130500	999999	0	0	1	5	-1	0	0	0	0	0	0	0	0	0	0	0	0	0		-1	0	0	0	0	0	0	0	0	0	0	0	0	0		-1	0	0	0	0	0	0	0	0	0	0	0	0	0		-1	0	0	0	0	0	0	0	0	0	0	0	0	0		885	0	0	0	0	0	0	0	0	0	10000	0	0	0	★확률, 상세 내용은 배너를 클릭!★울트라 슈퍼 레어 캐릭터 100% 획득 가능!★플래티넘 뽑기★
20240920	1100	20300101	000	130600	999999	0	0	1	4	-1	0	0	0	0	0	0	0	0	0	0	0	0	0		-1	0	0	0	0	0	0	0	0	0	0	0	0	0		-1	0	0	0	0	0	0	0	0	0	0	0	0	0		895	0	0	0	0	0	0	0	0	0	9500	0	500	0	★확률, 상세 내용은 배너를 클릭!★울슈레 이상 캐릭터 반드시 1개 확정 획득 가능!★레전드 뽑기★
20240920	1100	20300101	000	130600	999999	0	0	1	5	-1	0	0	0	0	0	0	0	0	0	0	0	0	0		-1	0	0	0	0	0	0	0	0	0	0	0	0	0		-1	0	0	0	0	0	0	0	0	0	0	0	0	0		-1	0	0	0	0	0	0	0	0	0	0	0	0	0		894	0	0	0	0	0	0	0	0	0	10000	0	0	0	★확률, 상세 내용은 배너를 클릭!★울트라 슈퍼 레어 캐릭터 100% 획득 가능!★플래티넘 뽑기★
20241028	1100	20241116	000	130700	999999	0	0	4	1	34	0	0	0	2000	0	5000	0	3000	0	0	0	0	0	【기간 한정】 전설의 혼으로 돌릴 수 있는 특별 아이템 포함 한정 뽑기! ★11월 15일까지			0	600
20241028	1100	20241115	1100	130700	999999	0	0	1	2	-1	0	0	0	0	0	0	0	0	0	0	0	0	0		926	150	0	16384	0	0	7000	0	2500	0	500	0	0	0	★확률, 상세 내용은 배너를 클릭!★할로윈 한정 의상 캐릭터를 획득하자냥!	0	0	0	0
20241104	1100	20241118	1100	130700	999999	0	0	1	2	-1	0	0	0	0	0	0	0	0	0	0	0	0	0		927	150	0	20600	0	0	7000	0	2500	0	500	0	0	0	★확률, 상세 내용은 배너를 클릭!★새로운 한정 캐릭터! 메탈 슬러그 시리즈의 인기 캐릭터 총집합!	0	0	0	0
20241104	1100	20241115	1100	130700	999999	0	0	1	3	-1	0	0	0	0	0	0	0	0	0	0	0	0	0		-1	0	0	0	0	0	0	0	0	0	0	0	0	0		926	150	0	20600	0	0	7000	0	2500	0	500	0	0	0	★확률, 상세 내용은 배너를 클릭!★할로윈 한정 의상 캐릭터를 획득하자냥!	0	0	0	0	0	0
20241112	1100	20241118	1100	130700	999999	0	0	1	2	-1	0	0	0	0	0	0	0	0	0	0	0	0	0		927	150	0	4216	0	0	7000	0	2500	0	500	1	0	0	★확률, 상세 내용은 배너를 클릭!★새로운 한정 캐릭터! 메탈 슬러그 시리즈의 인기 캐릭터 총집합!	0	0	0	0
20241112	1100	20241115	1100	130700	999999	0	0	1	3	-1	0	0	0	0	0	0	0	0	0	0	0	0	0		-1	0	0	0	0	0	0	0	0	0	0	0	0	0		926	150	0	4216	0	0	7000	0	2500	0	500	1	0	0	★확률, 상세 내용은 배너를 클릭!★할로윈 한정 의상 캐릭터를 획득하자냥!	0	0	0	0	0	0
20241115	1100	20241118	1100	130700	999999	0	0	1	1	908	150	0	4216	0	0	6970	0	2500	0	500	1	30	0	★확률, 상세 내용은 배너를 클릭!★ 소환 능력을 가진 캐릭터 '고양이 다이너사우루스' 참전!	0	0
20241115	1100	20300101	000	130700	999999	0	0	1	5	-1	0	0	0	0	0	0	0	0	0	0	0	0	0		-1	0	0	0	0	0	0	0	0	0	0	0	0	0		-1	0	0	0	0	0	0	0	0	0	0	0	0	0		-1	0	0	0	0	0	0	0	0	0	0	0	0	0		911	0	0	0	0	0	0	0	0	0	10000	0	0	0	★확률, 상세 내용은 배너를 클릭!★울트라 슈퍼 레어 캐릭터 100% 획득 가능!★플래티넘 뽑기★	0	0	0	0	0	0	0	0	0	0
20241115	1100	20300101	000	130700	999999	0	0	1	4	-1	0	0	0	0	0	0	0	0	0	0	0	0	0		-1	0	0	0	0	0	0	0	0	0	0	0	0	0		-1	0	0	0	0	0	0	0	0	0	0	0	0	0		912	0	0	0	0	0	0	0	0	0	9500	0	500	0	★확률, 상세 내용은 배너를 클릭!★울슈레 이상 캐릭터 반드시 1개 확정 획득 가능!★레전드 뽑기★	0	0	0	0	0	0	0	0
20241118	1100	20241120	1100	130700	999999	0	0	1	2	-1	0	0	0	0	0	0	0	0	0	0	0	0	0		812	150	0	16384	0	0	6970	0	2500	0	500	0	30	0	★확률, 상세 내용은 배너를 클릭!★'카오루가' 참전! 수수께끼에 싸인 생명체!	0	0	0	0
20241118	1100	20241120	1100	130700	999999	0	0	1	3	-1	0	0	0	0	0	0	0	0	0	0	0	0	0		-1	0	0	0	0	0	0	0	0	0	0	0	0	0		836	150	0	16384	0	0	6970	0	2500	0	500	0	30	0	★확률, 상세 내용은 배너를 클릭!★진화 시 3속성에 맷집이 좋은 캐릭터 '철의 정령 메탈릭' 참전!	0	0	0	0	0	0
20241120	1100	20241122	1100	130700	999999	0	0	1	2	-1	0	0	0	0	0	0	0	0	0	0	0	0	0		858	150	0	16384	0	0	6970	0	2500	0	500	0	30	0	★확률, 상세 내용은 배너를 클릭!★속성을 가지지 않는 적과 악마에 강한 캐릭터 '닌자아가씨 토모에' 참전!	0	0	0	0
20241120	1100	20241122	1100	130700	999999	0	0	1	3	-1	0	0	0	0	0	0	0	0	0	0	0	0	0		-1	0	0	0	0	0	0	0	0	0	0	0	0	0		890	150	0	16384	0	0	6970	0	2500	0	500	0	30	0	★확률, 상세 내용은 배너를 클릭!★소환 능력을 가진 캐릭터 '포룡 건듀로스' 참전!	0	0	0	0	0	0
20241122	1100	20241125	1100	130700	999999	0	0	1	1	910	150	0	0	0	0	6470	0	2600	0	900	0	30	0	★확률, 상세 내용은 배너를 클릭!★한정 레전드 레어 '해질녘의 이자나미' 참전!★울슈레 출현율 초 UP!	0	0
20241122	1100	20241125	1100	130700	999999	0	0	1	2	-1	0	0	0	0	0	0	0	0	0	0	0	0	0		789	150	0	16384	0	0	6970	0	2500	0	500	0	30	0	★확률, 상세 내용은 배너를 클릭!★'엄지 동자' 참전! 초강력한 고대의 용사들!	0	0	0	0
20241125	1100	20241202	1100	130700	999999	0	0	1	1	923	150	0	0	0	0	6770	0	2500	0	700	0	30	0	★확률, 상세 내용은 배너를 클릭!★계절 한정 캐릭터 총집합! 울슈레 출현율 대폭 UP! 울트라 국왕 축제!	0	0
20241125	1100	20241127	1100	130700	999999	0	0	1	2	-1	0	0	0	0	0	0	0	0	0	0	0	0	0		881	150	0	16384	0	0	6970	0	2500	0	500	0	30	0	★확률, 상세 내용은 배너를 클릭!★소환 능력을 가진 캐릭터 '알리칸토' 참전!	0	0	0	0
20241125	1100	20241127	1100	130700	999999	0	0	1	3	-1	0	0	0	0	0	0	0	0	0	0	0	0	0		-1	0	0	0	0	0	0	0	0	0	0	0	0	0		842	150	0	16384	0	0	6970	0	2500	0	500	0	30	0	★확률, 상세 내용은 배너를 클릭!★공격 속도가 빠르고 파동을 내는 캐릭터 '광익신 이시스' 참전!	0	0	0	0	0	0
20241127	1100	20241129	1100	130700	999999	0	0	1	2	-1	0	0	0	0	0	0	0	0	0	0	0	0	0		823	150	0	16384	0	0	6970	0	2500	0	500	0	30	0	★확률, 상세 내용은 배너를 클릭!★3속성에 맷집이 좋은 캐릭터 '건설병단 스핑크스' 참전!	0	0	0	0
20241127	1100	20241129	1100	130700	999999	0	0	1	3	-1	0	0	0	0	0	0	0	0	0	0	0	0	0		-1	0	0	0	0	0	0	0	0	0	0	0	0	0		798	150	0	16384	0	0	6970	0	2500	0	500	0	30	0	★확률, 상세 내용은 배너를 클릭!★'썬더 잭' 참전! 정의와 어둠의 힘을 겸비한 구세주들!	0	0	0	0	0	0
20241129	1100	20241202	1100	130700	999999	0	0	1	1	909	150	0	0	0	0	6470	0	2600	0	900	0	30	0	★확률, 상세 내용은 배너를 클릭!★울슈레 출현율 초 UP! 울트라 고양이 축제 개최 중!	0	0
20241129	1100	20241202	1100	130700	999999	0	0	1	2	-1	0	0	0	0	0	0	0	0	0	0	0	0	0		923	150	0	0	0	0	6770	0	2500	0	700	0	30	0	★확률, 상세 내용은 배너를 클릭!★계절 한정 캐릭터 총집합! 울슈레 출현율 대폭 UP! 울트라 국왕 축제!	0	0	0	0
20241129	1100	20241202	1100	130700	999999	0	0	1	3	-1	0	0	0	0	0	0	0	0	0	0	0	0	0		-1	0	0	0	0	0	0	0	0	0	0	0	0	0		868	150	0	16384	0	0	6970	0	2500	0	500	0	30	0	★확률, 상세 내용은 배너를 클릭!★소환 능력을 가진 캐릭터 '페가사' 참전!	0	0	0	0	0	0
[end]
