[start]
20180109	1100	20300101	1100	50700	999999	0	0	0	1	0	0	0	0	10000	0	0	0	0	0	0	0	0	0	
20170101	0	20300101	0	80200	999999	0	0	2	3	0	30	0	0	0	0	7500	0	2000	0	500	0	0	0		0	30	0	0	0	0	7500	0	2000	0	500	0	0	0		0	30	0	0	0	0	7500	0	2000	0	500	0	0	0	
20170101	0	20300101	0	80200	999999	0	0	3	3	0	75	0	0	0	0	7500	0	2000	0	500	0	0	0		0	75	0	0	0	0	7500	0	2000	0	500	0	0	0		0	75	0	0	0	0	7500	0	2000	0	500	0	0	0	
20210503	1100	20300101	0	100400	999999	0	0	0	3	-1	0	0	0	0	0	0	0	0	0	0	0	0	0		-1	0	0	0	0	0	0	0	0	0	0	0	0	0		62	0	0	0	0	0	7400	0	2100	0	500	0	0	0	【기간한정】 꼬맹이 고양이들을 손에 넣을 수 있는 특별 이벤트 뽑기 등장!
20210416	1100	20300101	0	100400	999999	0	0	0	4	-1	0	0	0	0	0	0	0	0	0	0	0	0	0		-1	0	0	0	0	0	0	0	0	0	0	0	0	0		-1	0	0	0	0	0	0	0	0	0	0	0	0	0		63	0	300	0	0	0	5100	0	3500	0	1400	0	0	0	【기간한정】 고양이 드링크와 XP를 GET할 수 있는 특별 뽑기!
20220106	1100	20300101	1100	110100	999999	0	0	0	1	64	0	2300	0	10000	0	0	0	0	0	0	0	0	0	
20240426	1100	20300101	0	130300	999999	0	0	1	4	-1	0	0	0	0	0	0	0	0	0	0	0	0	0		-1	0	0	0	0	0	0	0	0	0	0	0	0	0		-1	0	0	0	0	0	0	0	0	0	0	0	0	0		873	0	0	0	0	0	0	0	0	0	9500	0	500	0	★확률, 상세 내용은 배너를 클릭!★울슈레 이상 캐릭터 반드시 1개 확정 획득 가능!★레전드 뽑기★	0	0	0	0
20240426	1100	20300101	0	130300	999999	0	0	1	5	-1	0	0	0	0	0	0	0	0	0	0	0	0	0		-1	0	0	0	0	0	0	0	0	0	0	0	0	0		-1	0	0	0	0	0	0	0	0	0	0	0	0	0		-1	0	0	0	0	0	0	0	0	0	0	0	0	0		872	0	0	0	0	0	0	0	0	0	10000	0	0	0	★확률, 상세 내용은 배너를 클릭!★울트라 슈퍼 레어 캐릭터 100% 획득 가능!★플래티넘 뽑기★	0	0	0	0	0
20240617	1100	20240730	0	130400	999999	0	0	4	1	30	0	0	0	1000	0	5000	0	3000	0	1000	1	0	0	【10주년 메모리얼】 전설의 프리패스로 돌릴 수 있는 한정 뽑기! ★7월 29일까지	이 뽑기를 	번 더 돌리면 한정 캐릭터가 반드시 출현!	0
20240712	1100	20300101	000	130401	999999	0	0	1	4	-1	0	0	0	0	0	0	0	0	0	0	0	0	0		-1	0	0	0	0	0	0	0	0	0	0	0	0	0		-1	0	0	0	0	0	0	0	0	0	0	0	0	0		878	0	0	0	0	0	0	0	0	0	9500	0	500	0	★확률, 상세 내용은 배너를 클릭!★울슈레 이상 캐릭터 반드시 1개 확정 획득 가능!★레전드 뽑기★
20240715	1100	20240805	1100	130401	999999	0	0	1	2	-1	0	0	0	0	0	0	0	0	0	0	0	0	0		887	150	0	16384	0	0	7000	0	2500	0	500	0	0	0	★확률, 상세 내용은 배너를 클릭!★신 캐릭터 추가! 준 브라이드 기간 한정 행복한 뽑기!
20240715	1100	20240806	000	130401	999999	0	0	4	2	-1	0	0	0	0	0	0	0	0	0	0	0	0	0				29	0	0	0	800	0	5000	0	3000	0	1000	1	200	0	【악마의 준 브라이드】 전설의 성수로 돌릴 수 있는 한정 뽑기! ★8월 5일까지	이 뽑기를 	번 더 돌리면 한정 캐릭터가 반드시 출현! !
20240722	1100	20240729	1100	130500	999999	0	0	0	2	-1	0	0	0	0	0	0	0	0	0	0	0	0	0		3	0	300	0	400	0	2000	0	7000	0	600	0	0	0	☆기간 한정★개다래를 획득할 수 있는 특별 뽑기!☆
20240722	1100	20240726	1100	130500	999999	0	0	1	1	855	150	0	0	0	0	6970	0	2500	0	500	0	30	0	★확률, 상세 내용은 배너를 클릭!★10주년 기념! 감사의 마음을 담은 특별 셀렉션 뽑기!
20240726	1100	20240729	1100	130500	999999	0	0	1	1	889	150	0	0	0	0	7000	0	2500	0	500	0	0	0	★확률, 상세 내용은 배너를 클릭!★'정체불명 용병 트릭시'가 새롭게 참전! 10주년 기념 특별 뽑기!
20240729	1100	20240731	1100	130500	999999	0	0	1	3	-1	0	0	0	0	0	0	0	0	0	0	0	0	0		-1	0	0	0	0	0	0	0	0	0	0	0	0	0		798	150	0	0	0	0	6970	0	2500	0	500	1	30	0	★확률, 상세 내용은 배너를 클릭!★'썬더 잭' 참전! 정의와 어둠의 힘을 겸비한 구세주들 등장!
20240729	1100	20240805	1100	130500	999999	0	0	1	2	-1	0	0	0	0	0	0	0	0	0	0	0	0	0		887	150	0	0	0	0	7000	0	2500	0	500	1	0	0	★확률, 상세 내용은 배너를 클릭!★신 캐릭터 추가! 준 브라이드 기간 한정 행복한 뽑기!
20240731	1100	20240802	1100	130500	999999	0	0	1	3	-1	0	0	0	0	0	0	0	0	0	0	0	0	0		-1	0	0	0	0	0	0	0	0	0	0	0	0	0		732	150	0	0	0	0	6970	0	2500	0	500	1	30	0	★확률, 상세 내용은 배너를 클릭!★초생명체 특효를 가진 캐릭터 '해룡 다라이어던' 참전!
20240802	1100	20240805	1100	130500	999999	0	0	1	1	870	150	0	0	0	0	6470	0	2600	0	900	0	30	0	★확률, 상세 내용은 배너를 클릭!★울슈레 출현율 초 UP! 울트라 고양이 축제 개최 중!
20240802	1100	20240805	1100	130500	999999	0	0	1	3	-1	0	0	0	0	0	0	0	0	0	0	0	0	0		-1	0	0	0	0	0	0	0	0	0	0	0	0	0		868	150	0	16384	0	0	6970	0	2500	0	500	0	30	0	★확률, 상세 내용은 배너를 클릭!★소환 능력을 가진 캐릭터 '페가사' 참전!
20240802	1100	20240805	1100	130500	999999	0	0	1	2	-1	0	0	0	0	0	0	0	0	0	0	0	0	0		887	150	0	16384	0	0	7000	0	2500	0	500	0	0	0	★확률, 상세 내용은 배너를 클릭!★신 캐릭터 추가! 준 브라이드 기간 한정 행복한 뽑기!
[end]
