[start]
20180109	1100	20300101	1100	50700	999999	0	0	0	1	0	0	0	0	10000	0	0	0	0	0	0	0	0	0	
20160101	0	20300101	0	50700	999999	0	0	1	1	0	150	0	0	0	0	7500	0	2000	0	500	0	0	0	只有從這個轉蛋才能拿到的限定角色等著你喔！
20170101	0	20300101	0	80200	999999	0	0	2	3	0	30	0	0	0	0	7500	0	2000	0	500	0	0	0		0	30	0	0	0	0	7500	0	2000	0	500	0	0	0		0	30	0	0	0	0	7500	0	2000	0	500	0	0	0	
20170101	0	20300101	0	80200	999999	0	0	3	3	0	75	0	0	0	0	7500	0	2000	0	500	0	0	0		0	75	0	0	0	0	7500	0	2000	0	500	0	0	0		0	75	0	0	0	0	7500	0	2000	0	500	0	0	0	
20200320	1100	20300101	1100	90300	999999	0	0	1	4	-1	0	0	0	0	0	0	0	0	0	0	0	0	0		-1	0	0	0	0	0	0	0	0	0	0	0	0	0		-1	0	0	0	0	0	0	0	0	0	0	0	0	0		492	0	0	0	0	0	0	0	0	0	10000	0	0	0	必出超激稀有角色的白金轉蛋！快來獲得心儀的貓咪吧！
20200330	1100	20200413	1100	90400	999999	0	0	1	1	494	150	0	0	0	0	7000	0	2500	0	500	0	0	0	人氣虛擬歌手登場！『初音未來』合作轉蛋！★點圖可以看詳細內容喔!!
20200406	1100	20200408	1100	90400	999999	0	0	1	2	-1	0	0	0	0	0	0	0	0	0	0	0	0	0		454	150	0	0	0	0	7000	0	2500	0	500	0	0	0	從異世界被召喚來的怪物美少女★點圖可以看詳細內容喔！
20200408	1100	20200410	1100	90400	999999	0	0	1	2	-1	0	0	0	0	0	0	0	0	0	0	0	0	0		445	150	0	0	0	0	6970	0	2500	0	500	0	30	0	貓咪軍團珍藏的超級武器！神秘角色新登場！？★點圖可以看詳細內容喔！
20200410	1100	20200413	1100	90400	999999	0	0	1	2	-1	0	0	0	0	0	0	0	0	0	0	0	0	0		427	150	0	0	0	0	6970	0	2500	0	500	1	30	0	對上黑敵能力大爆發！有強大效果的戰國武將們！★點圖確認詳細吧！！
20200410	1100	20200413	1100	90400	999999	0	0	1	1	494	150	0	0	0	0	7000	0	2500	0	500	1	0	0	超人氣虛擬歌手『初音未來』合作轉蛋進行中！★11連轉超激確定活動中！
20200413	1100	20200427	1100	90400	999999	0	0	1	2	-1	0	0	0	0	0	0	0	0	0	0	0	0	0		502	150	0	0	0	0	7000	0	2500	0	500	0	0	0	春季限定！快來獲得可愛的復活節貓咪吧！★點圖可以看詳細內容喔！
20200413	1100	20200415	1100	90400	999999	0	0	1	1	448	150	0	0	0	0	6970	0	2500	0	500	0	30	0	來自宇宙盡頭的各種精靈們！還有新神秘角色！？★點圖可以看詳細內容喔！
20200415	1100	20200417	1100	90400	999999	0	0	1	1	430	150	0	0	0	0	6970	0	2500	0	500	0	30	0	打倒阻礙的敵人！戰鬥力十足又可愛的電腦少女們！★點圖可看詳細內容！
20200416	1100	20200502	0	90400	999999	0	0	0	4	-1	0	0	0	0	0	0	0	0	0	0	0	0	0		-1	0	0	0	0	0	0	0	0	0	0	0	0	0		-1	0	0	0	0	0	0	0	0	0	0	0	0	0		42	0	300	0	0	0	5100	0	3500	0	1400	0	0	0	限時開放★能夠獲得喵力達與XP的特別轉蛋！★5月1日為止！
20200417	1100	20200420	1100	90400	999999	0	0	1	1	491	150	0	0	0	0	6500	0	2600	0	900	0	0	0	超強的限定角色「影傑漆黑達太貓」登場！★超激稀有角色出現率大幅上升！
[end]
