[start]
20180109	1100	20300101	1100	50700	999999	0	0	0	1	0	0	0	0	10000	0	0	0	0	0	0	0	0	0	
20170101	0	20300101	0	80200	999999	0	0	2	3	0	30	0	0	0	0	7500	0	2000	0	500	0	0	0		0	30	0	0	0	0	7500	0	2000	0	500	0	0	0		0	30	0	0	0	0	7500	0	2000	0	500	0	0	0	
20170101	0	20300101	0	80200	999999	0	0	3	3	0	75	0	0	0	0	7500	0	2000	0	500	0	0	0		0	75	0	0	0	0	7500	0	2000	0	500	0	0	0		0	75	0	0	0	0	7500	0	2000	0	500	0	0	0	
20210503	1100	20300101	0	100400	999999	0	0	0	3	-1	0	0	0	0	0	0	0	0	0	0	0	0	0		-1	0	0	0	0	0	0	0	0	0	0	0	0	0		62	0	0	0	0	0	7400	0	2100	0	500	0	0	0	限時開放！收集小小貓咪的好機會！
20210416	1100	20300101	0	100400	999999	0	0	0	4	-1	0	0	0	0	0	0	0	0	0	0	0	0	0		-1	0	0	0	0	0	0	0	0	0	0	0	0	0		-1	0	0	0	0	0	0	0	0	0	0	0	0	0		63	0	300	0	0	0	5100	0	3500	0	1400	0	0	0	限時開放★能夠獲得喵力達與XP的特別轉蛋！
20220106	1100	20300101	1100	110100	999999	0	0	0	1	64	0	2300	0	10000	0	0	0	0	0	0	0	0	0	
20240426	1100	20300101	0	130300	999999	0	0	1	4	-1	0	0	0	0	0	0	0	0	0	0	0	0	0		-1	0	0	0	0	0	0	0	0	0	0	0	0	0		-1	0	0	0	0	0	0	0	0	0	0	0	0	0		873	0	0	0	0	0	0	0	0	0	9500	0	500	0	必定可以獲得1隻超激稀有等級以上角色的「傳說轉蛋」！	0	0	0	0
20240426	1100	20300101	0	130300	999999	0	0	1	5	-1	0	0	0	0	0	0	0	0	0	0	0	0	0		-1	0	0	0	0	0	0	0	0	0	0	0	0	0		-1	0	0	0	0	0	0	0	0	0	0	0	0	0		-1	0	0	0	0	0	0	0	0	0	0	0	0	0		872	0	0	0	0	0	0	0	0	0	10000	0	0	0	必出超激稀有角色的白金轉蛋！快來獲得心儀的貓咪吧！	0	0	0	0	0
20240712	1100	20300101	000	130401	999999	0	0	1	4	-1	0	0	0	0	0	0	0	0	0	0	0	0	0		-1	0	0	0	0	0	0	0	0	0	0	0	0	0		-1	0	0	0	0	0	0	0	0	0	0	0	0	0		878	0	0	0	0	0	0	0	0	0	9500	0	500	0	必定可以獲得1隻超激稀有等級以上角色的「傳說轉蛋」！
20240715	1100	20240805	1100	130401	999999	0	0	1	2	-1	0	0	0	0	0	0	0	0	0	0	0	0	0		887	150	0	16384	0	0	7000	0	2500	0	500	0	0	0	追加新角色！充滿幸福氣氛的期間限定轉蛋「完美新娘」登場★點圖確認詳細吧!!
20240715	1100	20240806	000	130401	999999	0	0	4	2	-1	0	0	0	0	0	0	0	0	0	0	0	0	0				29	0	0	0	800	0	5000	0	3000	0	1000	1	200	0	【惡魔的完美新娘】消費「傳說的聖水」來轉的限定轉蛋！★8月5日止	再使用本轉蛋	次，就必定會出現限定角色！
20240729	1100	20240805	1100	130500	999999	0	0	1	2	-1	0	0	0	0	0	0	0	0	0	0	0	0	0		887	150	0	0	0	0	7000	0	2500	0	500	1	0	0	追加新角色！充滿幸福氣氛的期間限定轉蛋「完美新娘」登場★點圖確認詳細吧!!
20240731	1100	20240802	1100	130500	999999	0	0	1	3	-1	0	0	0	0	0	0	0	0	0	0	0	0	0		-1	0	0	0	0	0	0	0	0	0	0	0	0	0		732	150	0	0	0	0	6970	0	2500	0	500	1	30	0	傳說中的龍族們霸氣降臨！★點圖確認詳細吧!!
20240802	1100	20240805	1100	130500	999999	0	0	1	1	870	150	0	0	0	0	6470	0	2600	0	900	0	30	0	限定傳說稀有「曉之伊邪那岐」參戰！超激角色出現率大增的「超級貓咪祭」進行中!!
20240802	1100	20240805	1100	130500	999999	0	0	1	3	-1	0	0	0	0	0	0	0	0	0	0	0	0	0		-1	0	0	0	0	0	0	0	0	0	0	0	0	0		868	150	0	16384	0	0	6970	0	2500	0	500	0	30	0	穿越電子空間來到這裡的美少女們一同登場！★點圖確認詳細吧!!	0	0	0
20240802	1100	20240805	1100	130500	999999	0	0	1	2	-1	0	0	0	0	0	0	0	0	0	0	0	0	0		887	150	0	16384	0	0	7000	0	2500	0	500	0	0	0	追加新角色！充滿幸福氣氛的期間限定轉蛋「完美新娘」登場★點圖確認詳細吧!!
20240805	1100	20240819	1100	130500	999999	0	0	1	1	905	150	0	16384	0	0	7000	0	2500	0	500	0	0	0	共有6位限定角色的「神劍闖江湖」轉蛋登場！★點圖確認詳細吧!!
20240805	1100	20240807	1100	130500	999999	0	0	1	2	-1	0	0	0	0	0	0	0	0	0	0	0	0	0		811	150	0	16384	0	0	6970	0	2500	0	500	0	30	0	神秘生物大集合 傳說的不明貓一族 登場！★點圖可以看詳細內容喔!!
20240807	1100	20240809	1100	130500	999999	0	0	1	2	-1	0	0	0	0	0	0	0	0	0	0	0	0	0		741	150	0	16384	0	0	6970	0	2500	0	500	0	30	0	超強大且有著即戰力的貓咪們一同登場！★點圖確認詳細吧!!
20240809	1100	20240812	1100	130500	999999	0	0	1	2	-1	0	0	0	0	0	0	0	0	0	0	0	0	0		835	150	0	16384	0	0	6970	0	2500	0	500	0	30	0	來自宇宙盡頭的精靈們參戰！★點圖確認詳細吧!!	0	0
[end]
