[start]
20180109	1100	20300101	0	60700	999999	0	0	0	1	0	0	0	0	10000	0	0	0	0	0	0	0	0	0	
20160101	0	20300101	0	50700	999999	0	0	1	1	0	150	0	0	0	0	7500	0	2000	0	500	0	0	0	ここでしか手に入らないキャラクターが必ず出現！しかもレアキャラ以上確定!!
20180101	0	20300101	0	80200	999999	0	0	2	3	33	30	0	0	0	0	7500	0	2000	0	500	0	0	0		23	30	0	0	0	0	7500	0	2000	0	500	0	0	0		0	30	0	0	0	0	7500	0	2000	0	500	0	0	0	
20180101	0	20300101	0	80200	999999	0	0	3	3	33	75	0	0	0	0	7500	0	2000	0	500	0	0	0		23	75	0	0	0	0	7500	0	2000	0	500	0	0	0		0	75	0	0	0	0	7500	0	2000	0	500	0	0	0	
20191209	1100	20300101	000	90100	999999	0	0	1	4	-1	0	0	0	0	0	0	0	0	0	0	0	0	0		-1	0	0	0	0	0	0	0	0	0	0	0	0	0		-1	0	0	0	0	0	0	0	0	0	0	0	0	0		480	0	0	0	0	0	0	0	0	0	10000	0	0	0	超激レアのキャラクターが必ず１体手に入る「プラチナガチャ」！
20191226	1100	20200109	2359	90100	999999	0	0	0	3	-1	0	0	0	0	0	0	0	0	0	0	0	0	0		-1	0	0	0	0	0	0	0	0	0	0	0	0	0		39	0	0	0	0	0	7400	0	2100	0	500	0	0	0	【期間限定】ちびネコ達が手に入る特別仕様のイベントガチャ！★1月9日まで！
20200101	000	20200109	1100	90100	999999	0	0	0	2	-1	0	0	0	0	0	0	0	0	0	0	0	0	0		3	0	300	0	400	0	2000	0	7000	0	600	0	0	0	高確率でマタタビが手に入るイベント限定特別ガチャ！　1月9日11時まで！
20200104	1100	20200106	1100	90100	999999	0	0	1	1	430	150	0	3832	0	0	6970	0	2500	0	500	1	30	0	英雄令嬢メルシュ参戦！パワフルでキュートな電脳少女達！★詳細はバナーをタップ!!
20200106	1100	20200109	1100	90100	999999	0	0	1	1	442	150	0	3832	0	0	6970	0	2500	0	500	1	30	0	にゃんこワールドの偉大なる神々！シークレット新参戦！？★詳細はバナーをタップ!!
20200104	1100	20200109	1100	90100	999999	0	0	1	2	-1	0	0	0	0	0	0	0	0	0	0	0	0	0		474	150	0	3832	0	0	6970	0	2500	0	500	1	30	0	期間限定キャラも登場する、特別仕様の新年ガチャ！★11連で超激レア確定!!
20200116	1100	20200201	2359	90100	999999	0	0	0	4	-1	0	0	0	0	0	0	0	0	0	0	0	0	0		-1	0	0	0	0	0	0	0	0	0	0	0	0	0		-1	0	0	0	0	0	0	0	0	0	0	0	0	0		37	0	300	0	0	0	5100	0	3500	0	1400	0	0	0	【期間限定】ネコビタンとXPが手に入る特別仕様ガチャ！★2月1日まで！
20200111	1100	20200118	1100	90100	999999	0	0	0	2	-1	0	0	0	0	0	0	0	0	0	0	0	0	0		5	0	0	2	500	0	7000	0	2000	0	500	0	0	0	高確率でキャッツアイが手に入るイベント限定特別ガチャ！　1月18日11時まで！
20200118	1100	20200125	1100	90100	999999	0	0	0	2	-1	0	0	0	0	0	0	0	0	0	0	0	0	0		3	0	300	0	400	0	2000	0	7000	0	600	0	0	0	高確率でマタタビが手に入るイベント限定特別ガチャ！　1月25日11時まで！
20200109	1100	20200111	1100	90100	999999	0	0	1	1	453	150	0	4	0	0	7000	0	2500	0	500	0	0	0	メタルな敵に効果絶大！限定キャラも登場の特別版！★おまけアップイベント開催中!!
20200111	1100	20200113	1100	90100	999999	0	0	1	1	475	150	0	0	0	0	6970	0	2500	0	500	0	30	0	きんたろう参戦！にゃんこワールド最大級の仰天進化！★詳細はバナーをタップ!!
20200113	1100	20200115	1100	90100	999999	0	0	1	1	448	150	0	0	0	0	6970	0	2500	0	500	0	30	0	個性的で愉快な精霊を仲間にしよう！シークレット新参戦！？★詳細はバナーをタップ!!
20200115	1100	20200117	1100	90100	999999	0	0	1	1	433	150	0	0	0	0	6970	0	2500	0	500	0	30	0	角龍グラディオス参戦！圧倒的な存在感を放つドラゴン達！★詳細はバナーをタップ!!
20200117	1100	20200120	1100	90100	999999	0	0	1	1	479	150	0	0	0	0	6500	0	2600	0	900	0	0	0	限定キャラ「影傑ダークダルターニャ」も参戦！★超激レア出現率が今だけ超アップ!!
[end]
