[start]
20180109	1100	20300101	0	60700	999999	0	0	0	1	0	0	0	0	10000	0	0	0	0	0	0	0	0	0	
20180101	0	20300101	0	80200	999999	0	0	2	3	33	30	0	0	0	0	7500	0	2000	0	500	0	0	0		23	30	0	0	0	0	7500	0	2000	0	500	0	0	0		0	30	0	0	0	0	7500	0	2000	0	500	0	0	0	
20180101	0	20300101	0	80200	999999	0	0	3	3	33	75	0	0	0	0	7500	0	2000	0	500	0	0	0		23	75	0	0	0	0	7500	0	2000	0	500	0	0	0		0	75	0	0	0	0	7500	0	2000	0	500	0	0	0	
20210426	1100	20300101	000	100400	999999	0	0	0	3	-1	0	0	0	0	0	0	0	0	0	0	0	0	0		-1	0	0	0	0	0	0	0	0	0	0	0	0	0		62	0	0	0	0	0	7400	0	2100	0	500	0	0	0	ちびネコ達が手に入る特別仕様のイベントガチャ！
20210316	1100	20300101	000	100400	999999	0	0	0	4	-1	0	0	0	0	0	0	0	0	0	0	0	0	0		-1	0	0	0	0	0	0	0	0	0	0	0	0	0		-1	0	0	0	0	0	0	0	0	0	0	0	0	0		63	0	300	0	0	0	5100	0	3500	0	1400	0	0	0	ネコビタンとXPが手に入る特別仕様ガチャ！
20211208	000	20300101	000	110100	999999	0	0	0	1	64	0	2300	0	10000	0	0	0	0	0	0	0	0	0	
20230610	1100	20300101	000	120400	999999	0	0	1	4	-1	0	0	0	0	0	0	0	0	0	0	0	0	0		-1	0	0	0	0	0	0	0	0	0	0	0	0	0		-1	0	0	0	0	0	0	0	0	0	0	0	0	0		816	0	0	0	0	0	0	0	0	0	9500	0	500	0	超激レア以上のキャラクターが必ず１体手に入る「レジェンドガチャ」！
20230610	1100	20300101	000	120400	999999	0	0	1	5	-1	0	0	0	0	0	0	0	0	0	0	0	0	0		-1	0	0	0	0	0	0	0	0	0	0	0	0	0		-1	0	0	0	0	0	0	0	0	0	0	0	0	0		-1	0	0	0	0	0	0	0	0	0	0	0	0	0		815	0	0	0	0	0	0	0	0	0	10000	0	0	0	超激レアのキャラクターが必ず１体手に入る「プラチナガチャ」！
20230811	1100	20300101	000	120501	999999	0	0	1	4	-1	0	0	0	0	0	0	0	0	0	0	0	0	0		-1	0	0	0	0	0	0	0	0	0	0	0	0	0		-1	0	0	0	0	0	0	0	0	0	0	0	0	0		828	0	0	0	0	0	0	0	0	0	9500	0	500	0	超激レア以上のキャラクターが必ず１体手に入る「レジェンドガチャ」！
20230811	1100	20300101	000	120501	999999	0	0	1	5	-1	0	0	0	0	0	0	0	0	0	0	0	0	0		-1	0	0	0	0	0	0	0	0	0	0	0	0	0		-1	0	0	0	0	0	0	0	0	0	0	0	0	0		-1	0	0	0	0	0	0	0	0	0	0	0	0	0		827	0	0	0	0	0	0	0	0	0	10000	0	0	0	超激レアのキャラクターが必ず１体手に入る「プラチナガチャ」！
20230928	1100	20300101	000	120600	999999	0	0	1	4	-1	0	0	0	0	0	0	0	0	0	0	0	0	0		-1	0	0	0	0	0	0	0	0	0	0	0	0	0		-1	0	0	0	0	0	0	0	0	0	0	0	0	0		840	0	0	0	0	0	0	0	0	0	9500	0	500	0	超激レア以上のキャラクターが必ず１体手に入る「レジェンドガチャ」！
20230928	1100	20300101	000	120600	999999	0	0	1	5	-1	0	0	0	0	0	0	0	0	0	0	0	0	0		-1	0	0	0	0	0	0	0	0	0	0	0	0	0		-1	0	0	0	0	0	0	0	0	0	0	0	0	0		-1	0	0	0	0	0	0	0	0	0	0	0	0	0		839	0	0	0	0	0	0	0	0	0	10000	0	0	0	超激レアのキャラクターが必ず１体手に入る「プラチナガチャ」！
20231004	1100	20231018	1100	120700	999999	0	0	1	1	848	150	0	0	0	0	7000	0	2500	0	500	0	0	0	熱血キャラクターが揃う「熱血!大運動会」ガチャ登場！★詳細はバナーをタップ!!
20231004	1100	20231018	1100	120700	999999	0	0	1	2	-1	0	0	0	0	0	0	0	0	0	0	0	0	0		849	150	0	0	0	0	7000	0	2500	0	500	0	0	0	熱血キャラクターが揃う「熱血!大運動会」ガチャ登場！★詳細はバナーをタップ!!
20231011	1100	20231018	1100	120700	999999	0	0	0	2	-1	0	0	0	0	0	0	0	0	0	0	0	0	0		3	0	300	0	400	0	2000	0	7000	0	600	0	0	0	高確率でマタタビが手に入るイベント限定特別ガチャ！
20231008	1100	20231018	1100	120700	999999	0	0	1	1	848	150	0	0	0	0	7000	0	2500	0	500	1	0	0	熱血キャラクターが揃う「熱血!大運動会」ガチャ登場！★11連で超激レア確定!!
20231008	1100	20231018	1100	120700	999999	0	0	1	2	-1	0	0	0	0	0	0	0	0	0	0	0	0	0		849	150	0	0	0	0	7000	0	2500	0	500	1	0	0	熱血キャラクターが揃う「熱血!大運動会」ガチャ登場！★11連で超激レア確定!!
20231013	1100	20231016	1100	120700	999999	0	0	1	1	679	150	0	16384	0	0	6970	0	2500	0	500	0	30	0	にゃんこワールドの偉大なる神々、ここに集結！★詳細はバナーをタップ!!
20231013	1100	20231018	1100	120700	999999	0	0	1	2	-1	0	0	0	0	0	0	0	0	0	0	0	0	0		848	150	0	0	0	0	7000	0	2500	0	500	0	0	0	熱血キャラクターが揃う「熱血!大運動会」ガチャ登場！★詳細はバナーをタップ!!	0	0
20231013	1100	20231018	1100	120700	999999	0	0	1	3	-1	0	0	0	0	0	0	0	0	0	0	0	0	0		-1	0	0	0	0	0	0	0	0	0	0	0	0	0		849	150	0	0	0	0	7000	0	2500	0	500	0	0	0	熱血キャラクターが揃う「熱血!大運動会」ガチャ登場！★詳細はバナーをタップ!!	0	0	0
20231016	1100	20231101	1100	120700	999999	0	0	1	1	762	150	0	16384	0	0	7000	0	2500	0	500	0	0	0	ハロウィン限定のコスプレキャラを手に入れよう！★詳細はバナーをタップ!!	0
20231018	1100	20231101	1100	120700	999999	0	0	1	1	850	150	0	16384	0	0	7000	0	2500	0	500	0	0	0	超激8体、限定キャラ全部で13体登場の『初音ミク』ガチャ！★詳細はバナーから!!
20231018	1100	20231101	1100	120700	999999	0	0	1	2	-1	0	0	0	0	0	0	0	0	0	0	0	0	0		762	150	0	16384	0	0	7000	0	2500	0	500	0	0	0	ハロウィン限定のコスプレキャラを手に入れよう！★詳細はバナーをタップ!!
20231018	1100	20231020	1100	120700	999999	0	0	1	3	-1	0	0	0	0	0	0	0	0	0	0	0	0	0		-1	0	0	0	0	0	0	0	0	0	0	0	0	0		732	150	0	16384	0	0	6970	0	2500	0	500	0	30	0	超生命体特効を持つキャラクター「海龍ダライアサン」参戦！★詳細はバナーをタップ!!
20231020	1100	20231023	1100	120700	999999	0	0	1	1	838	150	0	0	0	0	6500	0	2600	0	900	0	0	0	「非命の王フォノウ」参戦！★超激レア出現率超アップの「極ネコ祭」開催中!!
20231020	1100	20231101	1100	120700	999999	0	0	1	2	-1	0	0	0	0	0	0	0	0	0	0	0	0	0		850	150	0	16384	0	0	7000	0	2500	0	500	0	0	0	超激8体、限定キャラ全部で13体登場の『初音ミク』ガチャ！★詳細はバナーから!!
20231020	1100	20231101	1100	120700	999999	0	0	1	3	-1	0	0	0	0	0	0	0	0	0	0	0	0	0		-1	0	0	0	0	0	0	0	0	0	0	0	0	0		762	150	0	16384	0	0	7000	0	2500	0	500	0	0	0	ハロウィン限定のコスプレキャラを手に入れよう！★詳細はバナーをタップ!!
20231023	1100	20231101	1100	120700	999999	0	0	1	1	850	150	0	16384	0	0	7000	0	2500	0	500	0	0	0	超激8体、限定キャラ全部で13体登場の『初音ミク』ガチャ！★詳細はバナーから!!
20231023	1100	20231101	1100	120700	999999	0	0	1	2	-1	0	0	0	0	0	0	0	0	0	0	0	0	0		762	150	0	16384	0	0	7000	0	2500	0	500	0	0	0	ハロウィン限定のコスプレキャラを手に入れよう！★詳細はバナーをタップ!!
20231023	1100	20231025	1100	120700	999999	0	0	1	3	-1	0	0	0	0	0	0	0	0	0	0	0	0	0		-1	0	0	0	0	0	0	0	0	0	0	0	0	0		799	150	0	16384	0	0	6970	0	2500	0	500	0	30	0	「サンダージャック」参戦！正義と闇の力を併せ持つ救世主達！★詳細はバナーをタップ!!
20231025	1100	20231027	1100	120700	999999	0	0	1	3	-1	0	0	0	0	0	0	0	0	0	0	0	0	0		-1	0	0	0	0	0	0	0	0	0	0	0	0	0		708	150	0	16384	0	0	6970	0	2500	0	500	0	30	0	超生命体特効を持つキャラクター「服部半蔵」参戦！★詳細はバナーをタップ!!	0	0	0
[end]
