[start]
20180109	1100	20300101	0	60700	999999	0	0	0	1	0	0	0	0	10000	0	0	0	0	0	0	0	0	0	
20180101	0	20300101	0	80200	999999	0	0	2	3	33	30	0	0	0	0	7500	0	2000	0	500	0	0	0		23	30	0	0	0	0	7500	0	2000	0	500	0	0	0		0	30	0	0	0	0	7500	0	2000	0	500	0	0	0	
20180101	0	20300101	0	80200	999999	0	0	3	3	33	75	0	0	0	0	7500	0	2000	0	500	0	0	0		23	75	0	0	0	0	7500	0	2000	0	500	0	0	0		0	75	0	0	0	0	7500	0	2000	0	500	0	0	0	
20210426	1100	20300101	000	100400	999999	0	0	0	3	-1	0	0	0	0	0	0	0	0	0	0	0	0	0		-1	0	0	0	0	0	0	0	0	0	0	0	0	0		62	0	0	0	0	0	7400	0	2100	0	500	0	0	0	ちびネコ達が手に入る特別仕様のイベントガチャ！
20210316	1100	20300101	000	100400	999999	0	0	0	4	-1	0	0	0	0	0	0	0	0	0	0	0	0	0		-1	0	0	0	0	0	0	0	0	0	0	0	0	0		-1	0	0	0	0	0	0	0	0	0	0	0	0	0		63	0	300	0	0	0	5100	0	3500	0	1400	0	0	0	ネコビタンとXPが手に入る特別仕様ガチャ！
20211208	000	20300101	000	110100	999999	0	0	0	1	64	0	2300	0	10000	0	0	0	0	0	0	0	0	0	
20240223	1100	20300101	000	130200	999999	0	0	1	4	-1	0	0	0	0	0	0	0	0	0	0	0	0	0		-1	0	0	0	0	0	0	0	0	0	0	0	0	0		-1	0	0	0	0	0	0	0	0	0	0	0	0	0		873	0	0	0	0	0	0	0	0	0	9500	0	500	0	超激レア以上のキャラクターが必ず１体手に入る「レジェンドガチャ」！
20240223	1100	20300101	000	130200	999999	0	0	1	5	-1	0	0	0	0	0	0	0	0	0	0	0	0	0		-1	0	0	0	0	0	0	0	0	0	0	0	0	0		-1	0	0	0	0	0	0	0	0	0	0	0	0	0		-1	0	0	0	0	0	0	0	0	0	0	0	0	0		872	0	0	0	0	0	0	0	0	0	10000	0	0	0	超激レアのキャラクターが必ず１体手に入る「プラチナガチャ」！
20240428	1100	20300101	000	130300	999999	0	0	1	4	-1	0	0	0	0	0	0	0	0	0	0	0	0	0		-1	0	0	0	0	0	0	0	0	0	0	0	0	0		-1	0	0	0	0	0	0	0	0	0	0	0	0	0		878	0	0	0	0	0	0	0	0	0	9500	0	500	0	超激レア以上のキャラクターが必ず１体手に入る「レジェンドガチャ」！
20240614	1100	20300101	000	130401	999999	0	0	1	4	-1	0	0	0	0	0	0	0	0	0	0	0	0	0		-1	0	0	0	0	0	0	0	0	0	0	0	0	0		-1	0	0	0	0	0	0	0	0	0	0	0	0	0		886	0	0	0	0	0	0	0	0	0	9500	0	500	0	超激レア以上のキャラクターが必ず１体手に入る「レジェンドガチャ」！
20240614	1100	20300101	000	130401	999999	0	0	1	5	-1	0	0	0	0	0	0	0	0	0	0	0	0	0		-1	0	0	0	0	0	0	0	0	0	0	0	0	0		-1	0	0	0	0	0	0	0	0	0	0	0	0	0		-1	0	0	0	0	0	0	0	0	0	0	0	0	0		885	0	0	0	0	0	0	0	0	0	10000	0	0	0	超激レアのキャラクターが必ず１体手に入る「プラチナガチャ」！
20240704	1100	20300101	000	130500	999999	0	0	1	4	-1	0	0	0	0	0	0	0	0	0	0	0	0	0		-1	0	0	0	0	0	0	0	0	0	0	0	0	0		-1	0	0	0	0	0	0	0	0	0	0	0	0	0		895	0	0	0	0	0	0	0	0	0	9500	0	500	0	超激レア以上のキャラクターが必ず１体手に入る「レジェンドガチャ」！
20240704	1100	20300101	000	130500	999999	0	0	1	5	-1	0	0	0	0	0	0	0	0	0	0	0	0	0		-1	0	0	0	0	0	0	0	0	0	0	0	0	0		-1	0	0	0	0	0	0	0	0	0	0	0	0	0		-1	0	0	0	0	0	0	0	0	0	0	0	0	0		894	0	0	0	0	0	0	0	0	0	10000	0	0	0	超激レアのキャラクターが必ず１体手に入る「プラチナガチャ」！
20240823	1100	20300101	000	130600	999999	0	0	1	4	-1	0	0	0	0	0	0	0	0	0	0	0	0	0		-1	0	0	0	0	0	0	0	0	0	0	0	0	0		-1	0	0	0	0	0	0	0	0	0	0	0	0	0		912	0	0	0	0	0	0	0	0	0	9500	0	500	0	超激レア以上のキャラクターが必ず１体手に入る「レジェンドガチャ」！
20240823	1100	20300101	000	130600	999999	0	0	1	5	-1	0	0	0	0	0	0	0	0	0	0	0	0	0		-1	0	0	0	0	0	0	0	0	0	0	0	0	0		-1	0	0	0	0	0	0	0	0	0	0	0	0	0		-1	0	0	0	0	0	0	0	0	0	0	0	0	0		911	0	0	0	0	0	0	0	0	0	10000	0	0	0	超激レアのキャラクターが必ず１体手に入る「プラチナガチャ」！
20241005	1100	20300101	000	130700	999999	0	0	1	4	-1	0	0	0	0	0	0	0	0	0	0	0	0	0		-1	0	0	0	0	0	0	0	0	0	0	0	0	0		-1	0	0	0	0	0	0	0	0	0	0	0	0	0		921	0	0	0	0	0	0	0	0	0	9500	0	500	0	超激レア以上のキャラクターが必ず１体手に入る「レジェンドガチャ」！
20241005	1100	20300101	000	130700	999999	0	0	1	5	-1	0	0	0	0	0	0	0	0	0	0	0	0	0		-1	0	0	0	0	0	0	0	0	0	0	0	0	0		-1	0	0	0	0	0	0	0	0	0	0	0	0	0		-1	0	0	0	0	0	0	0	0	0	0	0	0	0		920	0	0	0	0	0	0	0	0	0	10000	0	0	0	超激レアのキャラクターが必ず１体手に入る「プラチナガチャ」！
20241014	1100	20241021	1100	130700	999999	0	0	0	2	-1	0	0	0	0	0	0	0	0	0	0	0	0	0		3	0	300	0	400	0	2000	0	7000	0	600	0	0	0	高確率でマタタビが手に入るイベント限定特別ガチャ！
20241014	1100	20241108	1100	130700	999999	0	0	1	2	-1	0	0	0	0	0	0	0	0	0	0	0	0	0		922	150	0	16384	0	0	7000	0	2500	0	500	0	0	0	新キャラ追加！ハロウィン限定のコスプレキャラを手に入れよう！★詳細はバナーをタップ!!	0	0	0	0
20241014	1100	20241016	1100	130700	999999	0	0	1	3	-1	0	0	0	0	0	0	0	0	0	0	0	0	0		-1	0	0	0	0	0	0	0	0	0	0	0	0	0		891	150	0	16384	0	0	6970	0	2500	0	500	0	30	0	召喚能力を持つキャラクター「砲龍ガンドロス」参戦！★詳細はバナーをタップ!!
20241016	1100	20241018	1100	130700	999999	0	0	1	3	-1	0	0	0	0	0	0	0	0	0	0	0	0	0		-1	0	0	0	0	0	0	0	0	0	0	0	0	0		772	150	0	4	0	0	7000	0	2500	0	500	0	0	0	超生命体に強いキャラクターが揃う特別なガチャ！★おまけアップイベント開催中!!	0	0	0	0	0	0
20241018	1100	20241021	1100	130700	999999	0	0	1	1	919	150	0	0	0	0	6470	0	2600	0	900	0	30	0	限定伝説レア「宵のイザナミ」参戦！★超激レア出現率超アップの「極ネコ祭」開催中!!	0	0
20241018	1100	20241021	1100	130700	999999	0	0	1	3	-1	0	0	0	0	0	0	0	0	0	0	0	0	0		-1	0	0	0	0	0	0	0	0	0	0	0	0	0		907	150	0	16384	0	0	6970	0	2500	0	500	0	30	0	召喚能力を持つキャラクター「ネコダイナザウルス」参戦！★詳細はバナーをタップ!!	0	0	0	0	0	0
20241021	1100	20241108	1100	130700	999999	0	0	1	1	922	150	0	16384	0	0	7000	0	2500	0	500	0	0	0	新キャラ追加！ハロウィン限定のコスプレキャラを手に入れよう！★詳細はバナーをタップ!!	0	0
20241021	1100	20241024	1100	130700	999999	0	0	1	2	-1	0	0	0	0	0	0	0	0	0	0	0	0	0		523	150	0	4	0	0	7000	0	2500	0	500	0	0	0	敵の波動攻撃に強いキャラが揃う「波動バスターズ」！★おまけアップイベント開催中!!	0	0	0	0
20241021	1100	20241024	1100	130700	999999	0	0	1	3	-1	0	0	0	0	0	0	0	0	0	0	0	0	0		-1	0	0	0	0	0	0	0	0	0	0	0	0	0		869	150	0	16384	0	0	6970	0	2500	0	500	0	30	0	召喚能力を持つキャラクター「鉄籠のペガサ」参戦！★詳細はバナーをタップ!!	0	0	0	0	0	0
20241024	1100	20241027	1100	130700	999999	0	0	1	1	861	150	0	0	0	0	6940	0	2500	0	500	0	60	0	限定超激レア「ネコ王女」含む女性キャラ中心の特別ガチャ! 伝説レアのみ出現率2倍!!	0	0
20241024	1100	20241108	1100	130700	999999	0	0	1	2	-1	0	0	0	0	0	0	0	0	0	0	0	0	0		922	150	0	16384	0	0	7000	0	2500	0	500	0	0	0	新キャラ追加！ハロウィン限定のコスプレキャラを手に入れよう！★詳細はバナーをタップ!!	0	0	0	0
20241024	1100	20241027	1100	130700	999999	0	0	1	3	-1	0	0	0	0	0	0	0	0	0	0	0	0	0		-1	0	0	0	0	0	0	0	0	0	0	0	0	0		798	150	0	16384	0	0	6970	0	2500	0	500	0	30	0	「サンダージャック」参戦！正義と闇の力を併せ持つ救世主達！★詳細はバナーをタップ!!	0	0	0	0	0	0
20241021	1100	20241109	000	130701	999999	0	0	4	1	34	0	0	0	2000	0	5000	0	3000	0	0	0	0	0	【期間限定】伝説の魂で回せる限定ガチャ！★11月8日まで！			0	600
[end]
