[start]
20180109	1100	20300101	0	60700	999999	0	0	0	1	0	0	0	0	10000	0	0	0	0	0	0	0	0	0	
20180101	0	20300101	0	80200	999999	0	0	2	3	33	30	0	0	0	0	7500	0	2000	0	500	0	0	0		23	30	0	0	0	0	7500	0	2000	0	500	0	0	0		0	30	0	0	0	0	7500	0	2000	0	500	0	0	0	
20180101	0	20300101	0	80200	999999	0	0	3	3	33	75	0	0	0	0	7500	0	2000	0	500	0	0	0		23	75	0	0	0	0	7500	0	2000	0	500	0	0	0		0	75	0	0	0	0	7500	0	2000	0	500	0	0	0	
20210426	1100	20300101	000	100400	999999	0	0	0	3	-1	0	0	0	0	0	0	0	0	0	0	0	0	0		-1	0	0	0	0	0	0	0	0	0	0	0	0	0		62	0	0	0	0	0	7400	0	2100	0	500	0	0	0	ちびネコ達が手に入る特別仕様のイベントガチャ！
20210316	1100	20300101	000	100400	999999	0	0	0	4	-1	0	0	0	0	0	0	0	0	0	0	0	0	0		-1	0	0	0	0	0	0	0	0	0	0	0	0	0		-1	0	0	0	0	0	0	0	0	0	0	0	0	0		63	0	300	0	0	0	5100	0	3500	0	1400	0	0	0	ネコビタンとXPが手に入る特別仕様ガチャ！
20211208	000	20300101	000	110100	999999	0	0	0	1	64	0	2300	0	10000	0	0	0	0	0	0	0	0	0	
20250210	1100	20250317	1100	140200	999999	0	0	1	4	-1	0	0	0	0	0	0	0	0	0	0	0	0	0		-1	0	0	0	0	0	0	0	0	0	0	0	0	0		-1	0	0	0	0	0	0	0	0	0	0	0	0	0		961	0	0	0	0	0	0	0	0	0	5000	0	5000	0	「1億DL記念チケット」で回せる期間限定ガチャ（2025年3月17日10:59まで）	0	0	0	0	0	0	0	0
20250210	1100	20300101	000	140200	999999	0	0	1	5	-1	0	0	0	0	0	0	0	0	0	0	0	0	0		-1	0	0	0	0	0	0	0	0	0	0	0	0	0		-1	0	0	0	0	0	0	0	0	0	0	0	0	0		-1	0	0	0	0	0	0	0	0	0	0	0	0	0		954	0	0	0	0	0	0	0	0	0	9500	0	500	0	超激レア以上のキャラクターが必ず１体手に入る「レジェンドガチャ」！	0	0	0	0	0	0	0	0	0	0
20250210	1100	20300101	0	140200	999999	0	0	1	6	-1	150	0	0	0	0	7500	0	2000	0	500	0	0	0		-1	150	0	0	0	0	7500	0	2000	0	500	0	0	0		-1	150	0	0	0	0	7500	0	2000	0	500	0	0	0		-1	150	0	0	0	0	7500	0	2000	0	500	0	0	0		-1	150	0	0	0	0	7500	0	2000	0	500	0	0	0		953	0	0	0	0	0	0	0	0	0	10000	0	0	0	超激レアのキャラクターが必ず１体手に入る「プラチナガチャ」！	0	0	0	0	0	0	0	0	0	0	0	0
20250210	1100	20250221	1100	140200	999999	0	0	0	2	-1	0	0	0	0	0	0	0	0	0	0	0	0	0		65	0	0	2	500	0	6900	0	2000	0	500	0	100	0	高確率でキャッツアイが手に入るイベント限定特別ガチャ！	0	0	0	0
20250210	1100	20250224	1100	140200	999999	0	0	1	3	-1	0	0	0	0	0	0	0	0	0	0	0	0	0		-1	0	0	0	0	0	0	0	0	0	0	0	0	0		785	150	0	0	0	0	6500	0	2500	0	1000	0	0	0	★超激レア出現率2倍!★バレンタイン期間限定のスイートなガチャが登場！	0	0	0	0	0	0
20250214	1100	20250224	1100	140200	999999	0	0	1	3	-1	0	0	0	0	0	0	0	0	0	0	0	0	0		-1	0	0	0	0	0	0	0	0	0	0	0	0	0		785	150	0	16384	0	0	7000	0	2500	0	500	0	0	0	バレンタイン期間限定のスイートなガチャが登場！★詳細はバナーをタップ!!	0	0	0	0	0	0
20250217	1100	20250219	1100	140200	999999	0	0	1	1	942	150	0	4216	0	0	6440	0	2500	0	1000	0	60	0	★超激レア・伝説レア出現率2倍!★バラエティ豊富な世界一即戦力になるにゃんこ達！	0	0
20250217	1100	20250219	1100	140200	999999	0	0	1	2	-1	0	0	0	0	0	0	0	0	0	0	0	0	0		951	150	0	4216	0	0	6440	0	2500	0	1000	0	60	0	★超激レア・伝説レア出現率2倍!★宇宙の果てからやって来た、個性的で愉快な精霊達！	0	0	0	0
20250217	1100	20250224	1100	140200	999999	0	0	1	3	-1	0	0	0	0	0	0	0	0	0	0	0	0	0		-1	0	0	0	0	0	0	0	0	0	0	0	0	0		785	150	0	4216	0	0	6500	0	2500	0	1000	0	0	0	★超激レア出現率2倍!★バレンタイン期間限定のスイートなガチャが登場！	0	0	0	0	0	0
20250219	1100	20250221	1100	140200	999999	0	0	1	1	945	150	0	4216	0	0	6440	0	2500	0	1000	0	60	0	★超激レア・伝説レア出現率2倍!★圧倒的な存在感を放つドラゴン達を手に入れよう！	0	0
20250219	1100	20250221	1100	140200	999999	0	0	1	2	-1	0	0	0	0	0	0	0	0	0	0	0	0	0		941	150	0	4216	0	0	6440	0	2500	0	1000	0	60	0	★超激レア・伝説レア出現率2倍!★ねこなのか何なのか、謎に包まれたキモかわ生命体！	0	0	0	0
20250221	1100	20250303	1100	140200	999999	0	0	0	2	-1	0	0	0	0	0	0	0	0	0	0	0	0	0		3	0	300	0	400	0	2000	0	7000	0	600	0	0	0	高確率でマタタビが手に入るイベント限定特別ガチャ！	0	0	0	0
20250221	1100	20250228	1100	140200	999999	0	0	1	1	967	150	0	4216	0	0	6930	0	2500	0	500	0	70	0	限定超激レアキャラクター「こねこ」参戦！1億ダウンロード記念の特別なガチャ！	0	0
20250221	1100	20250224	1100	140200	999999	0	0	1	2	-1	0	0	0	0	0	0	0	0	0	0	0	0	0		785	150	0	20600	0	0	7000	0	2500	0	500	0	0	0	バレンタイン期間限定のスイートなガチャが登場！★詳細はバナーをタップ!!	0	0	0	0
20250221	1100	20250224	1100	140200	999999	0	0	1	3	-1	0	0	0	0	0	0	0	0	0	0	0	0	0		-1	0	0	0	0	0	0	0	0	0	0	0	0	0		950	150	0	20600	0	0	6970	0	2500	0	500	0	30	0	属性を持たない敵と悪魔に強いキャラ「忍者娘トモエ」参戦！★詳細はバナーをタップ!!	0	0	0	0	0	0
20250224	1100	20250226	1100	140200	999999	0	0	1	2	-1	0	0	0	0	0	0	0	0	0	0	0	0	0		946	150	0	20600	0	0	6970	0	2500	0	500	0	30	0	進化後に召喚能力を持つキャラクター「花咲かじいさん」参戦！★詳細はバナーをタップ!!	0	0	0	0
20250224	1100	20250226	1100	140200	999999	0	0	1	3	-1	0	0	0	0	0	0	0	0	0	0	0	0	0		-1	0	0	0	0	0	0	0	0	0	0	0	0	0		949	150	0	20600	0	0	6970	0	2500	0	500	0	30	0	3属性に打たれ強いキャラ「建築兵団スフィンクス」参戦！★詳細はバナーをタップ!!	0	0	0	0	0	0
20250226	1100	20250228	1100	140200	999999	0	0	1	2	-1	0	0	0	0	0	0	0	0	0	0	0	0	0		947	150	0	20600	0	0	6970	0	2500	0	500	0	30	0	召喚能力を持つキャラクター「特命機動アクセル」参戦！★詳細はバナーをタップ!!	0	0	0	0
20250226	1100	20250228	1100	140200	999999	0	0	1	3	-1	0	0	0	0	0	0	0	0	0	0	0	0	0		-1	0	0	0	0	0	0	0	0	0	0	0	0	0		948	150	0	20600	0	0	6970	0	2500	0	500	0	30	0	攻撃速度に優れ、波動を放つキャラ「光翼神イシス」参戦！★詳細はバナーをタップ!!	0	0	0	0	0	0
20250228	1100	20250303	1100	140200	999999	0	0	1	1	952	150	0	4216	0	0	6470	0	2600	0	900	0	30	0	新限定キャラ「幼天女ルーナ」参戦！★超激レア出現率超アップの「超ネコ祭」開催中!!	0	0
20250228	1100	20250303	1100	140200	999999	0	0	1	3	-1	0	0	0	0	0	0	0	0	0	0	0	0	0		-1	0	0	0	0	0	0	0	0	0	0	0	0	0		943	150	0	20600	0	0	6970	0	2500	0	500	0	30	0	召喚能力を持つキャラクター「明智光秀」参戦！★詳細はバナーをタップ!!	0	0	0	0	0	0
[end]
